A246/TeX/figs/measurements/ALL0013/A0013CH1.CSV

Memory Length,25000,
Trigger Level,-1.320E+00,
Source,CH1,
Vertical Units,V,
Vertical Scale,1.000E-02,
Vertical Position,5.200E-03,
Horizontal Units,s,
Horizontal Scale,1.000E-04,
Horizontal Position,1.100E-03,
Horizontal Mode,Main,
Sampling Period,8.000E-08,
Firmware,V1.09,
Time,06-May-21 16:37,
Waveform Data,
-140,
-140,
-140,
-140,
-140,
-140,
-140,
-140,
-140,
-140,
-140,
-140,
-140,
-140,
-140,
-140,
-140,
-140,
-140,
-140,
-140,
-140,
-140,
-140,
-140,
-140,
-140,
-140,
-140,
-140,
-140,
-140,
-140,
-140,
-140,
-140,
-140,
-140,
-140,
-140,
-140,
-140,
-140,
-140,
-140,
-140,
-140,
-140,
-140,
-140,
-140,
-140,
-140,
-140,
-140,
-140,
-140,
-140,
-140,
-140,
-140,
-140,
-140,
-140,
-140,
-140,
-140,
-140,
-140,
-140,
-140,
-140,
-140,
-140,
-140,
-140,
-140,
-140,
-140,
-140,
-140,
-140,
-140,
-140,
-140,
-140,
-140,
-140,
-140,
-140,
-140,
-140,
-140,
-140,
-140,
-140,
-140,
-140,
-140,
-140,
-140,
-140,
-140,
-140,
-140,
-140,
-140,
-140,
-140,
-140,
-140,
-140,
-140,
-140,
-140,
-140,
-140,
-140,
-140,
-140,
-140,
-140,
-140,
-140,
-140,
-140,
-140,
-140,
-140,
-140,
-140,
-140,
-140,
-140,
-140,
-140,
-140,
-140,
-140,
-140,
-140,
-140,
-140,
-140,
-140,
-140,
-140,
-140,
-140,
-140,
-140,
-140,
-140,
-140,
-140,
-140,
-140,
-140,
-140,
-140,
-140,
-140,
-140,
-140,
-140,
-140,
-140,
-140,
-140,
-140,
-140,
-140,
-140,
-140,
-140,
-140,
-140,
-140,
-140,
-140,
-140,
-140,
-140,
-140,
-140,
-140,
-140,
-140,
-140,
-140,
-140,
-140,
-140,
-140,
-140,
-140,
-140,
-140,
-140,
-140,
-140,
-140,
-140,
-140,
-140,
-140,
-140,
-140,
-140,
-140,
-140,
-140,
-140,
-140,
-140,
-140,
-140,
-140,
-140,
-140,
-140,
-140,
-140,
-140,
-140,
-140,
-140,
-140,
-140,
-140,
-140,
-140,
-140,
-140,
-140,
-140,
-140,
-140,
-140,
-140,
-140,
-140,
-140,
-140,
-140,
-140,
-140,
-140,
-140,
-140,
-140,
-140,
-140,
-140,
-140,
-140,
-140,
-140,
-140,
-140,
-140,
-140,
-140,
-140,
-140,
-140,
-140,
-140,
-140,
-140,
-140,
-140,
-140,
-140,
-140,
-140,
-140,
-140,
-140,
-140,
-140,
-140,
-140,
-140,
-140,
-140,
-140,
-140,
-140,
-140,
-140,
-140,
-140,
-140,
-140,
-140,
-140,
-140,
-140,
-140,
-140,
-140,
-140,
-140,
-140,
-140,
-140,
-140,
-140,
-140,
-140,
-140,
-140,
-140,
-140,
-140,
-140,
-140,
-140,
-140,
-140,
-140,
-140,
-140,
-140,
-140,
-140,
-140,
-140,
-140,
-140,
-140,
-140,
-140,
-140,
-140,
-140,
-140,
-140,
-140,
-140,
-140,
-140,
-140,
-140,
-140,
-140,
-140,
-140,
-140,
-140,
-140,
-140,
-140,
-140,
-140,
-140,
-140,
-140,
-140,
-140,
-140,
-140,
-140,
-140,
-140,
-140,
-140,
-140,
-140,
-140,
-140,
-140,
-140,
-140,
-140,
-140,
-140,
-140,
-140,
-140,
-140,
-140,
-140,
-140,
-140,
-140,
-140,
-140,
-140,
-140,
-140,
-140,
-140,
-140,
-140,
-140,
-140,
-140,
-140,
-140,
-140,
-140,
-140,
-140,
-140,
-140,
-140,
-140,
-140,
-140,
-140,
-140,
-140,
-140,
-140,
-140,
-140,
-140,
-140,
-140,
-140,
-140,
-140,
-140,
-140,
-140,
-140,
-140,
-140,
-140,
-140,
-140,
-140,
-140,
-140,
-140,
-140,
-140,
-140,
-140,
-140,
-140,
-140,
-140,
-140,
-140,
-140,
-140,
-140,
-140,
-140,
-140,
-140,
-140,
-140,
-140,
-140,
-140,
-140,
-140,
-140,
-140,
-140,
-140,
-140,
-140,
-140,
-140,
-140,
-140,
-140,
-140,
-140,
-140,
-140,
-140,
-140,
-140,
-140,
-140,
-140,
-140,
-140,
-140,
-140,
-140,
-140,
-140,
-140,
-140,
-140,
-140,
-140,
-140,
-140,
-140,
-140,
-140,
-140,
-140,
-140,
-140,
-140,
-140,
-140,
-140,
-140,
-140,
-140,
-140,
-140,
-140,
-140,
-140,
-140,
-140,
-140,
-140,
-140,
-140,
-140,
-140,
-140,
-140,
-140,
-140,
-140,
-140,
-140,
-140,
-140,
-140,
-140,
-140,
-140,
-140,
-140,
-140,
-140,
-140,
-140,
-140,
-140,
-140,
-140,
-140,
-140,
-140,
-140,
-140,
-140,
-140,
-140,
-140,
-140,
-140,
-140,
-140,
-140,
-140,
-140,
-140,
-140,
-140,
-140,
-140,
-140,
-140,
-140,
-140,
-140,
-140,
-140,
-140,
-140,
-140,
-140,
-140,
-140,
-140,
-140,
-140,
-140,
-140,
-140,
-140,
-140,
-140,
-140,
-140,
-140,
-140,
-140,
-140,
-140,
-140,
-140,
-140,
-140,
-140,
-140,
-140,
-140,
-140,
-140,
-140,
-140,
-140,
-140,
-140,
-140,
-140,
-140,
-140,
-140,
-140,
-140,
-140,
-140,
-140,
-140,
-140,
-140,
-140,
-140,
-140,
-140,
-140,
-140,
-140,
-140,
-140,
-140,
-140,
-140,
-140,
-140,
-140,
-140,
-140,
-140,
-140,
-140,
-140,
-140,
-140,
-140,
-140,
-140,
-140,
-140,
-140,
-140,
-140,
-140,
-140,
-140,
-140,
-140,
-140,
-140,
-140,
-140,
-140,
-140,
-140,
-140,
-140,
-140,
-140,
-140,
-140,
-140,
-140,
-140,
-140,
-140,
-140,
-140,
-140,
-140,
-140,
-140,
-140,
-140,
-140,
-140,
-140,
-140,
-140,
-140,
-140,
-140,
-140,
-140,
-140,
-140,
-140,
-140,
-140,
-140,
-140,
-140,
-140,
-140,
-140,
-140,
-140,
-140,
-140,
-140,
-140,
-140,
-140,
-140,
-140,
-140,
-140,
-140,
-140,
-140,
-140,
-140,
-140,
-140,
-140,
-140,
-140,
-140,
-140,
-140,
-140,
-140,
-140,
-140,
-140,
-140,
-140,
-140,
-140,
-140,
-140,
-140,
-140,
-140,
-140,
-140,
-140,
-140,
-140,
-140,
-140,
-140,
-140,
-140,
-140,
-140,
-140,
-140,
-140,
-140,
-140,
-140,
-140,
-140,
-140,
-140,
-140,
-140,
-140,
-140,
-140,
-140,
-140,
-140,
-140,
-140,
-140,
-140,
-140,
-140,
-140,
-140,
-140,
-140,
-140,
-140,
-140,
-140,
-140,
-140,
-140,
-140,
-140,
-140,
-140,
-140,
-140,
-140,
-140,
-140,
-140,
-140,
-140,
-140,
-140,
-140,
-140,
-140,
-140,
-140,
-140,
-140,
-140,
-140,
-140,
-140,
-140,
-140,
-140,
-140,
-140,
-140,
-140,
-140,
-140,
-140,
-140,
-140,
-140,
-140,
-140,
-140,
-140,
-140,
-140,
-140,
-140,
-140,
-140,
-140,
-140,
-140,
-140,
-140,
-140,
-140,
-140,
-140,
-140,
-140,
-140,
-140,
-140,
-140,
-140,
-140,
-140,
-140,
-140,
-140,
-140,
-140,
-140,
-140,
-140,
-140,
-140,
-140,
-140,
-140,
-140,
-140,
-140,
-140,
-140,
-140,
-140,
-140,
-140,
-140,
-140,
-140,
-140,
-140,
-140,
-140,
-140,
-140,
-140,
-140,
-140,
-140,
-140,
-140,
-140,
-140,
-140,
-140,
-140,
-140,
-140,
-140,
-140,
-140,
-140,
-140,
-140,
-140,
-140,
-140,
-140,
-140,
-140,
-140,
-140,
-140,
-140,
-140,
-140,
-140,
-140,
-140,
-140,
-140,
-140,
-140,
-140,
-140,
-140,
-140,
-140,
-140,
-140,
-140,
-140,
-140,
-140,
-140,
-140,
-140,
-140,
-140,
-140,
-140,
-140,
-140,
-140,
-140,
-140,
-140,
-140,
-140,
-140,
-140,
-140,
-140,
-140,
-140,
-140,
-140,
-140,
-140,
-140,
-140,
-140,
-140,
-140,
-140,
-140,
-140,
-140,
-140,
-140,
-140,
-140,
-140,
-140,
-140,
-140,
-140,
-140,
-140,
-140,
-140,
-140,
-140,
-140,
-140,
-140,
-140,
-140,
-140,
-140,
-140,
-140,
-140,
-140,
-140,
-140,
-140,
-140,
-140,
-140,
-140,
-140,
-140,
-140,
-140,
-140,
-140,
-140,
-140,
-140,
-140,
-140,
-140,
-140,
-140,
-140,
-140,
-140,
-140,
-140,
-140,
-140,
-140,
-140,
-140,
-140,
-140,
-140,
-140,
-140,
-140,
-140,
-140,
-140,
-140,
-140,
-140,
-140,
-140,
-140,
-140,
-140,
-140,
-140,
-140,
-140,
-140,
-140,
-140,
-140,
-140,
-140,
-140,
-140,
-140,
-140,
-140,
-140,
-140,
-140,
-140,
-140,
-140,
-140,
-140,
-140,
-140,
-140,
-140,
-140,
-140,
-140,
-140,
-140,
-140,
-140,
-140,
-140,
-140,
-140,
-140,
-140,
-140,
-140,
-140,
-140,
-140,
-140,
-140,
-140,
-140,
-140,
-140,
-140,
-140,
-140,
-140,
-140,
-140,
-140,
-140,
-140,
-140,
-140,
-140,
-140,
-140,
-140,
-140,
-140,
-140,
-140,
-140,
-140,
-140,
-140,
-140,
-140,
-140,
-140,
-140,
-140,
-140,
-140,
-140,
-140,
-140,
-140,
-140,
-140,
-140,
-140,
-140,
-140,
-140,
-140,
-140,
-140,
-140,
-140,
-140,
-140,
-140,
-140,
-140,
-140,
-140,
-140,
-140,
-140,
-140,
-140,
-140,
-140,
-140,
-140,
-140,
-140,
-140,
-140,
-140,
-140,
-140,
-140,
-140,
-140,
-140,
-140,
-140,
-140,
-140,
-140,
-140,
-140,
-140,
-140,
-140,
-140,
-140,
-140,
-140,
-140,
-140,
-140,
-140,
-140,
-140,
-140,
-140,
-140,
-140,
-140,
-140,
-140,
-140,
-140,
-140,
-140,
-140,
-140,
-140,
-140,
-140,
-140,
-140,
-140,
-140,
-140,
-140,
-140,
-140,
-140,
-140,
-140,
-140,
-140,
-140,
-140,
-140,
-140,
-140,
-140,
-140,
-140,
-140,
-140,
-140,
-140,
-140,
-140,
-140,
-140,
-140,
-140,
-140,
-140,
-140,
-140,
-140,
-140,
-140,
-140,
-140,
-140,
-140,
-140,
-140,
-140,
-140,
-140,
-140,
-140,
-140,
-140,
-140,
-140,
-140,
-140,
-140,
-140,
-140,
-140,
-140,
-140,
-140,
-140,
-140,
-140,
-140,
-140,
-140,
-140,
-140,
-140,
-140,
-140,
-140,
-140,
-140,
-140,
-140,
-140,
-140,
-140,
-140,
-140,
-140,
-140,
-140,
-140,
-140,
-140,
-140,
-140,
-140,
-140,
-140,
-140,
-140,
-140,
-140,
-140,
-140,
-140,
-140,
-140,
-140,
-140,
-140,
-140,
-140,
-140,
-140,
-140,
-140,
-140,
-140,
-140,
-140,
-140,
-140,
-140,
-140,
-140,
-140,
-140,
-140,
-140,
-140,
-140,
-140,
-140,
-140,
-140,
-140,
-140,
-140,
-140,
-140,
-140,
-140,
-140,
-140,
-140,
-140,
-140,
-140,
-140,
-140,
-140,
-140,
-140,
-140,
-140,
-140,
-140,
-140,
-140,
-140,
-140,
-140,
-140,
-140,
-140,
-140,
-140,
-140,
-140,
-140,
-140,
-140,
-140,
-140,
-140,
-140,
-140,
-140,
-140,
-140,
-140,
-140,
-140,
-140,
-140,
-140,
-140,
-140,
-140,
-140,
-140,
-140,
-140,
-140,
-140,
-140,
-140,
-140,
-140,
-140,
-140,
-140,
-140,
-140,
-140,
-140,
-140,
-140,
-140,
-140,
-140,
-140,
-140,
-140,
-140,
-140,
-140,
-140,
-140,
-140,
-140,
-140,
-140,
-140,
-140,
-140,
-140,
-140,
-140,
-140,
-140,
-140,
-140,
-140,
-140,
-140,
-140,
-140,
-140,
-140,
-140,
-140,
-140,
-140,
-140,
-140,
-140,
-140,
-140,
-140,
-140,
-140,
-140,
-140,
-140,
-140,
-140,
-140,
-140,
-140,
-140,
-140,
-140,
-140,
-140,
-140,
-140,
-140,
-140,
-140,
-140,
-140,
-140,
-140,
-140,
-140,
-140,
-140,
-140,
-140,
-140,
-140,
-140,
-140,
-140,
-140,
-140,
-140,
-140,
-140,
-140,
-140,
-140,
-140,
-140,
-140,
-140,
-140,
-140,
-140,
-140,
-140,
-140,
-140,
-140,
-140,
-140,
-140,
-140,
-140,
-140,
-140,
-140,
-140,
-140,
-140,
-140,
-140,
-140,
-140,
-140,
-140,
-140,
-140,
-140,
-140,
-140,
-140,
-140,
-140,
-140,
-140,
-140,
-140,
-140,
-140,
-140,
-140,
-140,
-140,
-140,
-140,
-140,
-140,
-140,
-140,
-140,
-140,
-140,
-140,
-140,
-140,
-140,
-140,
-140,
-140,
-140,
-140,
-140,
-140,
-140,
-140,
-140,
-140,
-140,
-140,
-140,
-140,
-140,
-140,
-140,
-140,
-140,
-140,
-140,
-140,
-140,
-140,
-140,
-140,
-140,
-140,
-140,
-140,
-140,
-140,
-140,
-140,
-140,
-140,
-140,
-140,
-140,
-140,
-140,
-140,
-140,
-140,
-140,
-140,
-140,
-140,
-140,
-140,
-140,
-140,
-140,
-140,
-140,
-140,
-140,
-140,
-140,
-140,
-140,
-140,
-140,
-140,
-140,
-140,
-140,
-140,
-140,
-140,
-140,
-140,
-140,
-140,
-140,
-140,
-140,
-140,
-140,
-140,
-140,
-140,
-140,
-140,
-140,
-140,
-140,
-140,
-140,
-140,
-140,
-140,
-140,
-140,
-140,
-140,
-140,
-140,
-140,
-140,
-140,
-140,
-140,
-140,
-140,
-140,
-140,
-140,
-140,
-140,
-140,
-140,
-140,
-140,
-140,
-140,
-140,
-140,
-140,
-140,
-140,
-140,
-140,
-140,
-140,
-140,
-140,
-140,
-140,
-140,
-140,
-140,
-140,
-140,
-140,
-140,
-140,
-140,
-140,
-140,
-140,
-140,
-140,
-140,
-140,
-140,
-140,
-140,
-140,
-140,
-140,
-140,
-140,
-140,
-140,
-140,
-140,
-140,
-140,
-140,
-140,
-140,
-140,
-140,
-140,
-140,
-140,
-140,
-140,
-140,
-140,
-140,
-140,
-140,
-140,
-140,
-140,
-140,
-140,
-140,
-140,
-140,
-140,
-140,
-140,
-140,
-140,
-140,
-140,
-140,
-140,
-140,
-140,
-140,
-140,
-140,
-140,
-140,
-140,
-140,
-140,
-140,
-140,
-140,
-140,
-140,
-140,
-140,
-140,
-140,
-140,
-140,
-140,
-140,
-140,
-140,
-140,
-140,
-140,
-140,
-140,
-140,
-140,
-140,
-140,
-140,
-140,
-140,
-140,
-140,
-140,
-140,
-140,
-140,
-140,
-140,
-140,
-140,
-140,
-140,
-140,
-140,
-140,
-140,
-140,
-140,
-140,
-140,
-140,
-140,
-140,
-140,
-140,
-140,
-140,
-140,
-140,
-140,
-140,
-140,
-140,
-140,
-140,
-140,
-140,
-140,
-140,
-140,
-140,
-140,
-140,
-140,
-140,
-140,
-140,
-140,
-140,
-140,
-140,
-140,
-140,
-140,
-140,
-140,
-140,
-140,
-140,
-140,
-140,
-140,
-140,
-140,
-140,
-140,
-140,
-140,
-140,
-140,
-140,
-140,
-140,
-140,
-140,
-140,
-140,
-140,
-140,
-140,
-140,
-140,
-140,
-140,
-140,
-140,
-140,
-140,
-140,
-140,
-140,
-140,
-140,
-140,
-140,
-140,
-140,
-140,
-140,
-140,
-140,
-140,
-140,
-140,
-140,
-140,
-140,
-140,
-140,
-140,
-140,
-140,
-140,
-140,
-140,
-140,
-140,
-140,
-140,
-140,
-140,
-140,
-140,
-140,
-140,
-140,
-140,
-140,
-140,
-140,
-140,
-140,
-140,
-140,
-140,
-140,
-140,
-140,
-140,
-140,
-140,
-140,
-140,
-140,
-140,
-140,
-140,
-140,
-140,
-140,
-140,
-140,
-140,
-140,
-140,
-140,
-140,
-140,
-140,
-140,
-140,
-140,
-140,
-140,
-140,
-140,
-140,
-140,
-140,
-140,
-140,
-140,
-140,
-140,
-140,
-140,
-140,
-140,
-140,
-140,
-140,
-140,
-140,
-140,
-140,
-140,
-140,
-140,
-140,
-140,
-140,
-140,
-140,
-140,
-140,
-140,
-140,
-140,
-140,
-140,
-140,
-140,
-140,
-140,
-140,
-140,
-140,
-140,
-140,
-140,
-140,
-140,
-140,
-140,
-140,
-140,
-140,
-140,
-140,
-140,
-140,
-140,
-140,
-140,
-140,
-140,
-140,
-140,
-140,
-140,
-140,
-140,
-140,
-140,
-140,
-140,
-140,
-140,
-140,
-140,
-140,
-140,
-140,
-140,
-140,
-140,
-140,
-140,
-140,
-140,
-140,
-140,
-140,
-140,
-140,
-140,
-140,
-140,
-140,
-140,
-140,
-140,
-140,
-140,
-140,
-140,
-140,
-140,
-140,
-140,
-140,
-140,
-140,
-140,
-140,
-140,
-140,
-140,
-140,
-140,
-140,
-140,
-140,
-140,
-140,
-140,
-140,
-140,
-140,
-140,
-140,
-140,
-140,
-140,
-140,
-140,
-140,
-140,
-140,
-140,
-140,
-140,
-140,
-140,
-140,
-140,
-140,
-140,
-140,
-140,
-140,
-140,
-140,
-140,
-140,
-140,
-140,
-140,
-140,
-140,
-140,
-140,
-140,
-140,
-140,
-140,
-140,
-140,
-140,
-140,
-140,
-140,
-140,
-140,
-140,
-140,
-140,
-140,
-140,
-140,
-140,
-140,
-140,
-140,
-140,
-140,
-140,
-140,
-140,
-140,
-140,
-140,
-140,
-140,
-140,
-140,
-140,
-140,
-140,
-140,
-140,
-140,
-140,
-140,
-140,
-140,
-140,
-140,
-140,
-140,
-140,
-140,
-140,
-140,
-140,
-140,
-140,
-140,
-140,
-140,
-140,
-140,
-140,
-140,
-140,
-140,
-140,
-140,
-140,
-140,
-140,
-140,
-140,
-140,
-140,
-140,
-140,
-140,
-140,
-140,
-140,
-140,
-140,
-140,
-140,
-140,
-140,
-140,
-140,
-140,
-140,
-140,
-140,
-140,
-140,
-140,
-140,
-140,
-140,
-140,
-140,
-140,
-140,
-140,
-140,
-140,
-140,
-140,
-140,
-140,
-140,
-140,
-140,
-140,
-140,
-140,
-140,
-140,
-140,
-140,
-140,
-140,
-140,
-140,
-140,
-140,
-140,
-140,
-140,
-140,
-140,
-140,
-140,
-140,
-140,
-140,
-140,
-140,
-140,
-140,
-140,
-140,
-140,
-140,
-140,
-140,
-140,
-140,
-140,
-140,
-140,
-140,
-140,
-140,
-140,
-140,
-140,
-140,
-140,
-140,
-140,
-140,
-140,
-140,
-140,
-140,
-140,
-140,
-140,
-140,
-140,
-140,
-140,
-140,
-140,
-140,
-140,
-140,
-140,
-140,
-140,
-140,
-140,
-140,
-140,
-140,
-140,
-140,
-140,
-140,
-140,
-140,
-140,
-140,
-140,
-140,
-140,
-140,
-140,
-140,
-140,
-140,
-140,
-140,
-140,
-140,
-140,
-140,
-140,
-140,
-140,
-140,
-140,
-140,
-140,
-140,
-140,
-140,
-140,
-140,
-140,
-140,
-140,
-140,
-140,
-140,
-140,
-140,
-140,
-140,
-140,
-140,
-140,
-140,
-140,
-140,
-140,
-140,
-140,
-140,
-140,
-140,
-140,
-140,
-140,
-140,
-140,
-140,
-140,
-140,
-140,
-140,
-140,
-140,
-140,
-140,
-140,
-140,
-140,
-140,
-140,
-140,
-140,
-140,
-140,
-140,
-140,
-140,
-140,
-140,
-140,
-140,
-140,
-140,
-140,
-140,
-140,
-140,
-140,
-140,
-140,
-140,
-140,
-140,
-140,
-140,
-140,
-140,
-140,
-140,
-140,
-140,
-140,
-140,
-140,
-140,
-140,
-139,
-140,
-140,
-140,
-140,
-140,
-140,
-140,
-140,
-140,
-140,
-137,
-140,
-140,
-140,
-140,
-140,
-140,
-140,
-140,
-140,
-140,
-138,
-140,
-140,
-140,
-140,
-140,
-140,
-140,
-140,
-139,
-140,
-140,
-140,
-140,
-136,
-140,
-140,
-140,
-137,
-140,
-137,
-140,
-140,
-140,
-138,
-140,
-140,
-140,
-140,
-140,
-139,
-140,
-140,
-140,
-138,
-138,
-140,
-140,
-140,
-140,
-138,
-140,
-138,
-140,
-138,
-140,
-138,
-139,
-140,
-140,
-135,
-138,
-135,
-140,
-137,
-137,
-137,
-140,
-138,
-140,
-137,
-138,
-140,
-140,
-140,
-140,
-135,
-137,
-138,
-140,
-134,
-138,
-133,
-140,
-136,
-139,
-131,
-139,
-139,
-139,
-135,
-136,
-137,
-136,
-137,
-137,
-135,
-134,
-136,
-137,
-134,
-137,
-133,
-139,
-133,
-140,
-133,
-139,
-134,
-139,
-137,
-140,
-134,
-136,
-134,
-137,
-137,
-131,
-132,
-132,
-133,
-135,
-129,
-133,
-134,
-137,
-133,
-135,
-131,
-137,
-135,
-137,
-134,
-136,
-132,
-137,
-134,
-135,
-132,
-134,
-131,
-135,
-132,
-131,
-131,
-134,
-135,
-133,
-131,
-134,
-131,
-134,
-131,
-131,
-129,
-131,
-131,
-132,
-129,
-131,
-129,
-134,
-128,
-131,
-131,
-134,
-134,
-134,
-133,
-131,
-133,
-132,
-133,
-134,
-129,
-129,
-129,
-135,
-125,
-127,
-125,
-134,
-127,
-132,
-126,
-132,
-125,
-129,
-129,
-132,
-129,
-126,
-133,
-132,
-131,
-128,
-125,
-129,
-133,
-128,
-126,
-131,
-129,
-133,
-126,
-131,
-127,
-133,
-126,
-131,
-127,
-127,
-126,
-129,
-128,
-125,
-124,
-126,
-129,
-126,
-126,
-127,
-128,
-131,
-126,
-131,
-125,
-130,
-126,
-131,
-128,
-128,
-125,
-128,
-127,
-128,
-124,
-125,
-125,
-128,
-123,
-123,
-123,
-127,
-125,
-126,
-125,
-125,
-124,
-127,
-126,
-127,
-121,
-127,
-123,
-128,
-123,
-124,
-122,
-129,
-123,
-126,
-124,
-127,
-125,
-127,
-125,
-125,
-123,
-123,
-123,
-123,
-121,
-120,
-121,
-125,
-118,
-121,
-118,
-125,
-121,
-125,
-121,
-124,
-124,
-126,
-122,
-125,
-123,
-122,
-126,
-125,
-121,
-118,
-123,
-124,
-122,
-123,
-118,
-122,
-123,
-123,
-117,
-126,
-118,
-120,
-121,
-125,
-117,
-119,
-118,
-122,
-121,
-119,
-116,
-121,
-121,
-123,
-119,
-119,
-121,
-125,
-121,
-122,
-119,
-122,
-119,
-124,
-117,
-118,
-113,
-121,
-118,
-121,
-111,
-117,
-118,
-120,
-115,
-119,
-116,
-118,
-119,
-120,
-117,
-118,
-119,
-117,
-120,
-119,
-115,
-119,
-118,
-124,
-114,
-120,
-113,
-121,
-118,
-121,
-115,
-117,
-118,
-117,
-117,
-114,
-113,
-116,
-117,
-115,
-113,
-114,
-115,
-117,
-115,
-118,
-111,
-119,
-116,
-119,
-115,
-119,
-113,
-117,
-115,
-117,
-114,
-113,
-113,
-114,
-115,
-113,
-110,
-113,
-115,
-114,
-110,
-114,
-114,
-115,
-113,
-114,
-111,
-113,
-115,
-117,
-109,
-112,
-111,
-117,
-114,
-116,
-110,
-117,
-115,
-114,
-111,
-112,
-114,
-112,
-115,
-116,
-109,
-107,
-111,
-111,
-111,
-110,
-105,
-113,
-110,
-113,
-107,
-110,
-111,
-116,
-109,
-112,
-111,
-112,
-113,
-113,
-111,
-110,
-110,
-111,
-111,
-112,
-109,
-110,
-109,
-113,
-106,
-111,
-105,
-111,
-109,
-113,
-106,
-109,
-107,
-109,
-110,
-109,
-107,
-107,
-110,
-112,
-107,
-107,
-108,
-110,
-109,
-110,
-109,
-111,
-108,
-113,
-107,
-109,
-103,
-108,
-107,
-109,
-103,
-105,
-105,
-109,
-106,
-103,
-103,
-107,
-107,
-109,
-103,
-106,
-108,
-109,
-109,
-109,
-105,
-105,
-107,
-108,
-105,
-109,
-101,
-107,
-107,
-106,
-102,
-105,
-106,
-107,
-103,
-107,
-102,
-103,
-107,
-106,
-103,
-101,
-103,
-105,
-105,
-104,
-102,
-105,
-102,
-106,
-102,
-107,
-101,
-105,
-103,
-109,
-105,
-105,
-104,
-106,
-104,
-100,
-102,
-101,
-103,
-102,
-100,
-100,
-99,
-103,
-99,
-103,
-100,
-101,
-101,
-107,
-101,
-104,
-99,
-105,
-105,
-102,
-99,
-101,
-103,
-103,
-101,
-101,
-100,
-101,
-101,
-103,
-99,
-99,
-97,
-101,
-102,
-100,
-97,
-101,
-101,
-101,
-95,
-97,
-98,
-101,
-98,
-101,
-95,
-99,
-97,
-101,
-101,
-99,
-99,
-101,
-103,
-102,
-99,
-98,
-99,
-102,
-98,
-97,
-95,
-98,
-97,
-99,
-93,
-98,
-95,
-101,
-97,
-101,
-94,
-97,
-99,
-98,
-99,
-95,
-95,
-97,
-99,
-98,
-95,
-96,
-95,
-98,
-97,
-99,
-91,
-98,
-95,
-101,
-94,
-93,
-95,
-98,
-95,
-95,
-93,
-91,
-97,
-96,
-93,
-93,
-93,
-96,
-91,
-97,
-96,
-96,
-93,
-99,
-96,
-98,
-91,
-97,
-96,
-100,
-91,
-92,
-92,
-93,
-94,
-94,
-91,
-94,
-92,
-96,
-94,
-94,
-91,
-94,
-95,
-93,
-91,
-91,
-92,
-94,
-91,
-93,
-89,
-94,
-90,
-97,
-92,
-93,
-90,
-94,
-97,
-95,
-91,
-91,
-95,
-92,
-93,
-90,
-87,
-89,
-91,
-91,
-86,
-89,
-87,
-93,
-88,
-91,
-88,
-93,
-91,
-94,
-91,
-89,
-90,
-93,
-92,
-87,
-91,
-87,
-91,
-90,
-89,
-89,
-89,
-91,
-87,
-93,
-87,
-89,
-89,
-91,
-89,
-89,
-86,
-87,
-89,
-89,
-85,
-85,
-86,
-87,
-90,
-89,
-87,
-87,
-88,
-93,
-89,
-89,
-87,
-90,
-90,
-89,
-85,
-89,
-86,
-89,
-85,
-88,
-82,
-85,
-85,
-90,
-85,
-85,
-86,
-89,
-87,
-84,
-85,
-85,
-88,
-86,
-86,
-85,
-83,
-89,
-83,
-88,
-83,
-85,
-85,
-91,
-83,
-86,
-81,
-85,
-85,
-86,
-86,
-83,
-84,
-84,
-83,
-83,
-81,
-79,
-81,
-84,
-81,
-80,
-82,
-87,
-82,
-86,
-80,
-83,
-84,
-86,
-83,
-85,
-83,
-84,
-84,
-83,
-83,
-81,
-81,
-86,
-82,
-82,
-79,
-81,
-83,
-84,
-79,
-82,
-79,
-81,
-81,
-80,
-77,
-81,
-79,
-81,
-78,
-79,
-79,
-77,
-83,
-85,
-78,
-81,
-80,
-84,
-84,
-80,
-79,
-83,
-81,
-80,
-78,
-79,
-78,
-80,
-77,
-82,
-73,
-79,
-78,
-80,
-79,
-77,
-77,
-81,
-79,
-78,
-78,
-79,
-81,
-81,
-79,
-76,
-78,
-78,
-79,
-82,
-75,
-79,
-77,
-84,
-77,
-78,
-75,
-78,
-79,
-79,
-75,
-75,
-78,
-77,
-77,
-75,
-75,
-75,
-74,
-78,
-75,
-75,
-72,
-79,
-77,
-79,
-74,
-80,
-75,
-78,
-77,
-77,
-75,
-77,
-75,
-75,
-73,
-73,
-75,
-73,
-77,
-77,
-71,
-74,
