A246/data/osci_data/ALL0016/A0016CH1.CSV

Memory Length,25000,
Trigger Level,-1.320E+00,
Source,CH1,
Vertical Units,V,
Vertical Scale,1.000E-02,
Vertical Position,5.200E-03,
Horizontal Units,s,
Horizontal Scale,1.000E-04,
Horizontal Position,1.124E-03,
Horizontal Mode,Main,
Sampling Period,8.000E-08,
Firmware,V1.09,
Time,06-May-21 16:39,
Waveform Data,
-140,
-140,
-140,
-140,
-140,
-140,
-140,
-140,
-140,
-140,
-140,
-140,
-140,
-140,
-140,
-140,
-140,
-140,
-140,
-140,
-140,
-140,
-140,
-140,
-140,
-140,
-140,
-140,
-140,
-140,
-140,
-140,
-140,
-140,
-140,
-140,
-140,
-140,
-140,
-140,
-140,
-140,
-140,
-140,
-140,
-140,
-140,
-140,
-140,
-140,
-140,
-140,
-140,
-140,
-140,
-140,
-140,
-140,
-140,
-140,
-140,
-140,
-140,
-140,
-140,
-140,
-140,
-140,
-140,
-140,
-140,
-140,
-140,
-140,
-140,
-140,
-140,
-140,
-140,
-140,
-140,
-140,
-140,
-140,
-140,
-140,
-140,
-140,
-140,
-140,
-140,
-140,
-140,
-140,
-140,
-140,
-140,
-140,
-140,
-140,
-140,
-140,
-140,
-140,
-140,
-140,
-140,
-140,
-140,
-140,
-140,
-140,
-140,
-140,
-140,
-140,
-140,
-140,
-140,
-140,
-140,
-140,
-140,
-140,
-140,
-140,
-140,
-140,
-140,
-140,
-140,
-140,
-140,
-140,
-140,
-140,
-140,
-140,
-140,
-140,
-140,
-140,
-140,
-140,
-140,
-140,
-140,
-140,
-140,
-140,
-140,
-140,
-140,
-140,
-140,
-140,
-140,
-140,
-140,
-140,
-140,
-140,
-140,
-140,
-140,
-140,
-140,
-140,
-140,
-140,
-140,
-140,
-140,
-140,
-140,
-140,
-140,
-140,
-140,
-140,
-140,
-140,
-140,
-140,
-140,
-140,
-140,
-140,
-140,
-140,
-140,
-140,
-140,
-140,
-140,
-140,
-140,
-140,
-140,
-140,
-140,
-140,
-140,
-140,
-140,
-140,
-140,
-140,
-140,
-140,
-140,
-140,
-140,
-140,
-140,
-140,
-140,
-140,
-140,
-140,
-140,
-140,
-140,
-140,
-140,
-140,
-140,
-140,
-140,
-140,
-140,
-140,
-140,
-140,
-140,
-140,
-140,
-140,
-140,
-140,
-140,
-140,
-140,
-140,
-140,
-140,
-140,
-140,
-140,
-140,
-140,
-140,
-140,
-140,
-140,
-140,
-140,
-140,
-140,
-140,
-140,
-140,
-140,
-140,
-140,
-140,
-140,
-140,
-140,
-140,
-140,
-140,
-140,
-140,
-140,
-140,
-140,
-140,
-140,
-140,
-140,
-140,
-140,
-140,
-140,
-140,
-140,
-140,
-140,
-140,
-140,
-140,
-140,
-140,
-140,
-140,
-140,
-140,
-140,
-140,
-140,
-140,
-140,
-140,
-140,
-140,
-140,
-140,
-140,
-140,
-140,
-140,
-140,
-140,
-140,
-140,
-140,
-140,
-140,
-140,
-140,
-140,
-140,
-140,
-140,
-140,
-140,
-140,
-140,
-140,
-140,
-140,
-140,
-140,
-140,
-140,
-140,
-140,
-140,
-140,
-140,
-140,
-140,
-140,
-140,
-140,
-140,
-140,
-140,
-140,
-140,
-140,
-140,
-140,
-140,
-140,
-140,
-140,
-140,
-140,
-140,
-140,
-140,
-140,
-140,
-140,
-140,
-140,
-140,
-140,
-140,
-140,
-140,
-140,
-140,
-140,
-140,
-140,
-140,
-140,
-140,
-140,
-140,
-140,
-140,
-140,
-140,
-140,
-140,
-140,
-140,
-140,
-140,
-140,
-140,
-140,
-140,
-140,
-140,
-140,
-140,
-140,
-140,
-140,
-140,
-140,
-140,
-140,
-140,
-140,
-140,
-140,
-140,
-140,
-140,
-140,
-140,
-140,
-140,
-140,
-140,
-140,
-140,
-140,
-140,
-140,
-140,
-140,
-140,
-140,
-140,
-140,
-140,
-140,
-140,
-140,
-140,
-140,
-140,
-140,
-140,
-140,
-140,
-140,
-140,
-140,
-140,
-140,
-140,
-140,
-140,
-140,
-140,
-140,
-140,
-140,
-140,
-140,
-140,
-140,
-140,
-140,
-140,
-140,
-140,
-140,
-140,
-140,
-140,
-140,
-140,
-140,
-140,
-140,
-140,
-140,
-140,
-140,
-140,
-140,
-140,
-140,
-140,
-140,
-140,
-140,
-140,
-140,
-140,
-140,
-140,
-140,
-140,
-140,
-140,
-140,
-140,
-140,
-140,
-140,
-140,
-140,
-140,
-140,
-140,
-140,
-140,
-140,
-140,
-140,
-140,
-140,
-140,
-140,
-140,
-140,
-140,
-140,
-140,
-140,
-140,
-140,
-140,
-140,
-140,
-140,
-140,
-140,
-140,
-140,
-140,
-140,
-140,
-140,
-140,
-140,
-140,
-140,
-140,
-140,
-140,
-140,
-140,
-140,
-140,
-140,
-140,
-140,
-140,
-140,
-140,
-140,
-140,
-140,
-140,
-140,
-140,
-140,
-140,
-140,
-140,
-140,
-140,
-140,
-140,
-140,
-140,
-140,
-140,
-140,
-140,
-140,
-140,
-140,
-140,
-140,
-140,
-140,
-140,
-140,
-140,
-140,
-140,
-140,
-140,
-140,
-140,
-140,
-140,
-140,
-140,
-140,
-140,
-140,
-140,
-140,
-140,
-140,
-140,
-140,
-140,
-140,
-140,
-140,
-140,
-140,
-140,
-140,
-140,
-140,
-140,
-140,
-140,
-140,
-140,
-140,
-140,
-140,
-140,
-140,
-140,
-140,
-140,
-140,
-140,
-140,
-140,
-140,
-140,
-140,
-140,
-140,
-140,
-140,
-140,
-140,
-140,
-140,
-140,
-140,
-140,
-140,
-140,
-140,
-140,
-140,
-140,
-140,
-140,
-140,
-140,
-140,
-140,
-140,
-140,
-140,
-140,
-140,
-140,
-140,
-140,
-140,
-140,
-140,
-140,
-140,
-140,
-140,
-140,
-140,
-140,
-140,
-140,
-140,
-140,
-140,
-140,
-140,
-140,
-140,
-140,
-140,
-140,
-140,
-140,
-140,
-140,
-140,
-140,
-140,
-140,
-140,
-140,
-140,
-140,
-140,
-140,
-140,
-140,
-140,
-140,
-140,
-140,
-140,
-140,
-140,
-140,
-140,
-140,
-140,
-140,
-140,
-140,
-140,
-140,
-140,
-140,
-140,
-140,
-140,
-140,
-140,
-140,
-140,
-140,
-140,
-140,
-140,
-140,
-140,
-140,
-140,
-140,
-140,
-140,
-140,
-140,
-140,
-140,
-140,
-140,
-140,
-140,
-140,
-140,
-140,
-140,
-140,
-140,
-140,
-140,
-140,
-140,
-140,
-140,
-140,
-140,
-140,
-140,
-140,
-140,
-140,
-140,
-140,
-140,
-140,
-140,
-140,
-140,
-138,
-140,
-140,
-140,
-137,
-140,
-140,
-140,
-140,
-140,
-138,
-140,
-140,
-140,
-140,
-140,
-140,
-140,
-140,
-140,
-140,
-140,
-140,
-140,
-140,
-140,
-140,
-140,
-140,
-140,
-139,
-140,
-139,
-140,
-140,
-140,
-137,
-140,
-140,
-140,
-138,
-140,
-139,
-140,
-140,
-140,
-139,
-139,
-140,
-140,
-139,
-140,
-140,
-140,
-140,
-140,
-138,
-140,
-138,
-140,
-139,
-140,
-134,
-140,
-139,
-140,
-139,
-135,
-140,
-139,
-139,
-140,
-135,
-134,
-140,
-139,
-136,
-140,
-134,
-140,
-140,
-140,
-134,
-140,
-140,
-140,
-139,
-140,
-137,
-138,
-140,
-140,
-138,
-137,
-134,
-137,
-138,
-137,
-134,
-137,
-137,
-140,
-134,
-137,
-134,
-139,
-137,
-140,
-134,
-136,
-135,
-139,
-136,
-137,
-135,
-136,
-139,
-140,
-135,
-137,
-138,
-140,
-137,
-139,
-136,
-139,
-135,
-139,
-134,
-136,
-131,
-136,
-136,
-139,
-130,
-133,
-133,
-137,
-135,
-137,
-133,
-134,
-138,
-137,
-135,
-135,
-134,
-136,
-137,
-136,
-131,
-135,
-131,
-139,
-133,
-135,
-129,
-137,
-133,
-137,
-131,
-135,
-134,
-135,
-134,
-135,
-133,
-131,
-133,
-133,
-133,
-131,
-129,
-135,
-135,
-137,
-129,
-137,
-131,
-137,
-134,
-137,
-131,
-134,
-134,
-137,
-132,
-131,
-131,
-133,
-134,
-132,
-129,
-131,
-131,
-133,
-132,
-133,
-129,
-133,
-133,
-135,
-127,
-131,
-131,
-135,
-129,
-132,
-127,
-132,
-131,
-135,
-128,
-129,
-131,
-134,
-131,
-135,
-128,
-127,
-133,
-134,
-131,
-131,
-125,
-129,
-129,
-132,
-125,
-129,
-126,
-131,
-129,
-132,
-126,
-130,
-129,
-132,
-130,
-129,
-129,
-131,
-131,
-131,
-129,
-127,
-129,
-133,
-128,
-131,
-123,
-129,
-127,
-133,
-125,
-130,
-124,
-130,
-129,
-129,
-126,
-127,
-127,
-129,
-127,
-123,
-125,
-128,
-130,
-129,
-125,
-128,
-129,
-132,
-126,
-133,
-123,
-129,
-127,
-134,
-126,
-124,
-123,
-129,
-127,
-126,
-121,
-123,
-127,
-127,
-123,
-127,
-125,
-125,
-127,
-129,
-125,
-125,
-125,
-129,
-126,
-127,
-121,
-126,
-126,
-128,
-122,
-127,
-123,
-126,
-126,
-127,
-123,
-124,
-126,
-125,
-129,
-123,
-121,
-123,
-126,
-126,
-119,
-123,
-119,
-124,
-122,
-127,
-121,
-127,
-122,
-129,
-123,
-124,
-122,
-126,
-125,
-126,
-122,
-120,
-125,
-125,
-124,
-122,
-121,
-120,
-124,
-126,
-118,
-124,
-119,
-126,
-121,
-128,
-118,
-119,
-120,
-125,
-121,
-121,
-118,
-120,
-123,
-121,
-119,
-119,
-121,
-123,
-123,
-125,
-119,
-121,
-123,
-125,
-122,
-121,
-117,
-125,
-119,
-119,
-118,
-121,
-118,
-122,
-118,
-121,
-115,
-118,
-121,
-122,
-118,
-114,
-121,
-121,
-121,
-120,
-115,
-117,
-121,
-123,
-114,
-120,
-115,
-121,
-118,
-123,
-115,
-118,
-117,
-122,
-121,
-120,
-115,
-117,
-121,
-119,
-116,
-113,
-117,
-115,
-116,
-117,
-114,
-117,
-114,
-121,
-114,
-119,
-111,
-119,
-119,
-120,
-114,
-117,
-118,
-121,
-119,
-116,
-116,
-115,
-117,
-117,
-114,
-114,
-115,
-120,
-117,
-119,
-112,
-113,
-115,
-120,
-113,
-115,
-111,
-116,
-114,
-117,
-110,
-112,
-114,
-113,
-115,
-116,
-113,
-113,
-115,
-118,
-114,
-113,
-113,
-116,
-118,
-115,
-110,
-116,
-114,
-114,
-111,
-113,
-110,
-113,
-113,
-115,
-109,
-111,
-109,
-115,
-113,
-111,
-110,
-112,
-115,
-113,
-112,
-112,
-111,
-113,
-113,
-113,
-110,
-113,
-110,
-117,
-110,
-113,
-109,
-115,
-115,
-116,
-109,
-111,
-113,
-113,
-112,
-109,
-110,
-107,
-110,
-111,
-107,
-109,
-107,
-109,
-109,
-114,
-105,
-109,
-110,
-113,
-110,
-111,
-107,
-111,
-111,
-110,
-109,
-109,
-110,
-111,
-110,
-109,
-107,
-108,
-109,
-112,
-105,
-108,
-103,
-109,
-112,
-110,
-103,
-109,
-107,
-111,
-107,
-106,
-106,
-106,
-109,
-111,
-105,
-105,
-107,
-111,
-110,
-108,
-106,
-107,
-109,
-110,
-105,
-106,
-104,
-109,
-105,
-109,
-102,
-107,
-103,
-109,
-106,
-105,
-102,
-107,
-106,
-106,
-105,
-103,
-105,
-106,
-107,
-106,
-102,
-103,
-108,
-108,
-104,
-108,
-101,
-106,
-103,
-108,
-102,
-104,
-105,
-109,
-103,
-105,
-101,
-102,
-107,
-101,
-102,
-100,
-102,
-103,
-102,
-104,
-99,
-101,
-103,
-109,
-99,
-105,
-100,
-107,
-105,
-105,
-99,
-103,
-104,
-103,
-102,
-103,
-102,
-101,
-104,
-105,
-98,
-101,
-103,
-105,
-101,
-102,
-97,
-101,
-102,
-103,
-98,
-99,
-100,
-103,
-99,
-103,
-97,
-99,
-102,
-103,
-101,
-101,
-98,
-100,
-103,
-102,
-101,
-99,
-101,
-105,
-100,
-99,
-98,
-101,
-99,
-99,
-96,
-99,
-95,
-99,
-98,
-101,
-95,
-97,
-99,
-102,
-99,
-96,
-99,
-98,
-102,
-99,
-97,
-98,
-98,
-101,
-98,
-103,
-94,
-99,
-98,
-102,
-95,
-98,
-97,
-100,
-99,
-97,
-96,
-95,
-97,
-96,
-94,
-93,
-95,
-96,
-97,
-98,
-94,
-96,
-93,
-101,
-96,
-100,
-94,
-98,
-97,
-101,
-96,
-94,
-93,
-98,
-99,
-94,
-94,
-95,
-97,
-97,
-94,
-94,
-93,
-94,
-97,
-98,
-91,
-92,
-94,
-97,
-94,
-94,
-90,
-95,
-94,
-96,
-91,
-93,
-94,
-95,
-96,
-97,
-92,
-92,
-95,
-97,
-94,
-91,
-92,
-94,
-95,
-95,
-90,
-90,
-90,
-93,
-90,
-93,
-86,
-93,
-90,
-93,
-93,
-93,
-91,
-91,
-96,
-94,
-91,
-87,
-93,
-93,
-91,
-90,
-89,
-91,
-94,
-97,
-87,
-92,
-90,
-93,
-92,
-93,
-86,
-90,
-91,
-91,
-91,
-85,
-89,
-88,
-90,
-89,
-85,
-87,
-90,
-91,
-89,
-91,
-88,
-92,
-89,
-94,
-89,
-89,
-88,
-91,
-91,
-89,
-87,
-89,
-90,
-89,
-87,
-87,
-88,
-87,
-88,
-90,
-85,
-86,
-88,
-92,
-87,
-87,
-85,
-86,
-89,
-91,
-83,
-87,
-86,
-89,
-89,
-89,
-85,
-88,
-89,
-91,
-87,
-86,
-85,
-86,
-91,
-87,
-84,
-83,
-86,
-89,
-85,
-85,
-81,
-87,
-85,
-89,
-80,
-85,
-84,
-89,
-87,
-85,
-85,
-85,
-87,
-87,
-85,
-81,
-83,
-87,
-87,
-85,
-81,
-84,
-84,
-88,
-83,
-87,
-78,
-85,
-83,
-88,
-83,
-83,
-82,
-84,
-85,
-83,
-79,
-79,
-85,
-85,
-81,
-84,
-83,
-81,
-87,
-88,
-82,
-85,
-81,
-86,
-84,
-82,
-79,
-84,
-83,
-85,
-78,
-81,
-79,
-81,
-80,
-82,
-78,
-80,
-81,
-81,
-83,
-79,
-80,
-81,
-83,
-84,
-78,
-77,
-79,
-83,
-78,
-81,
-75,
-85,
-83,
-85,
-77,
-80,
-81,
-83,
-82,
-83,
-79,
-77,
-79,
-79,
-83,
-77,
-77,
-78,
-78,
-81,
-75,
-79,
-75,
-82,
-78,
-83,
-75,
-76,
-81,
-81,
-78,
-76,
-75,
-79,
-82,
-79,
-74,
-75,
-81,
-78,
-79,
-80,
-76,
-79,
-79,
-80,
-75,
-77,
-74,
-77,
-77,
-78,
-71,
-76,
-77,
-78,
-74,
-75,
-74,
-75,
-79,
-77,
-77,
-77,
-78,
-79,
-77,
-75,
-77,
-77,
-75,
-78,
-72,
-74,
-70,
-77,
-74,
-76,
-73,
-76,
-73,
-78,
-74,
-75,
-72,
-73,
-77,
-75,
-75,
-69,
-73,
-75,
-75,
-73,
-70,
-75,
-74,
-78,
-70,
-76,
-71,
-78,
-75,
-79,
-71,
-73,
-75,
-77,
-74,
-70,
-69,
-70,
-75,
-72,
-70,
-69,
-73,
-73,
-71,
-74,
-69,
-72,
-71,
-77,
-70,
-71,
-72,
-73,
-74,
-75,
-69,
-70,
-76,
-74,
-72,
-71,
-70,
-72,
-73,
-74,
-70,
-69,
-69,
-71,
-73,
-70,
-66,
-69,
-70,
-73,
-67,
-69,
-67,
-71,
-69,
-70,
-67,
-69,
-70,
-70,
-71,
-73,
-69,
-70,
-75,
-73,
-69,
-67,
-69,
-71,
-71,
-70,
-65,
-71,
-69,
-72,
-65,
-69,
-68,
-71,
-68,
-71,
-67,
-65,
-70,
-69,
-71,
-65,
-67,
-65,
-70,
-69,
-65,
-67,
-67,
-71,
-67,
-70,
-64,
-69,
-69,
-74,
-68,
-66,
-68,
-67,
-71,
-67,
-65,
-63,
-67,
-67,
-66,
-63,
-65,
-66,
-66,
-69,
-64,
-64,
-66,
-69,
-67,
-67,
-63,
-66,
-66,
-70,
-66,
-65,
-66,
-67,
-67,
-68,
-63,
-65,
-65,
-67,
-65,
-66,
-65,
-65,
-68,
-68,
-59,
-59,
-62,
-67,
-61,
-65,
-57,
-65,
-63,
-67,
-60,
-64,
-62,
-64,
-66,
-66,
-65,
-61,
-67,
-67,
-66,
-61,
-62,
-62,
-66,
-66,
-60,
-64,
-61,
-66,
-63,
-67,
-57,
-62,
-61,
-65,
-61,
-60,
-61,
-63,
-67,
-62,
-60,
-59,
-63,
-61,
-61,
-62,
-58,
-63,
-63,
-67,
-58,
-61,
-62,
-66,
-60,
-63,
-60,
-61,
-62,
-65,
-59,
-59,
-60,
-58,
-59,
-59,
-60,
-59,
-59,
-60,
-61,
-60,
-56,
-60,
-62,
-62,
-59,
-59,
-60,
-64,
-61,
-61,
-56,
-60,
-61,
-61,
-59,
-61,
-59,
-58,
-63,
-60,
-60,
-57,
-61,
-60,
-61,
-56,
-55,
-58,
-58,
-58,
-53,
-58,
-55,
-60,
-57,
-60,
-57,
-57,
-59,
-59,
-61,
-56,
-57,
-57,
-61,
-59,
-55,
-55,
-58,
-58,
-55,
-57,
-54,
-58,
-53,
-60,
-55,
-57,
-54,
-59,
-57,
-54,
-55,
-55,
-58,
-57,
-56,
-54,
-55,
-54,
-55,
-59,
-54,
-56,
-56,
-59,
-57,
-59,
-55,
-57,
-56,
-59,
-54,
-53,
-54,
-55,
-55,
-56,
-53,
-53,
-55,
-55,
-54,
-54,
-53,
-52,
-56,
-57,
-51,
-53,
-53,
-55,
-56,
-56,
-51,
-56,
-55,
-55,
-53,
-55,
-53,
-53,
-56,
-55,
-54,
-53,
-53,
-56,
-58,
-52,
-51,
-52,
-54,
-54,
-49,
-52,
-49,
-54,
-49,
-54,
-51,
-50,
-52,
-58,
-53,
-53,
-50,
-53,
-58,
-53,
-52,
-48,
-55,
-55,
-51,
-51,
-50,
-52,
-51,
-55,
-50,
-55,
-49,
-54,
-51,
-54,
-47,
-49,
-53,
-53,
-49,
-48,
-50,
-49,
-52,
-51,
-51,
-49,
-51,
-52,
-53,
-53,
-48,
-52,
-51,
-54,
-51,
-50,
-49,
-51,
-51,
-49,
-48,
-50,
-47,
-49,
-51,
-49,
-49,
-46,
-50,
-53,
-49,
-46,
-50,
-51,
-49,
-49,
-45,
-47,
-49,
-53,
-47,
-50,
-48,
-49,
-48,
-53,
-46,
-48,
-51,
-49,
-52,
-46,
-47,
-47,
-52,
-47,
-46,
-45,
-46,
-48,
-44,
-47,
-42,
-47,
-46,
-50,
-47,
-50,
-43,
-49,
-52,
-48,
-47,
-45,
-50,
-46,
-47,
-48,
-45,
-45,
-46,
-50,
-43,
-45,
-43,
-47,
-46,
-51,
-42,
-46,
-46,
-48,
-44,
-41,
-44,
-45,
-46,
-45,
-43,
-40,
-45,
-45,
-48,
-48,
-43,
-46,
-50,
-51,
-46,
-47,
-45,
-47,
-46,
-47,
-41,
-44,
-43,
-45,
-44,
-43,
-41,
-41,
-45,
-46,
-46,
-44,
-43,
-47,
-47,
-43,
-43,
-43,
-46,
-44,
-43,
-45,
-39,
-45,
-45,
-46,
-42,
-43,
-41,
-48,
-45,
-41,
-43,
-43,
-47,
-43,
-42,
-40,
-41,
-39,
-43,
-42,
-40,
-38,
-41,
-48,
-42,
-42,
-40,
-42,
-45,
-46,
-41,
-41,
-44,
-42,
-45,
-41,
-43,
-38,
-44,
-45,
-41,
-40,
-39,
-41,
-43,
-44,
-38,
-42,
-41,
-43,
-41,
-43,
-37,
-38,
-41,
-45,
-37,
-36,
-41,
-42,
-42,
-42,
-38,
-38,
-45,
-45,
-41,
-40,
-43,
-44,
-41,
-41,
-38,
-38,
-39,
-41,
-38,
-41,
-35,
-38,
-38,
-43,
-39,
-38,
-37,
-39,
-42,
-39,
-38,
-37,
-42,
-39,
-39,
-39,
-39,
-39,
-41,
-41,
-35,
-39,
-37,
-41,
-39,
-41,
-35,
-38,
-39,
-39,
-38,
-38,
-37,
-36,
-41,
-37,
-37,
-32,
-36,
-37,
-38,
-36,
-36,
-38,
-38,
-41,
-37,
-39,
-37,
-39,
-40,
-40,
-39,
-37,
-40,
-40,
-37,
-35,
-35,
-33,
-41,
-38,
-36,
-34,
-37,
-39,
-37,
-37,
-36,
-37,
-36,
-39,
-37,
-33,
-33,
-37,
-35,
-39,
-35,
-34,
-38,
-39,
-37,
-35,
-37,
-37,
-39,
-39,
-36,
-36,
-35,
-33,
-37,
-37,
-32,
-33,
-35,
-39,
-33,
-34,
-30,
-36,
-37,
-37,
-33,
-33,
-38,
-37,
-35,
-33,
-35,
-32,
-37,
-37,
-35,
-32,
-34,
-38,
-35,
-39,
-33,
-34,
-36,
-40,
-31,
-35,
-33,
-33,
-35,
-36,
-33,
-30,
-36,
-35,
-33,
-30,
-31,
-31,
-37,
-34,
-31,
-32,
-34,
-36,
-35,
-37,
-33,
-35,
-34,
-37,
-33,
-33,
-33,
-32,
-35,
-35,
-31,
-29,
-33,
-34,
-36,
-31,
-30,
-32,
-35,
-35,
-31,
-29,
-31,
-33,
-33,
-34,
-30,
-31,
-33,
-37,
-31,
-32,
-29,
-35,
-35,
-35,
-32,
-30,
-36,
-32,
-35,
-32,
-31,
-28,
-33,
-32,
-29,
-32,
-27,
-32,
-33,
-33,
-27,
-31,
-33,
-34,
-30,
-32,
-33,
-31,
-36,
-33,
-31,
-31,
-33,
-32,
-34,
-30,
-29,
-30,
-30,
-34,
-29,
-31,
-28,
-34,
-30,
-33,
-30,
-29,
-29,
-32,
-32,
-28,
-30,
-30,
-31,
-29,
-30,
-25,
-32,
-32,
-33,
-31,
-29,
-29,
-31,
-32,
-30,
-30,
-29,
-33,
-30,
-31,
-26,
-25,
-29,
-33,
-28,
-27,
-27,
-28,
-33,
-28,
-28,
-30,
-30,
-30,
-31,
-29,
-28,
-29,
-30,
-31,
-29,
-25,
-29,
-31,
-30,
-31,
-25,
-30,
-31,
-29,
-30,
-29,
-31,
-24,
-32,
-29,
-28,
-26,
-27,
-27,
-28,
-26,
-24,
-26,
-28,
-32,
-23,
-27,
-27,
-31,
-30,
-31,
-27,
-27,
-31,
-27,
-30,
-27,
-29,
-25,
-30,
-29,
-25,
-24,
-27,
-31,
-27,
-26,
-25,
-29,
-27,
-29,
-26,
-25,
-27,
-26,
-29,
-28,
-26,
-24,
-29,
-30,
-29,
-25,
-26,
-28,
-32,
-30,
-25,
-27,
-29,
-29,
-29,
-30,
-23,
-24,
-27,
-29,
-27,
-23,
-24,
-28,
-29,
-27,
-25,
-25,
-29,
-26,
-28,
-26,
-27,
-26,
-27,
-28,
-24,
-24,
-27,
-28,
-27,
-27,
-23,
-26,
-25,
-31,
-25,
-23,
-25,
-26,
-31,
-25,
-25,
-22,
-29,
-24,
-27,
-24,
-24,
-25,
-24,
-27,
-22,
-24,
-23,
-28,
-27,
-29,
-22,
-26,
-27,
-28,
-28,
-25,
-27,
-24,
-27,
-25,
-26,
-21,
-23,
-25,
-26,
-25,
-21,
-24,
-26,
-26,
-21,
-25,
-22,
-25,
-26,
-26,
-25,
-22,
-26,
-25,
-25,
-22,
-22,
-23,
-30,
-26,
-22,
-23,
-27,
-27,
-27,
-25,
-21,
-26,
-23,
-26,
-21,
-21,
-21,
-23,
-24,
-24,
-21,
-21,
-23,
-25,
-25,
-21,
-22,
-25,
-28,
-25,
-23,
-23,
-25,
-25,
-25,
-26,
-19,
-24,
-23,
-26,
-21,
-23,
-19,
-25,
-25,
-25,
-22,
-24,
-26,
-23,
-23,
-20,
-24,
-20,
-26,
-24,
-23,
-19,
-22,
-26,
-22,
-24,
-21,
-25,
-24,
-28,
-22,
-22,
-25,
-23,
-27,
-21,
-21,
-18,
-25,
-23,
-22,
-21,
-20,
-21,
-22,
-26,
-19,
-21,
-22,
-25,
-22,
-25,
-21,
-21,
-25,
-22,
-22,
-22,
-21,
-21,
-25,
-25,
-20,
-20,
-24,
-25,
-26,
-19,
-21,
-21,
-24,
-25,
-19,
-20,
-21,
-22,
-20,
-23,
-17,
-18,
-21,
-25,
-22,
-18,
-21,
-22,
-27,
-23,
-20,
-19,
-25,
-20,
-24,
-21,
-21,
-20,
-24,
-24,
-18,
-21,
-17,
-23,
-21,
-22,
-20,
-19,
-24,
-23,
-21,
-19,
-21,
-17,
-22,
-21,
-21,
-17,
-21,
-22,
-20,
-22,
-19,
-23,
-22,
-25,
-21,
-23,
-20,
-22,
-23,
-23,
-19,
-17,
-21,
-21,
-22,
-19,
-17,
-17,
-20,
-22,
-19,
-17,
-21,
-22,
-21,
-19,
-19,
-20,
-21,
-21,
-18,
-21,
-19,
-18,
-21,
-23,
-19,
-17,
-20,
-21,
-22,
-19,
-18,
-19,
-25,
-21,
-21,
-19,
-19,
-19,
-19,
-20,
-17,
-17,
-15,
-24,
-19,
-21,
-15,
-19,
-21,
-22,
-21,
-17,
-22,
-21,
-22,
-17,
-20,
-18,
-23,
-19,
-20,
-19,
-17,
-19,
-20,
-21,
-16,
-18,
-20,
-22,
-21,
-19,
-19,
-15,
-22,
-20,
-17,
-17,
-17,
-17,
-22,
-21,
-17,
-17,
-19,
-22,
-19,
-19,
-20,
-21,
-23,
-23,
-15,
-19,
-15,
-19,
-20,
-17,
-18,
-16,
-19,
-19,
-18,
-14,
-18,
-17,
-21,
-17,
-17,
-15,
-21,
-22,
-19,
-18,
-18,
-20,
-17,
-22,
-16,
-15,
-17,
-22,
-19,
-18,
-16,
-17,
-22,
-21,
-19,
-15,
-20,
-16,
-22,
-16,
-16,
-14,
-17,
-19,
-14,
-15,
-14,
-19,
-18,
-21,
-15,
-18,
-19,
-22,
-22,
-19,
-15,
-16,
-22,
-18,
-18,
-15,
-17,
-17,
-21,
-18,
-17,
-17,
-16,
-22,
-18,
-17,
-12,
-17,
-19,
-20,
-14,
-14,
-18,
-16,
-18,
-18,
-17,
-13,
-21,
-17,
-17,
-14,
-18,
-20,
-23,
-21,
-15,
-14,
-20,
-21,
-18,
-18,
-17,
-17,
-17,
-21,
-14,
-15,
-17,
-17,
-19,
-18,
-16,
-16,
-19,
-18,
-19,
-14,
-19,
-18,
-19,
-17,
-14,
-17,
-17,
-19,
-17,
-18,
-14,
-19,
-19,
-21,
-16,
-15,
-17,
-21,
-20,
-17,
-17,
-10,
-22,
-15,
-17,
-14,
-17,
-16,
-14,
-18,
-14,
-14,
-15,
-21,
-15,
-18,
-14,
-17,
-21,
-18,
-17,
-14,
-19,
-16,
-19,
-17,
-15,
-14,
-19,
-18,
-17,
-14,
-15,
-18,
-20,
-21,
-13,
-16,
-19,
-18,
-15,
-16,
-15,
-17,
-19,
-14,
-15,
-14,
-15,
-18,
-19,
-17,
-17,
-16,
-19,
-19,
-18,
-16,
-17,
-18,
-17,
-16,
-15,
-16,
-15,
-18,
-15,
-16,
-11,
-15,
-18,
-18,
-15,
-12,
-19,
-17,
-20,
-14,
-15,
-15,
-18,
-17,
-14,
-14,
-14,
-17,
-17,
-17,
-15,
-17,
-17,
-21,
-16,
-15,
-15,
-16,
-21,
-17,
-15,
-13,
-19,
-13,
-15,
-13,
-15,
-14,
-14,
-20,
-13,
-13,
-13,
-21,
-15,
-16,
-15,
-16,
-19,
-18,
-17,
-13,
-15,
-15,
-19,
-16,
-17,
-10,
-17,
-19,
-16,
-17,
-15,
-14,
-17,
-22,
-15,
-13,
-15,
-19,
-14,
-13,
-11,
-14,
-16,
-17,
-14,
-13,
-14,
-15,
-18,
-19,
-15,
-14,
-19,
-19,
-18,
-16,
-14,
-15,
-19,
-17,
-13,
-13,
-15,
-17,
-13,
-17,
-11,
-13,
-16,
-16,
-16,
-13,
-14,
-14,
-21,
-17,
-14,
-11,
-17,
-15,
-15,
-16,
-13,
-15,
-16,
-21,
-14,
-17,
-14,
-17,
-21,
-17,
-14,
-14,
-19,
-15,
-17,
-13,
-16,
-13,
-16,
-16,
-13,
-11,
-14,
-17,
-14,
-18,
-13,
-17,
-17,
-19,
-14,
-15,
-17,
-17,
-18,
-15,
-14,
-13,
-19,
-17,
-16,
-15,
-14,
-15,
-17,
-18,
-15,
-14,
-14,
-18,
-16,
-13,
-13,
-14,
-14,
-17,
-11,
-13,
-15,
-14,
-17,
-15,
-15,
-16,
-18,
-19,
-19,
-15,
-16,
-17,
-20,
-17,
-13,
-13,
-17,
-17,
-14,
-17,
-14,
-15,
-15,
-18,
-15,
-15,
-13,
-14,
-18,
-15,
-14,
-10,
-19,
-16,
-16,
-14,
-13,
-14,
-16,
-17,
-13,
-16,
-14,
-21,
-15,
-17,
-13,
-16,
-19,
-17,
-14,
-13,
-14,
-13,
-16,
-12,
-14,
-12,
-17,
-17,
-13,
-14,
-15,
-15,
-17,
-21,
-14,
-14,
-18,
-18,
-17,
-17,
-13,
-14,
-19,
-15,
-15,
-14,
-14,
-13,
-17,
-18,
-13,
-11,
-18,
-20,
-16,
-14,
-13,
-15,
-17,
-15,
-13,
-14,
-11,
-16,
-14,
-15,
-15,
-14,
-19,
-18,
-17,
-14,
-17,
-16,
-21,
-17,
-14,
-14,
-17,
-14,
-15,
-14,
-13,
-15,
-14,
-17,
-11,
-13,
-15,
-19,
-14,
-16,
-14,
-13,
-19,
-16,
-17,
-11,
-17,
-14,
-17,
-17,
-15,
-15,
-16,
-18,
-15,
-17,
-12,
-16,
-17,
-20,
-14,
-16,
-13,
-15,
-17,
-15,
-13,
-12,
-17,
-16,
-13,
-11,
-15,
-14,
-17,
-17,
-14,
-13,
-15,
-19,
-16,
-16,
-14,
-17,
-17,
-18,
-13,
-14,
-17,
-16,
