A246/data/second.csv

Memory Length,25000,
Trigger Level,-1.320E+00,
Source,CH1,
Vertical Units,V,
Vertical Scale,1.000E-02,
Vertical Position,5.200E-03,
Horizontal Units,s,
Horizontal Scale,1.000E-04,
Horizontal Position,1.080E-03,
Horizontal Mode,Main,
Sampling Period,8.000E-08,
Firmware,V1.09,
Time,06-May-21 16:34,
Waveform Data,
-63,
-65,
-69,
-65,
-65,
-63,
-67,
-64,
-66,
-66,
-65,
-65,
-68,
-71,
-69,
-69,
-67,
-70,
-71,
-72,
-66,
-67,
-71,
-69,
-67,
-70,
-67,
-67,
-70,
-70,
-67,
-67,
-70,
-71,
-68,
-68,
-68,
-69,
-71,
-69,
-70,
-68,
-69,
-73,
-69,
-74,
-67,
-71,
-73,
-77,
-70,
-74,
-71,
-73,
-75,
-73,
-71,
-72,
-74,
-71,
-75,
-71,
-70,
-70,
-71,
-73,
-69,
-69,
-70,
-76,
-70,
-77,
-70,
-74,
-75,
-78,
-76,
-74,
-73,
-75,
-79,
-75,
-73,
-73,
-78,
-77,
-73,
-77,
-74,
-77,
-77,
-79,
-75,
-76,
-73,
-77,
-77,
-78,
-71,
-75,
-77,
-77,
-74,
-75,
-75,
-75,
-78,
-79,
-77,
-76,
-79,
-81,
-81,
-78,
-78,
-78,
-83,
-80,
-77,
-78,
-79,
-81,
-78,
-78,
-75,
-81,
-77,
-83,
-78,
-77,
-78,
-80,
-81,
-78,
-78,
-77,
-84,
-82,
-79,
-77,
-81,
-81,
-81,
-82,
-78,
-84,
-78,
-83,
-82,
-86,
-79,
-83,
-84,
-86,
-79,
-81,
-83,
-81,
-86,
-79,
-80,
-77,
-83,
-82,
-81,
-83,
-81,
-83,
-83,
-87,
-81,
-85,
-85,
-89,
-86,
-87,
-81,
-84,
-87,
-85,
-83,
-85,
-85,
-86,
-85,
-85,
-85,
-84,
-87,
-88,
-87,
-85,
-83,
-85,
-85,
-85,
-83,
-85,
-85,
-89,
-83,
-88,
-85,
-85,
-86,
-91,
-86,
-87,
-87,
-91,
-92,
-87,
-89,
-89,
-89,
-89,
-86,
-85,
-89,
-88,
-86,
-89,
-85,
-88,
-87,
-91,
-85,
-89,
-86,
-91,
-90,
-89,
-90,
-89,
-93,
-91,
-89,
-88,
-91,
-89,
-91,
-91,
-90,
-91,
-90,
-93,
-91,
-95,
-89,
-90,
-93,
-96,
-87,
-89,
-89,
-93,
-90,
-89,
-88,
-90,
-92,
-91,
-89,
-91,
-93,
-93,
-91,
-94,
-94,
-91,
-93,
-100,
-93,
-92,
-89,
-94,
-95,
-96,
-87,
-95,
-91,
-94,
-91,
-95,
-91,
-94,
-94,
-95,
-94,
-90,
-94,
-94,
-96,
-93,
-91,
-95,
-92,
-97,
-91,
-94,
-94,
-98,
-96,
-99,
-94,
-98,
-93,
-100,
-97,
-95,
-95,
-96,
-99,
-94,
-94,
-91,
-97,
-95,
-94,
-94,
-93,
-98,
-97,
-99,
-94,
-95,
-98,
-101,
-95,
-97,
-94,
-96,
-99,
-100,
-97,
-97,
-98,
-100,
-99,
-99,
-97,
-97,
-103,
-100,
-99,
-98,
-97,
-96,
-98,
-100,
-95,
-95,
-95,
-98,
-97,
-98,
-93,
-98,
-99,
-103,
-96,
-100,
-101,
-101,
-102,
-101,
-101,
-98,
-101,
-101,
-101,
-100,
-98,
-103,
-102,
-101,
-94,
-102,
-97,
-105,
-97,
-100,
-100,
-101,
-101,
-104,
-99,
-97,
-99,
-99,
-103,
-98,
-99,
-103,
-101,
-103,
-101,
-102,
-101,
-106,
-105,
-105,
-102,
-105,
-105,
-107,
-101,
-102,
-99,
-101,
-103,
-102,
-100,
-100,
-103,
-105,
-102,
-103,
-101,
-102,
-104,
-103,
-104,
-103,
-103,
-102,
-104,
-106,
-102,
-105,
-102,
-110,
-102,
-103,
-103,
-108,
-104,
-108,
-104,
-102,
-107,
-105,
-105,
-103,
-103,
-102,
-105,
-105,
-102,
-101,
-101,
-109,
-101,
-106,
-102,
-107,
-107,
-112,
-103,
-106,
-107,
-108,
-108,
-105,
-107,
-106,
-107,
-109,
-106,
-106,
-102,
-106,
-107,
-106,
-103,
-107,
-107,
-108,
-105,
-106,
-107,
-107,
-105,
-109,
-102,
-105,
-107,
-106,
-105,
-107,
-107,
-105,
-109,
-112,
-108,
-106,
-109,
-113,
-110,
-110,
-107,
-108,
-109,
-111,
-105,
-106,
-105,
-106,
-106,
-112,
-101,
-105,
-107,
-113,
-107,
-106,
-108,
-109,
-111,
-107,
-110,
-108,
-110,
-109,
-107,
-110,
-105,
-108,
-108,
-113,
-106,
-110,
-106,
-111,
-111,
-112,
-106,
-107,
-110,
-108,
-108,
-107,
-107,
-106,
-109,
-109,
-109,
-106,
-107,
-111,
-109,
-110,
-105,
-110,
-110,
-113,
-107,
-110,
-108,
-111,
-111,
-113,
-106,
-109,
-111,
-111,
-109,
-110,
-107,
-109,
-114,
-111,
-109,
-108,
-108,
-111,
-109,
-109,
-106,
-111,
-109,
-111,
-107,
-110,
-109,
-113,
-109,
-113,
-109,
-109,
-111,
-114,
-113,
-109,
-111,
-110,
-114,
-112,
-107,
-110,
-111,
-112,
-109,
-113,
-106,
-110,
-107,
-114,
-107,
-111,
-108,
-113,
-111,
-112,
-108,
-109,
-113,
-111,
-111,
-108,
-109,
-111,
-112,
-111,
-109,
-111,
-111,
-117,
-110,
-113,
-109,
-113,
-111,
-113,
-111,
-110,
-109,
-113,
-109,
-110,
-110,
-107,
-111,
-113,
-107,
-109,
-110,
-111,
-113,
-113,
-110,
-111,
-111,
-115,
-110,
-112,
-109,
-113,
-110,
-113,
-107,
-113,
-111,
-113,
-111,
-113,
-111,
-110,
-114,
-113,
-113,
-109,
-109,
-113,
-113,
-110,
-107,
-108,
-111,
-111,
-107,
-112,
-108,
-113,
-110,
-117,
-110,
-112,
-112,
-113,
-115,
-110,
-113,
-112,
-114,
-111,
-109,
-107,
-110,
-109,
-110,
-113,
-107,
-111,
-108,
-115,
-110,
-113,
-105,
-113,
-113,
-113,
-107,
-109,
-111,
-111,
-111,
-109,
-109,
-112,
-111,
-113,
-109,
-110,
-110,
-116,
-111,
-114,
-109,
-109,
-112,
-114,
-110,
-107,
-107,
-111,
-106,
-110,
-106,
-111,
-107,
-110,
-109,
-111,
-109,
-109,
-113,
-113,
-110,
-107,
-111,
-113,
-111,
-108,
-109,
-111,
-111,
-114,
-107,
-110,
-106,
-113,
-107,
-112,
-106,
-108,
-109,
-110,
-110,
-107,
-108,
-106,
-111,
-109,
-106,
-105,
-107,
-109,
-109,
-113,
-104,
-109,
-110,
-113,
-107,
-111,
-106,
-110,
-109,
-109,
-105,
-107,
-107,
-109,
-107,
-106,
-106,
-104,
-109,
-107,
-103,
-106,
-107,
-107,
-106,
-109,
-103,
-106,
-107,
-109,
-105,
-106,
-103,
-109,
-106,
-108,
-102,
-107,
-105,
-108,
-107,
-105,
-105,
-109,
-107,
-107,
-103,
-103,
-107,
-105,
-105,
-103,
-98,
-104,
-102,
-105,
-99,
-105,
-103,
-109,
-103,
-106,
-103,
-105,
-106,
-107,
-105,
-104,
-104,
-102,
-105,
-103,
-102,
-102,
-103,
-105,
-101,
-103,
-98,
-103,
-101,
-105,
-99,
-101,
-99,
-104,
-102,
-102,
-100,
-101,
-101,
-101,
-99,
-97,
-100,
-101,
-101,
-101,
-99,
-101,
-102,
-105,
-99,
-101,
-98,
-102,
-99,
-101,
-97,
-99,
-96,
-99,
-97,
-96,
-93,
-99,
-97,
-98,
-93,
-97,
-97,
-97,
-100,
-98,
-98,
-95,
-100,
-101,
-94,
-93,
-93,
-99,
-95,
-96,
-92,
-98,
-93,
-99,
-93,
-96,
-92,
-95,
-94,
-94,
-93,
-89,
-93,
-93,
-91,
-89,
-89,
-93,
-93,
-93,
-90,
-94,
-91,
-96,
-91,
-94,
-90,
-91,
-93,
-95,
-90,
-91,
-89,
-93,
-91,
-89,
-89,
-88,
-89,
-90,
-89,
-88,
-87,
-88,
-89,
-89,
-85,
-89,
-87,
-88,
-86,
-89,
-83,
-88,
-87,
-90,
-83,
-82,
-88,
-92,
-86,
-86,
-84,
-86,
-90,
-86,
-87,
-84,
-86,
-83,
-85,
-85,
-80,
-81,
-81,
-85,
-79,
-83,
-79,
-86,
-81,
-85,
-81,
-84,
-83,
-80,
-82,
-81,
-82,
-77,
-84,
-81,
-81,
-79,
-80,
-83,
-80,
-82,
-78,
-81,
-79,
-82,
-78,
-81,
-78,
-80,
-79,
-78,
-78,
-75,
-75,
-79,
-77,
-74,
-75,
-78,
-81,
-77,
-77,
-78,
-77,
-81,
-79,
-77,
-75,
-77,
-78,
-78,
-74,
-76,
-75,
-77,
-77,
-79,
-72,
-74,
-75,
-79,
-75,
-72,
-75,
-75,
-77,
-73,
-73,
-72,
-76,
-73,
-77,
-76,
-68,
-75,
-71,
-78,
-73,
-74,
-72,
-77,
-78,
-75,
-73,
-74,
-77,
-73,
-73,
-69,
-72,
-71,
-73,
-71,
-70,
-72,
-70,
-75,
-71,
-74,
-69,
-73,
-70,
-75,
-70,
-72,
-73,
-74,
-73,
-71,
-73,
-71,
-73,
-74,
-72,
-70,
-75,
-73,
-76,
-75,
-71,
-72,
-72,
-74,
-73,
-71,
-68,
-72,
-71,
-72,
-69,
-71,
-70,
-74,
-69,
-72,
-69,
-71,
-75,
-74,
-73,
-70,
-74,
-73,
-77,
-71,
-71,
-72,
-75,
-73,
-69,
-71,
-70,
-74,
-69,
-75,
-69,
-71,
-69,
-73,
-71,
-67,
-70,
-73,
-73,
-69,
-71,
-69,
-73,
-72,
-70,
-72,
-69,
-73,
-71,
-77,
-70,
-74,
-73,
-75,
-74,
-73,
-71,
-74,
-73,
-73,
-70,
-70,
-71,
-70,
-73,
-72,
-70,
-71,
-70,
-72,
-72,
-73,
-71,
-72,
-75,
-77,
-71,
-73,
-73,
-75,
-71,
-75,
-70,
-73,
-75,
-78,
-72,
-73,
-75,
-74,
-78,
-75,
-72,
-69,
-78,
-75,
-72,
-71,
-71,
-72,
-75,
-74,
-70,
-74,
-69,
-77,
-71,
-76,
-75,
-75,
-78,
-79,
-75,
-75,
-75,
-74,
-81,
-77,
-71,
-75,
-77,
-73,
-75,
-77,
-73,
-77,
-74,
-78,
-75,
-76,
-75,
-78,
-77,
-75,
-71,
-76,
-77,
-75,
-75,
-73,
-78,
-79,
-77,
-79,
-77,
-75,
-80,
-81,
-78,
-77,
-78,
-81,
-79,
-80,
-76,
-77,
-75,
-80,
-78,
-77,
-76,
-79,
-78,
-79,
-75,
-76,
-79,
-80,
-78,
-79,
-78,
-76,
-81,
-81,
-77,
-79,
-77,
-83,
-81,
-82,
-76,
-81,
-81,
-83,
-79,
-83,
-79,
-82,
-84,
-83,
-82,
-79,
-81,
-79,
-81,
-78,
-78,
-80,
-81,
-82,
-78,
-81,
-79,
-85,
-79,
-84,
-82,
-83,
-83,
-85,
-85,
-84,
-84,
-83,
-86,
-86,
-81,
-82,
-84,
-82,
-84,
-84,
-81,
-83,
-86,
-87,
-84,
-83,
-83,
-86,
-82,
-84,
-82,
-84,
-83,
-87,
-83,
-85,
-83,
-87,
-86,
-86,
-86,
-86,
-90,
-88,
-86,
-85,
-87,
-86,
-87,
-89,
-86,
-86,
-84,
-89,
-87,
-86,
-82,
-88,
-87,
-90,
-86,
-89,
-87,
-87,
-92,
-87,
-90,
-85,
-90,
-89,
-91,
-90,
-86,
-90,
-91,
-93,
-85,
-93,
-90,
-93,
-91,
-92,
-90,
-91,
-91,
-91,
-91,
-87,
-91,
-88,
-92,
-90,
-87,
-88,
-92,
-94,
-90,
-91,
-91,
-94,
-94,
-98,
-91,
-96,
-92,
-96,
-93,
-96,
-91,
-92,
-95,
-94,
-93,
-93,
-93,
-94,
-95,
-93,
-93,
-95,
-93,
-96,
-95,
-95,
-94,
-93,
-94,
-97,
-91,
-95,
-91,
-101,
-94,
-98,
-94,
-98,
-97,
-100,
-98,
-95,
-98,
-98,
-100,
-95,
-98,
-96,
-98,
-98,
-96,
-95,
-94,
-101,
-96,
-98,
-94,
-99,
-97,
-103,
-97,
-100,
-98,
-102,
-100,
-102,
-99,
-97,
-102,
-100,
-103,
-100,
-100,
-99,
-100,
-104,
-101,
-101,
-100,
-105,
-100,
-103,
-99,
-103,
-99,
-101,
-99,
-101,
-98,
-99,
-103,
-103,
-99,
-100,
-102,
-106,
-102,
-103,
-102,
-106,
-105,
-104,
-102,
-103,
-104,
-104,
-103,
-107,
-99,
-103,
-102,
-107,
-101,
-103,
-103,
-108,
-105,
-105,
-102,
-103,
-107,
-106,
-105,
-105,
-107,
-105,
-106,
-107,
-105,
-104,
-104,
-110,
-107,
-108,
-102,
-109,
-109,
-113,
-105,
-109,
-107,
-109,
-107,
-108,
-106,
-104,
-110,
-107,
-105,
-106,
-105,
-108,
-107,
-109,
-104,
-107,
-107,
-114,
-110,
-109,
-108,
-111,
-109,
-112,
-107,
-109,
-110,
-110,
-109,
-111,
-109,
-111,
-110,
-114,
-112,
-109,
-110,
-113,
-111,
-111,
-109,
-111,
-111,
-111,
-109,
-111,
-108,
-113,
-110,
-116,
-109,
-110,
-112,
-118,
-113,
-114,
-114,
-113,
-116,
-113,
-113,
-110,
-115,
-113,
-113,
-115,
-111,
-111,
-111,
-117,
-111,
-115,
-111,
-120,
-113,
-115,
-113,
-116,
-115,
-114,
-116,
-113,
-113,
-117,
-115,
-115,
-115,
-115,
-117,
-119,
-117,
-119,
-113,
-116,
-118,
-120,
-116,
-114,
-115,
-122,
-116,
-117,
-110,
-115,
-115,
-116,
-117,
-117,
-117,
-118,
-119,
-121,
-115,
-117,
-121,
-122,
-120,
-118,
-115,
-119,
-119,
-121,
-115,
-121,
-117,
-123,
-120,
-122,
-117,
-121,
-120,
-122,
-119,
-119,
-119,
-119,
-121,
-117,
-118,
-116,
-119,
-119,
-120,
-121,
-117,
-121,
-119,
-126,
-119,
-122,
-123,
-126,
-123,
-123,
-123,
-121,
-123,
-123,
-119,
-119,
-122,
-121,
-121,
-120,
-120,
-119,
-121,
-125,
-123,
-123,
-119,
-123,
-124,
-125,
-118,
-123,
-121,
-125,
-123,
-123,
-121,
-123,
-123,
-125,
-125,
-124,
-123,
-127,
-126,
-126,
-124,
-123,
-126,
-125,
-124,
-123,
-122,
-124,
-124,
-127,
-118,
-125,
-124,
-126,
-123,
-127,
-123,
-125,
-126,
-129,
-127,
-124,
-127,
-127,
-129,
-125,
-125,
-125,
-127,
-129,
-121,
-127,
-126,
-130,
-124,
-129,
-125,
-128,
-124,
-129,
-126,
-127,
-123,
-125,
-128,
-127,
-126,
-126,
-127,
-128,
-126,
-130,
-126,
-129,
-129,
-129,
-128,
-131,
-125,
-130,
-131,
-132,
-124,
-128,
-126,
-131,
-126,
-129,
-125,
-129,
-129,
-129,
-128,
-126,
-130,
-129,
-130,
-130,
-130,
-129,
-130,
-133,
-126,
-129,
-126,
-131,
-130,
-133,
-125,
-132,
-133,
-135,
-130,
-133,
-130,
-130,
-133,
-132,
-131,
-128,
-133,
-130,
-131,
-128,
-127,
-130,
-131,
-132,
-126,
-133,
-128,
-134,
-130,
-135,
-130,
-131,
-131,
-137,
-132,
-129,
-131,
-130,
-132,
-133,
-129,
-130,
-133,
-133,
-129,
-132,
-130,
-134,
-133,
-135,
-129,
-131,
-131,
-135,
-130,
-131,
-127,
-133,
-133,
-132,
-131,
-132,
-129,
-135,
-133,
-133,
-132,
-133,
-135,
-136,
-135,
-135,
-133,
-134,
-135,
-137,
-129,
-133,
-132,
-136,
-131,
-134,
-131,
-135,
-133,
-137,
-131,
-132,
-134,
-137,
-133,
-132,
-134,
-131,
-135,
-136,
-133,
-132,
-132,
-139,
-131,
-139,
-129,
-136,
-134,
-137,
-134,
-138,
-134,
-136,
-135,
-139,
-133,
-131,
-134,
-133,
-136,
-132,
-131,
-131,
-134,
-137,
-133,
-136,
-132,
-137,
-133,
-138,
-133,
-136,
-134,
-138,
-137,
-139,
-133,
-136,
-135,
-137,
-134,
-135,
-134,
-137,
-137,
-137,
-136,
-135,
-135,
-137,
-134,
-133,
-134,
-135,
-134,
-136,
-130,
-135,
-131,
-139,
-133,
-137,
-134,
-139,
-135,
-138,
-137,
-137,
-139,
-137,
-139,
-137,
-135,
-134,
-135,
-137,
-135,
-135,
-131,
-138,
-133,
-139,
-131,
-137,
-134,
-140,
-134,
-137,
-137,
-133,
-136,
-137,
-138,
-132,
-134,
-137,
-135,
-137,
-132,
-137,
-135,
-139,
-136,
-139,
-135,
-140,
-136,
-140,
-131,
-136,
-134,
-137,
-133,
-134,
-132,
-133,
-135,
-138,
-133,
-134,
-134,
-136,
-135,
-134,
-136,
-138,
-138,
-135,
-137,
-139,
-134,
-135,
-134,
-139,
-134,
-136,
-133,
-139,
-134,
-136,
-133,
-135,
-137,
-137,
-135,
-135,
-135,
-135,
-137,
-135,
-134,
-133,
-132,
-136,
-134,
-135,
-132,
-137,
-135,
-140,
-133,
-137,
-135,
-139,
-135,
-137,
-136,
-136,
-135,
-135,
-136,
-133,
-133,
-134,
-136,
-135,
-132,
-134,
-133,
-137,
-132,
-137,
-132,
-137,
-134,
-136,
-134,
-137,
-133,
-137,
-136,
-139,
-129,
-134,
-134,
-138,
-135,
-133,
-134,
-136,
-137,
-138,
-132,
-134,
-135,
-135,
-133,
-134,
-132,
-134,
-133,
-137,
-129,
-131,
-131,
-135,
-131,
-135,
-131,
-135,
-135,
-136,
-135,
-134,
-137,
-134,
-136,
-135,
-133,
-131,
-133,
-136,
-132,
-132,
-129,
-137,
-131,
-137,
-127,
-133,
-131,
-135,
-132,
-133,
-133,
-131,
-133,
-135,
-131,
-129,
-131,
-132,
-134,
-134,
-131,
-132,
-134,
-136,
-132,
-136,
-131,
-136,
-132,
-134,
-131,
-130,
-130,
-133,
-129,
-131,
-125,
-129,
-131,
-133,
-127,
-130,
-131,
-133,
-132,
-132,
-130,
-133,
-133,
-133,
-130,
-131,
-128,
-131,
-131,
-132,
-126,
-132,
-127,
-136,
-127,
-130,
-128,
-132,
-130,
-131,
-130,
-129,
-130,
-129,
-131,
-127,
-126,
-126,
-126,
-131,
-127,
-126,
-125,
-133,
-130,
-133,
-125,
-132,
-130,
-134,
-126,
-130,
-129,
-129,
-127,
-128,
-127,
-125,
-127,
-129,
-126,
-126,
-123,
-126,
-126,
-131,
-121,
-125,
-127,
-127,
-125,
-129,
-124,
-125,
-127,
-128,
-122,
-125,
-125,
-129,
-126,
-128,
-123,
-125,
-127,
-130,
-126,
-123,
-124,
-124,
-125,
-125,
-121,
-121,
-122,
-125,
-121,
-126,
-118,
-125,
-123,
-126,
-121,
-121,
-125,
-126,
-125,
-125,
-122,
-122,
-125,
-123,
-121,
-120,
-123,
-123,
-121,
-123,
-121,
-123,
-118,
-125,
-121,
-124,
-119,
-122,
-121,
-122,
-117,
-119,
-118,
-118,
-121,
-118,
-115,
-119,
-120,
-122,
-117,
-118,
-118,
-122,
-122,
-121,
-119,
-121,
-119,
-123,
-116,
-121,
-116,
-115,
-117,
-121,
-117,
-113,
-115,
-119,
-115,
-114,
-112,
-116,
-118,
-118,
-115,
-115,
-117,
-114,
-115,
-118,
-111,
-114,
-114,
-120,
-111,
-115,
-113,
-118,
-114,
-118,
-113,
-115,
-114,
-114,
-117,
-113,
-113,
-111,
-113,
-111,
-111,
-110,
-107,
-111,
-110,
-113,
-108,
-111,
-109,
-116,
-109,
-111,
-110,
-112,
-111,
-110,
-109,
-110,
-109,
-107,
-110,
-111,
-107,
-107,
-109,
-113,
-107,
-106,
-106,
-111,
-107,
-109,
-102,
-104,
-107,
-107,
-104,
-107,
-103,
-105,
-104,
-107,
-103,
-105,
-104,
-106,
-106,
-105,
-105,
-105,
-107,
-105,
-102,
-103,
-103,
-104,
-101,
-105,
-99,
-101,
-99,
-107,
-98,
-101,
-98,
-101,
-103,
-103,
-99,
-98,
-102,
-101,
-101,
-98,
-99,
-99,
-101,
-99,
-99,
-100,
-97,
-102,
-99,
-105,
-95,
-101,
-99,
-104,
-98,
-97,
-98,
-99,
-100,
-96,
-95,
-97,
-95,
-96,
-95,
-95,
-97,
-95,
-97,
-99,
-96,
-97,
-96,
-98,
-99,
-97,
-93,
-98,
-96,
-99,
-93,
-95,
-95,
-98,
-97,
-96,
-95,
-94,
-97,
-98,
-97,
-93,
-95,
-95,
-97,
-96,
-90,
-92,
-93,
-95,
-92,
-93,
-91,
-96,
-91,
-99,
-91,
-97,
-94,
-96,
-99,
-97,
-94,
-93,
-97,
-97,
-93,
-91,
-95,
-96,
-93,
-95,
-90,
-93,
-93,
-97,
-91,
-94,
-93,
-95,
-93,
-97,
-92,
-91,
-93,
-93,
-94,
-92,
-92,
-93,
-95,
-95,
-95,
-96,
-94,
-96,
-94,
-99,
-92,
-95,
-95,
-98,
-95,
-95,
-91,
-95,
-97,
-94,
-89,
-94,
-93,
-93,
-94,
-95,
-91,
-91,
-95,
-96,
-95,
-93,
-93,
-95,
-97,
-95,
-91,
-95,
-95,
-97,
-91,
-97,
-93,
-97,
-94,
-99,
-94,
-97,
-94,
-95,
-99,
-95,
-94,
-91,
-99,
-96,
-92,
-90,
-95,
-96,
-93,
-98,
-89,
-96,
-95,
-97,
-94,
-101,
-94,
-98,
-97,
-99,
-97,
-94,
-99,
-98,
-99,
-96,
-95,
-95,
-97,
-99,
-93,
-97,
-95,
-99,
-97,
-100,
-94,
-97,
-95,
-99,
-97,
-96,
-93,
-96,
-99,
-98,
-94,
-97,
-97,
-101,
-99,
-99,
-99,
-97,
-101,
-102,
-99,
-99,
-98,
-101,
-100,
-101,
-95,
-99,
-99,
-102,
-95,
-99,
-95,
-101,
-98,
-99,
-97,
-99,
-101,
-100,
-101,
-101,
-99,
-99,
-102,
-103,
-99,
-99,
-98,
-102,
-102,
-104,
-97,
-103,
-102,
-107,
-99,
-103,
-101,
-101,
-101,
-104,
-99,
-98,
-100,
-102,
-99,
-97,
-101,
-101,
-101,
-104,
-101,
-105,
-99,
-104,
-103,
-106,
-103,
-105,
-103,
-109,
-105,
-105,
-101,
-105,
-105,
-103,
-102,
-101,
-103,
-104,
-101,
-101,
-105,
-104,
-103,
-108,
-105,
-104,
-102,
-104,
-107,
-108,
-101,
-103,
-105,
-109,
-102,
-107,
-105,
-109,
-107,
-110,
-107,
-105,
-109,
-107,
-108,
-106,
-107,
-103,
-109,
-107,
-105,
-104,
-102,
-109,
-105,
-111,
-101,
-106,
-107,
-111,
-109,
-109,
-110,
-110,
-111,
-109,
-108,
-105,
-109,
-111,
-110,
-109,
-108,
-110,
-111,
-111,
-105,
-111,
-107,
-111,
-109,
-113,
-107,
-110,
-108,
-111,
-107,
-106,
-106,
-109,
-111,
-109,
-107,
-108,
-112,
-112,
-111,
-113,
-111,
-111,
-113,
-115,
-111,
-112,
-111,
-114,
-110,
-113,
-108,
-110,
-109,
-114,
-109,
-111,
-110,
-113,
-113,
-114,
-110,
-110,
-113,
-113,
-114,
-111,
-115,
-112,
-117,
-117,
-109,
-113,
-112,
-117,
-113,
-117,
-109,
-117,
-116,
-119,
-113,
-113,
-117,
-115,
-115,
-115,
-112,
-113,
-115,
-113,
-115,
-111,
-111,
-116,
-113,
-116,
-113,
-118,
-116,
-121,
-114,
-119,
-116,
-116,
-118,
-120,
-116,
-115,
-115,
-119,
-119,
-116,
-115,
-119,
-118,
-118,
-116,
-119,
-116,
-119,
-117,
-118,
-115,
-117,
-117,
-121,
-115,
-117,
-115,
-118,
-117,
-123,
-113,
-118,
-118,
-121,
-121,
-120,
-120,
-120,
-124,
-122,
-121,
-117,
-120,
-121,
-120,
-120,
-115,
-119,
-117,
-123,
-117,
-119,
-114,
-125,
-121,
-121,
-118,
-120,
-119,
-122,
-119,
-120,
-119,
-119,
-122,
-121,
-121,
-120,
-122,
-126,
-121,
-124,
-119,
-123,
-123,
-125,
-121,
-122,
-121,
-123,
-118,
-122,
-119,
-120,
-121,
-123,
-121,
-121,
-118,
-122,
-126,
-125,
-122,
-123,
-125,
-125,
-123,
-126,
-124,
-125,
-123,
-129,
-122,
-123,
-119,
-127,
-123,
-125,
-123,
-125,
-125,
-126,
-122,
-122,
-125,
-124,
-126,
-124,
-121,
-121,
-123,
-127,
-123,
-125,
-123,
-126,
-125,
-129,
-123,
-127,
-126,
-129,
-126,
-127,
-126,
-126,
-127,
-126,
-127,
-127,
-124,
-123,
-125,
-127,
-121,
-123,
-125,
-129,
-124,
-128,
-123,
-127,
-126,
-131,
-124,
-126,
-127,
-129,
-126,
-129,
-124,
-124,
-129,
-132,
-127,
-128,
-128,
-130,
-130,
-129,
-127,
-128,
-129,
-131,
-127,
-127,
-125,
-125,
-126,
-131,
-125,
-129,
-123,
-130,
-127,
-130,
-124,
-128,
-131,
-131,
-128,
-131,
-131,
-129,
-132,
-129,
-129,
-131,
-129,
-133,
-129,
-130,
-126,
-133,
-128,
-133,
-127,
-129,
-127,
-131,
-130,
-128,
-127,
-127,
-130,
-127,
-129,
-128,
-129,
-131,
-128,
-133,
-127,
-130,
-131,
-137,
-131,
-134,
-131,
-131,
-134,
-137,
-127,
-131,
-131,
-131,
-129,
-132,
-128,
-129,
-131,
-131,
-133,
-131,
-129,
-130,
-135,
-132,
-126,
-130,
-132,
-134,
-130,
-132,
-129,
-133,
-129,
-136,
-130,
-132,
-133,
-137,
-134,
-133,
-130,
-133,
-135,
-133,
-131,
-129,
-133,
-133,
-131,
-133,
-129,
-134,
-129,
-134,
-129,
-134,
-129,
-135,
-132,
-135,
-129,
-131,
-134,
-135,
-136,
-133,
-133,
-134,
-134,
-131,
-133,
-133,
-133,
-135,
-133,
-139,
-130,
-134,
-133,
-139,
-131,
-133,
-131,
-135,
-132,
-133,
-129,
-131,
-133,
-136,
-129,
-133,
-135,
-133,
-134,
-136,
-133,
-135,
-135,
-140,
-135,
-136,
-133,
-134,
-135,
-139,
-132,
-134,
-132,
-136,
-132,
-136,
-131,
-133,
-134,
-135,
-137,
-133,
-133,
-133,
-137,
-136,
-130,
-132,
-134,
-137,
-131,
-135,
-133,
-139,
-133,
-139,
-134,
-139,
-133,
-135,
-137,
-140,
-134,
-134,
-137,
-135,
-136,
-131,
-134,
-135,
-137,
-137,
-130,
-134,
-132,
-138,
-133,
-139,
-131,
-137,
-135,
-139,
-134,
-137,
-134,
-137,
-137,
-135,
-133,
-133,
-137,
-137,
-137,
-137,
-134,
-138,
-135,
-138,
-137,
-137,
-133,
-139,
-135,
-136,
-132,
-134,
-134,
-138,
-130,
-136,
-134,
-135,
-135,
-137,
-134,
-134,
-137,
-139,
-140,
-139,
-138,
-138,
-138,
-139,
-134,
-134,
-136,
-140,
-134,
-139,
-132,
-136,
-136,
-139,
-133,
-137,
-133,
-137,
-139,
-137,
-135,
-133,
-135,
-137,
-135,
-132,
-134,
-136,
-137,
-137,
-132,
-137,
-134,
-140,
-137,
-140,
-134,
-139,
-137,
-140,
-137,
-135,
-135,
-137,
-140,
-133,
-133,
-135,
-133,
-134,
-135,
-135,
-133,
-137,
-134,
-138,
-135,
-137,
-135,
-140,
-135,
-139,
-135,
-137,
-137,
-140,
-137,
-137,
-134,
-139,
-136,
-139,
-137,
-135,
-137,
-139,
-139,
-137,
-134,
-135,
-138,
-139,
-134,
-136,
-133,
-137,
-134,
-137,
-132,
-137,
-135,
-140,
-135,
-137,
-136,
-139,
-140,
-139,
-139,
-135,
-138,
-137,
-137,
-135,
-133,
-137,
-136,
-140,
-133,
-137,
-133,
-140,
-131,
-139,
-134,
-137,
-135,
-139,
-135,
-134,
-137,
-139,
-138,
-137,
-135,
-136,
-139,
-139,
-135,
-140,
-135,
-139,
-136,
-140,
-135,
-138,
-135,
-138,
-138,
-137,
-135,
-137,
-135,
-137,
-134,
-135,
-134,
-136,
-137,
-139,
-134,
-135,
-138,
-140,
-137,
-137,
-137,
-139,
-135,
-139,
-134,
-137,
-135,
-140,
-135,
-139,
-133,
-137,
-137,
-140,
-133,
-135,
-137,
-137,
-135,
-137,
-134,
-133,
