A246/data/sixth.csv

Memory Length,25000,
Trigger Level,-1.320E+00,
Source,CH1,
Vertical Units,V,
Vertical Scale,1.000E-02,
Vertical Position,5.200E-03,
Horizontal Units,s,
Horizontal Scale,1.000E-04,
Horizontal Position,1.124E-03,
Horizontal Mode,Main,
Sampling Period,8.000E-08,
Firmware,V1.09,
Time,06-May-21 16:38,
Waveform Data,
-78,
-81,
-83,
-81,
-77,
-77,
-84,
-82,
-79,
-82,
-79,
-81,
-80,
-84,
-80,
-77,
-79,
-84,
-81,
-82,
-77,
-82,
-79,
-85,
-81,
-82,
-81,
-84,
-84,
-85,
-83,
-81,
-85,
-85,
-85,
-82,
-81,
-82,
-83,
-84,
-79,
-81,
-80,
-86,
-80,
-85,
-80,
-83,
-85,
-86,
-85,
-84,
-83,
-81,
-89,
-87,
-83,
-83,
-86,
-86,
-86,
-85,
-83,
-86,
-86,
-90,
-81,
-86,
-85,
-87,
-86,
-87,
-83,
-84,
-84,
-87,
-86,
-83,
-85,
-86,
-89,
-89,
-85,
-86,
-89,
-91,
-89,
-90,
-88,
-89,
-89,
-90,
-87,
-85,
-83,
-89,
-87,
-89,
-85,
-88,
-86,
-89,
-87,
-86,
-86,
-88,
-91,
-90,
-87,
-86,
-89,
-91,
-88,
-90,
-87,
-90,
-89,
-93,
-87,
-91,
-89,
-93,
-91,
-94,
-89,
-90,
-91,
-91,
-93,
-89,
-89,
-88,
-91,
-90,
-89,
-88,
-89,
-96,
-88,
-93,
-88,
-94,
-93,
-96,
-91,
-93,
-94,
-93,
-94,
-97,
-93,
-90,
-92,
-95,
-91,
-89,
-91,
-93,
-95,
-94,
-90,
-94,
-93,
-95,
-91,
-93,
-93,
-93,
-92,
-98,
-92,
-93,
-91,
-96,
-97,
-97,
-92,
-95,
-97,
-98,
-98,
-93,
-97,
-93,
-95,
-98,
-94,
-95,
-93,
-99,
-95,
-97,
-89,
-93,
-97,
-101,
-95,
-98,
-93,
-97,
-101,
-97,
-97,
-95,
-98,
-98,
-100,
-94,
-98,
-99,
-97,
-100,
-96,
-97,
-93,
-101,
-97,
-99,
-95,
-99,
-98,
-100,
-98,
-98,
-94,
-98,
-102,
-101,
-97,
-97,
-100,
-105,
-100,
-100,
-98,
-101,
-104,
-104,
-99,
-101,
-101,
-102,
-101,
-102,
-94,
-98,
-101,
-103,
-99,
-100,
-96,
-101,
-101,
-102,
-99,
-101,
-103,
-103,
-102,
-104,
-102,
-101,
-101,
-105,
-101,
-102,
-99,
-105,
-105,
-106,
-98,
-105,
-101,
-107,
-102,
-104,
-104,
-103,
-106,
-104,
-102,
-101,
-102,
-102,
-103,
-101,
-100,
-104,
-103,
-108,
-100,
-104,
-102,
-109,
-105,
-110,
-104,
-108,
-107,
-107,
-109,
-106,
-104,
-104,
-108,
-107,
-102,
-100,
-107,
-110,
-106,
-105,
-103,
-107,
-107,
-109,
-104,
-108,
-104,
-107,
-107,
-109,
-105,
-105,
-107,
-112,
-107,
-108,
-106,
-109,
-111,
-109,
-109,
-109,
-109,
-108,
-109,
-111,
-105,
-105,
-109,
-113,
-103,
-107,
-103,
-113,
-109,
-111,
-105,
-109,
-111,
-113,
-111,
-110,
-110,
-109,
-113,
-111,
-111,
-107,
-112,
-114,
-110,
-113,
-107,
-113,
-109,
-115,
-109,
-111,
-108,
-113,
-113,
-113,
-109,
-107,
-109,
-111,
-111,
-109,
-109,
-111,
-115,
-112,
-111,
-114,
-112,
-118,
-115,
-117,
-110,
-114,
-117,
-117,
-111,
-114,
-109,
-113,
-114,
-116,
-109,
-109,
-111,
-117,
-113,
-113,
-111,
-113,
-118,
-118,
-111,
-114,
-115,
-117,
-114,
-116,
-114,
-116,
-114,
-119,
-112,
-116,
-113,
-119,
-117,
-118,
-113,
-117,
-117,
-117,
-117,
-116,
-113,
-113,
-118,
-117,
-112,
-113,
-113,
-115,
-117,
-119,
-110,
-121,
-117,
-122,
-117,
-120,
-117,
-121,
-119,
-120,
-120,
-117,
-118,
-121,
-118,
-116,
-117,
-117,
-121,
-121,
-111,
-117,
-118,
-122,
-118,
-121,
-115,
-121,
-118,
-120,
-117,
-117,
-117,
-121,
-119,
-122,
-117,
-118,
-122,
-124,
-121,
-119,
-119,
-122,
-121,
-122,
-119,
-119,
-119,
-122,
-119,
-121,
-117,
-119,
-119,
-125,
-115,
-118,
-119,
-123,
-121,
-123,
-119,
-122,
-126,
-125,
-122,
-122,
-123,
-121,
-125,
-125,
-119,
-121,
-120,
-125,
-121,
-124,
-118,
-126,
-123,
-125,
-118,
-124,
-122,
-125,
-123,
-123,
-120,
-121,
-122,
-125,
-125,
-123,
-121,
-128,
-126,
-128,
-121,
-126,
-127,
-130,
-125,
-127,
-123,
-127,
-123,
-127,
-123,
-122,
-125,
-125,
-125,
-124,
-123,
-125,
-126,
-128,
-123,
-123,
-124,
-128,
-126,
-127,
-122,
-127,
-127,
-129,
-122,
-128,
-123,
-129,
-126,
-131,
-124,
-126,
-128,
-131,
-129,
-128,
-125,
-126,
-129,
-128,
-125,
-125,
-125,
-127,
-126,
-130,
-121,
-127,
-125,
-131,
-127,
-129,
-125,
-131,
-132,
-131,
-127,
-127,
-131,
-131,
-129,
-128,
-128,
-128,
-128,
-132,
-126,
-127,
-127,
-134,
-127,
-133,
-125,
-131,
-128,
-133,
-127,
-129,
-129,
-130,
-129,
-130,
-129,
-129,
-131,
-131,
-132,
-133,
-129,
-133,
-131,
-136,
-133,
-130,
-131,
-134,
-131,
-131,
-126,
-129,
-128,
-134,
-129,
-131,
-127,
-131,
-134,
-134,
-129,
-130,
-133,
-134,
-135,
-131,
-130,
-134,
-134,
-135,
-129,
-133,
-131,
-137,
-131,
-137,
-131,
-135,
-133,
-136,
-132,
-133,
-131,
-133,
-134,
-133,
-129,
-129,
-134,
-134,
-130,
-133,
-130,
-134,
-132,
-137,
-131,
-134,
-132,
-139,
-136,
-140,
-131,
-135,
-138,
-139,
-133,
-133,
-132,
-131,
-137,
-135,
-131,
-133,
-134,
-137,
-133,
-135,
-130,
-134,
-135,
-139,
-133,
-134,
-134,
-140,
-134,
-135,
-133,
-137,
-137,
-139,
-137,
-138,
-136,
-138,
-138,
-140,
-132,
-133,
-138,
-139,
-137,
-135,
-132,
-137,
-135,
-139,
-129,
-135,
-134,
-139,
-135,
-139,
-134,
-136,
-140,
-140,
-140,
-137,
-139,
-137,
-140,
-138,
-135,
-138,
-137,
-140,
-136,
-140,
-134,
-140,
-137,
-140,
-135,
-139,
-135,
-140,
-137,
-138,
-136,
-136,
-140,
-140,
-137,
-137,
-137,
-139,
-140,
-140,
-137,
-138,
-140,
-140,
-139,
-140,
-137,
-140,
-140,
-140,
-135,
-138,
-135,
-139,
-139,
-140,
-135,
-138,
-140,
-140,
-139,
-140,
-139,
-140,
-140,
-140,
-140,
-139,
-140,
-140,
-139,
-140,
-135,
-140,
-140,
-140,
-137,
-140,
-139,
-140,
-139,
-140,
-140,
-137,
-140,
-140,
-140,
-138,
-137,
-140,
-140,
-140,
-136,
-140,
-140,
-140,
-140,
-140,
-140,
-140,
-140,
-140,
-140,
-140,
-140,
-140,
-140,
-140,
-139,
-139,
-140,
-140,
-140,
-140,
-138,
-140,
-140,
-140,
-139,
-140,
-140,
-140,
-140,
-140,
-140,
-140,
-140,
-140,
-140,
-140,
-140,
-140,
-140,
-140,
-140,
-140,
-140,
-140,
-140,
-140,
-140,
-140,
-140,
-140,
-140,
-140,
-139,
-140,
-140,
-140,
-137,
-140,
-140,
-140,
-140,
-140,
-140,
-140,
-140,
-140,
-140,
-140,
-140,
-140,
-140,
-140,
-140,
-140,
-140,
-140,
-140,
-140,
-140,
-140,
-140,
-140,
-140,
-140,
-140,
-140,
-140,
-140,
-140,
-140,
-140,
-140,
-140,
-140,
-140,
-140,
-140,
-140,
-140,
-140,
-140,
-140,
-140,
-140,
-140,
-140,
-140,
-140,
-140,
-140,
-140,
-140,
-140,
-140,
-140,
-140,
-140,
-140,
-140,
-140,
-140,
-140,
-140,
-140,
-140,
-140,
-140,
-140,
-140,
-140,
-140,
-140,
-140,
-140,
-140,
-140,
-140,
-140,
-140,
-140,
-140,
-140,
-140,
-140,
-140,
-140,
-140,
-140,
-140,
-140,
-140,
-140,
-140,
-140,
-140,
-140,
-140,
-140,
-140,
-140,
-140,
-140,
-140,
-140,
-140,
-140,
-140,
-140,
-140,
-140,
-140,
-140,
-140,
-140,
-140,
-140,
-140,
-140,
-140,
-140,
-140,
-140,
-140,
-140,
-140,
-140,
-140,
-140,
-140,
-140,
-140,
-140,
-140,
-140,
-140,
-140,
-140,
-140,
-140,
-140,
-140,
-140,
-140,
-140,
-140,
-140,
-140,
-140,
-140,
-140,
-140,
-140,
-140,
-140,
-140,
-140,
-140,
-140,
-140,
-140,
-140,
-140,
-140,
-140,
-140,
-140,
-140,
-140,
-140,
-140,
-140,
-140,
-140,
-140,
-140,
-140,
-140,
-140,
-140,
-140,
-140,
-140,
-140,
-140,
-140,
-140,
-140,
-140,
-140,
-140,
-140,
-140,
-140,
-140,
-140,
-140,
-140,
-140,
-140,
-140,
-140,
-140,
-140,
-140,
-140,
-140,
-140,
-140,
-140,
-140,
-140,
-140,
-140,
-140,
-140,
-140,
-140,
-140,
-140,
-140,
-140,
-140,
-140,
-140,
-140,
-140,
-140,
-140,
-140,
-140,
-140,
-140,
-140,
-140,
-140,
-140,
-140,
-140,
-140,
-140,
-140,
-140,
-140,
-140,
-140,
-140,
-140,
-140,
-140,
-140,
-140,
-140,
-140,
-140,
-140,
-140,
-140,
-140,
-140,
-140,
-140,
-140,
-140,
-140,
-140,
-140,
-140,
-140,
-140,
-140,
-140,
-140,
-140,
-140,
-140,
-140,
-140,
-140,
-140,
-140,
-140,
-140,
-140,
-140,
-140,
-140,
-140,
-140,
-140,
-140,
-140,
-140,
-140,
-140,
-140,
-140,
-140,
-140,
-139,
-140,
-140,
-140,
-140,
-140,
-140,
-140,
-140,
-140,
-140,
-140,
-140,
-140,
-140,
-140,
-140,
-140,
-140,
-140,
-139,
-140,
-139,
-140,
-140,
-140,
-137,
-140,
-140,
-140,
-140,
-140,
-140,
-140,
-140,
-140,
-140,
-139,
-140,
-140,
-139,
-140,
-138,
-140,
-140,
-140,
-138,
-140,
-140,
-140,
-139,
-140,
-138,
-140,
-140,
-140,
-137,
-134,
-138,
-139,
-137,
-137,
-134,
-139,
-138,
-140,
-134,
-139,
-138,
-140,
-140,
-140,
-135,
-139,
-137,
-140,
-138,
-140,
-133,
-139,
-137,
-137,
-133,
-136,
-137,
-139,
-136,
-134,
-134,
-137,
-137,
-135,
-133,
-133,
-130,
-135,
-134,
-137,
-131,
-136,
-135,
-140,
-134,
-135,
-135,
-139,
-139,
-137,
-134,
-134,
-137,
-135,
-135,
-134,
-130,
-131,
-132,
-137,
-129,
-131,
-129,
-137,
-133,
-135,
-129,
-135,
-134,
-137,
-133,
-133,
-133,
-132,
-135,
-135,
-131,
-131,
-133,
-137,
-134,
-134,
-129,
-135,
-133,
-135,
-131,
-133,
-131,
-135,
-131,
-132,
-129,
-129,
-132,
-134,
-133,
-132,
-129,
-132,
-134,
-136,
-131,
-130,
-133,
-137,
-135,
-134,
-131,
-133,
-133,
-135,
-129,
-133,
-127,
-133,
-130,
-135,
-128,
-133,
-131,
-135,
-133,
-131,
-131,
-133,
-135,
-134,
-131,
-131,
-133,
-134,
-132,
-136,
-129,
-132,
-132,
-140,
-132,
-134,
-130,
-136,
-135,
-133,
-130,
-132,
-134,
-133,
-132,
-132,
-131,
-131,
-132,
-133,
-129,
-131,
-133,
-138,
-133,
-137,
-130,
-135,
-137,
-139,
-133,
-135,
-131,
-135,
-135,
-135,
-131,
-132,
-135,
-138,
-133,
-134,
-131,
-134,
-135,
-135,
-131,
-134,
-133,
-139,
-134,
-134,
-131,
-135,
-133,
-139,
-133,
-137,
-134,
-139,
-136,
-139,
-134,
-134,
-138,
-140,
-137,
-134,
-135,
-135,
-138,
-136,
-132,
-135,
-134,
-139,
-134,
-139,
-131,
-135,
-137,
-140,
-135,
-137,
-137,
-140,
-140,
-139,
-135,
-137,
-140,
-139,
-137,
-139,
-134,
-137,
-138,
-140,
-135,
-140,
-134,
-140,
-138,
-140,
-134,
-139,
-139,
-140,
-136,
-136,
-137,
-138,
-140,
-140,
-138,
-137,
-140,
-140,
-139,
-140,
-139,
-140,
-140,
-140,
-139,
-139,
-138,
-140,
-139,
-140,
-137,
-139,
-138,
-140,
-138,
-140,
-137,
-139,
-140,
-140,
-140,
-139,
-140,
-140,
-140,
-140,
-140,
-140,
-140,
-140,
-137,
-140,
-140,
-140,
-140,
-140,
-140,
-140,
-140,
-140,
-140,
-140,
-140,
-140,
-140,
-140,
-140,
-140,
-140,
-140,
-140,
-140,
-140,
-140,
-140,
-140,
-140,
-140,
-140,
-140,
-140,
-140,
-140,
-140,
-140,
-140,
-140,
-140,
-140,
-140,
-140,
-140,
-140,
-140,
-140,
-140,
-140,
-140,
-140,
-140,
-140,
-140,
-140,
-140,
-140,
-140,
-140,
-140,
-140,
-140,
-140,
-140,
-140,
-140,
-140,
-140,
-140,
-140,
-140,
-140,
-140,
-140,
-140,
-140,
-140,
-140,
-140,
-140,
-140,
-140,
-140,
-140,
-140,
-140,
-140,
-140,
-140,
-140,
-140,
-140,
-140,
-140,
-140,
-140,
-140,
-140,
-140,
-140,
-140,
-140,
-140,
-140,
-140,
-140,
-140,
-140,
-140,
-140,
-140,
-140,
-140,
-140,
-140,
-140,
-140,
-140,
-140,
-140,
-140,
-140,
-140,
-140,
-140,
-140,
-140,
-140,
-140,
-140,
-140,
-140,
-140,
-140,
-140,
-140,
-140,
-140,
-140,
-140,
-140,
-140,
-140,
-140,
-140,
-140,
-140,
-140,
-140,
-140,
-140,
-140,
-140,
-140,
-140,
-140,
-140,
-140,
-140,
-140,
-140,
-140,
-140,
-140,
-140,
-140,
-140,
-140,
-140,
-140,
-140,
-140,
-140,
-140,
-140,
-140,
-140,
-140,
-140,
-140,
-140,
-140,
-140,
-140,
-140,
-140,
-140,
-140,
-140,
-140,
-140,
-140,
-140,
-140,
-140,
-140,
-140,
-140,
-140,
-140,
-140,
-140,
-140,
-140,
-140,
-140,
-140,
-140,
-140,
-140,
-140,
-140,
-140,
-140,
-140,
-140,
-140,
-140,
-140,
-140,
-140,
-140,
-140,
-140,
-140,
-140,
-140,
-140,
-140,
-140,
-140,
-140,
-140,
-140,
-140,
-140,
-140,
-140,
-140,
-140,
-140,
-140,
-140,
-140,
-140,
-140,
-140,
-140,
-140,
-140,
-140,
-140,
-140,
-140,
-140,
-140,
-140,
-140,
-140,
-140,
-140,
-140,
-140,
-140,
-140,
-140,
-140,
-140,
-140,
-140,
-140,
-140,
-140,
-140,
-140,
-140,
-140,
-140,
-140,
-140,
-140,
-140,
-140,
-140,
-140,
-140,
-140,
-140,
-140,
-140,
-140,
-140,
-140,
-140,
-140,
-140,
-140,
-140,
-140,
-140,
-140,
-140,
-140,
-140,
-140,
-140,
-140,
-140,
-140,
-140,
-140,
-140,
-140,
-140,
-140,
-140,
-140,
-140,
-140,
-140,
-140,
-140,
-140,
-140,
-140,
-140,
-140,
-140,
-140,
-140,
-140,
-140,
-140,
-140,
-140,
-140,
-140,
-140,
-140,
-140,
-140,
-140,
-140,
-140,
-140,
-140,
-140,
-140,
-140,
-140,
-140,
-140,
-140,
-140,
-140,
-140,
-140,
-140,
-140,
-140,
-140,
-140,
-140,
-140,
-140,
-140,
-140,
-140,
-140,
-140,
-140,
-140,
-140,
-140,
-140,
-140,
-140,
-140,
-140,
-140,
-140,
-140,
-140,
-140,
-140,
-140,
-140,
-140,
-140,
-140,
-140,
-140,
-140,
-140,
-140,
-140,
-140,
-140,
-140,
-140,
-140,
-140,
-140,
-140,
-140,
-140,
-140,
-140,
-140,
-140,
-140,
-140,
-140,
-140,
-140,
-140,
-140,
-140,
-140,
-140,
-140,
-140,
-140,
-140,
-140,
-140,
-140,
-140,
-140,
-140,
-140,
-140,
-140,
-140,
-140,
-140,
-140,
-140,
-140,
-140,
-140,
-140,
-140,
-140,
-140,
-140,
-140,
-140,
-140,
-140,
-140,
-140,
-140,
-140,
-140,
-140,
-140,
-140,
-140,
-140,
-140,
-140,
-140,
-140,
-140,
-140,
-140,
-140,
-140,
-140,
-140,
-140,
-140,
-140,
-140,
-140,
-140,
-140,
-140,
-140,
-140,
-140,
-140,
-140,
-140,
-140,
-140,
-140,
-140,
-140,
-140,
-140,
-140,
-140,
-140,
-140,
-140,
-140,
-140,
-140,
-140,
-140,
-140,
-140,
-140,
-140,
-140,
-140,
-140,
-140,
-140,
-140,
-140,
-140,
-140,
-140,
-140,
-140,
-140,
-140,
-140,
-140,
-140,
-140,
-140,
-140,
-140,
-140,
-140,
-140,
-140,
-140,
-140,
-140,
-140,
-140,
-140,
-140,
-140,
-140,
-140,
-140,
-140,
-140,
-140,
-140,
-140,
-140,
-140,
-140,
-140,
-140,
-140,
-140,
-140,
-140,
-140,
-140,
-140,
-140,
-140,
-140,
-140,
-140,
-140,
-140,
-140,
-140,
-140,
-140,
-140,
-140,
-140,
-140,
-140,
-140,
-140,
-140,
-140,
-140,
-140,
-140,
-140,
-140,
-140,
-140,
-140,
-140,
-140,
-140,
-140,
-140,
-140,
-140,
-140,
-140,
-140,
-140,
-140,
-140,
-140,
-140,
-140,
-140,
-140,
-140,
-140,
-140,
-140,
-140,
-140,
-140,
-140,
-140,
-140,
-140,
-140,
-140,
-140,
-140,
-140,
-140,
-140,
-140,
-140,
-140,
-140,
-140,
-140,
-140,
-140,
-140,
-140,
-140,
-140,
-140,
-140,
-140,
-140,
-140,
-140,
-140,
-140,
-140,
-140,
-140,
-140,
-140,
-140,
-140,
-140,
-140,
-140,
-140,
-140,
-140,
-140,
-140,
-140,
-140,
-140,
-140,
-140,
-140,
-140,
-140,
-140,
-140,
-140,
-140,
-140,
-140,
-140,
-140,
-140,
-140,
-140,
-140,
-140,
-140,
-140,
-140,
-140,
-140,
-140,
-140,
-140,
-140,
-140,
-140,
-140,
-140,
-140,
-140,
-140,
-140,
-140,
-140,
-140,
-140,
-140,
-140,
-140,
-140,
-140,
-140,
-140,
-140,
-140,
-140,
-140,
-140,
-140,
-140,
-140,
-140,
-140,
-140,
-140,
-140,
-140,
-140,
-140,
-140,
-140,
-140,
-140,
-140,
-140,
-140,
-140,
-140,
-140,
-140,
-140,
-140,
-140,
-140,
-140,
-140,
-140,
-140,
-140,
-140,
-140,
-140,
-140,
-140,
-140,
-140,
-140,
-140,
-140,
-140,
-140,
-140,
-140,
-140,
-140,
-140,
-140,
-140,
-140,
-140,
-140,
-140,
-140,
-140,
-140,
-140,
-140,
-140,
-140,
-140,
-140,
-140,
-140,
-140,
-140,
-140,
-140,
-140,
-140,
-140,
-140,
-140,
-140,
-140,
-140,
-140,
-140,
-140,
-140,
-140,
-140,
-140,
-140,
-140,
-140,
-140,
-140,
-140,
-140,
-140,
-140,
-140,
-140,
-140,
-140,
-140,
-140,
-140,
-140,
-140,
-140,
-140,
-140,
-140,
-140,
-140,
-140,
-140,
-140,
-140,
-140,
-140,
-140,
-140,
-140,
-140,
-140,
-140,
-140,
-140,
-140,
-140,
-140,
-140,
-140,
-140,
-140,
-140,
-140,
-140,
-140,
-140,
-140,
-140,
-140,
-140,
-140,
-140,
-140,
-140,
-140,
-140,
-140,
-140,
-140,
-140,
-140,
-140,
-140,
-140,
-140,
-140,
-140,
-140,
-140,
-140,
-140,
-140,
-140,
-140,
-140,
-140,
-140,
-140,
-140,
-140,
-140,
-140,
-140,
-140,
-140,
-140,
-140,
-140,
-140,
-140,
-140,
-140,
-140,
-140,
-140,
-140,
-140,
-140,
-140,
-140,
-140,
-140,
-140,
-140,
-140,
-140,
-140,
-140,
-140,
-140,
-140,
-140,
-140,
-140,
-140,
-140,
-140,
-140,
-140,
-140,
-140,
-140,
-140,
-140,
-140,
-140,
-140,
-140,
-140,
-140,
-140,
-140,
-140,
-140,
-140,
-140,
-140,
-140,
-140,
-140,
-140,
-140,
-140,
-140,
-140,
-140,
-140,
-140,
-140,
-140,
-140,
-140,
-140,
-140,
-140,
-140,
-140,
-140,
-140,
-140,
-140,
-140,
-140,
-140,
-140,
-140,
-140,
-140,
-140,
-140,
-140,
-140,
-140,
-140,
-140,
-140,
-140,
-140,
-140,
-140,
-140,
-140,
-140,
-140,
-140,
-140,
-140,
-140,
-140,
-140,
-140,
-140,
-140,
-140,
-140,
-140,
-140,
-140,
-140,
-140,
-140,
-140,
-140,
-140,
-140,
-140,
-140,
-140,
-140,
-140,
-140,
-140,
-140,
-140,
-140,
-140,
-140,
-140,
-140,
-140,
-140,
-140,
-140,
-140,
-140,
-140,
-140,
-140,
-140,
-140,
-140,
-140,
-140,
-140,
-140,
-140,
-140,
-140,
-140,
-140,
-140,
-140,
-140,
-140,
-140,
-140,
-140,
-140,
-140,
-140,
-140,
-140,
-140,
-140,
-140,
-140,
-140,
-140,
-140,
-140,
-140,
-140,
-140,
-140,
-140,
-140,
-140,
-140,
-140,
-140,
-140,
-140,
-140,
-140,
-140,
-140,
-140,
-140,
-140,
-140,
-140,
-140,
-140,
-140,
-140,
-140,
-140,
-140,
-140,
-140,
-140,
-140,
-140,
-140,
-140,
-140,
-140,
-140,
-140,
-140,
-140,
-140,
-140,
-140,
-140,
-140,
-140,
-140,
-140,
-140,
-140,
-140,
-140,
-140,
-140,
-140,
-140,
-140,
-140,
-140,
-140,
-140,
-140,
-140,
-140,
-140,
-140,
-140,
-140,
-140,
-140,
-140,
-140,
-140,
-140,
-140,
-140,
-140,
-140,
-140,
-140,
-140,
-140,
-140,
-140,
-140,
-140,
-140,
-140,
-140,
-140,
-140,
-140,
-140,
-140,
-140,
-140,
-140,
-140,
-140,
-140,
-140,
-140,
-140,
-140,
-140,
-140,
-140,
-140,
-140,
-140,
-140,
-140,
-140,
-140,
-140,
-140,
-140,
-140,
-140,
-140,
-140,
-140,
-140,
-140,
-140,
-140,
-140,
-140,
-140,
-140,
-140,
-140,
-140,
-140,
-140,
-140,
-140,
-140,
-140,
-140,
-140,
-140,
-140,
-140,
-140,
-140,
-140,
-140,
-140,
-140,
-140,
-140,
-140,
-140,
-140,
-140,
-140,
-140,
-140,
-140,
-140,
-140,
-140,
-140,
-140,
-140,
-140,
-140,
-140,
-140,
-140,
-140,
-140,
-140,
-140,
-140,
-140,
-140,
-140,
-140,
-140,
-140,
-140,
-140,
-140,
-140,
-140,
-140,
-140,
-140,
-140,
-140,
-140,
-140,
-140,
-140,
-140,
-140,
-140,
-140,
-140,
-140,
-140,
-140,
-140,
-140,
-140,
-140,
-140,
-140,
-140,
-140,
-140,
-140,
-140,
-140,
-140,
-140,
-140,
-140,
-140,
-140,
-140,
-140,
-140,
-140,
-140,
-140,
-140,
-140,
-140,
-140,
-140,
-140,
-140,
-140,
-140,
-140,
-140,
-140,
-140,
-140,
-140,
-140,
-140,
-140,
-140,
-140,
-140,
-140,
-140,
-140,
-140,
-140,
-140,
-140,
-140,
-140,
-140,
-140,
-140,
-140,
-140,
-140,
-140,
-140,
-140,
-140,
-140,
-140,
-140,
-140,
-140,
-140,
-140,
-140,
-140,
-140,
-140,
-140,
-140,
-140,
-140,
-140,
-140,
-140,
-140,
-140,
-140,
-140,
-140,
-140,
-140,
-140,
-140,
-140,
-140,
-140,
-140,
-140,
-140,
-140,
-140,
-140,
-140,
-140,
-140,
-140,
-140,
-140,
-140,
-140,
-140,
-140,
-140,
-140,
-140,
-140,
-140,
-140,
-140,
-140,
-140,
-140,
-140,
-140,
-140,
-140,
-140,
-140,
-140,
-140,
-140,
-140,
-140,
-140,
-140,
-140,
-140,
-140,
-140,
-140,
-140,
-140,
-140,
-140,
-140,
-140,
-140,
-140,
-140,
-140,
-140,
-140,
-140,
-140,
-140,
-140,
-140,
-140,
-140,
-140,
-140,
-140,
-140,
-140,
-140,
-140,
-140,
-140,
-140,
-140,
-140,
-140,
-140,
-140,
-140,
-140,
-140,
-140,
-140,
-140,
-140,
-140,
-140,
-140,
-140,
-140,
-140,
-140,
-140,
-140,
-140,
-140,
-140,
-140,
-140,
-140,
-140,
-140,
-140,
-140,
-140,
-140,
-140,
-140,
-140,
-140,
-140,
-140,
-140,
-140,
-140,
-140,
-140,
-140,
-140,
-140,
-140,
-140,
-140,
-140,
-140,
-140,
-140,
-140,
-140,
-140,
-140,
-140,
-140,
-140,
-140,
-140,
-140,
-140,
-140,
-140,
-140,
-140,
-140,
-140,
-140,
-140,
-140,
-140,
-140,
-140,
-140,
-140,
-140,
-140,
-140,
-140,
-140,
-140,
-140,
-140,
-140,
-140,
-140,
-140,
-140,
-140,
-140,
-140,
-140,
-140,
-140,
-140,
-140,
-140,
-140,
-140,
-140,
-140,
-140,
-140,
-140,
-140,
-140,
-140,
-140,
-140,
-140,
-140,
-140,
-140,
-140,
-140,
-140,
-140,
-140,
-140,
-140,
-140,
-140,
-140,
-140,
-140,
-140,
-140,
-140,
-140,
-140,
-140,
-140,
-140,
-140,
-140,
-140,
-140,
-140,
-140,
-140,
-140,
-140,
-140,
-140,
-140,
-140,
-140,
-140,
-140,
-140,
-140,
-140,
-140,
-140,
-140,
-140,
-140,
-140,
-140,
-140,
-140,
-140,
-140,
-140,
-140,
-140,
-140,
-140,
-140,
-140,
-140,
-140,
-140,
-140,
-140,
-140,
-140,
-140,
-140,
-140,
-140,
-140,
-140,
-140,
-140,
-140,
-140,
-140,
-140,
-140,
-140,
-140,
-140,
-140,
-140,
-140,
-140,
-140,
-140,
-140,
-140,
-140,
-140,
-140,
-140,
-140,
-140,
-140,
-140,
-140,
-140,
-140,
-140,
-140,
-140,
-140,
-140,
-140,
-140,
-140,
-140,
-140,
-140,
-140,
-140,
-140,
-140,
-140,
-140,
-140,
-140,
-140,
-140,
-140,
-140,
-140,
-140,
-140,
-140,
-140,
-140,
-140,
-140,
-140,
-140,
-140,
-140,
-140,
-140,
-140,
-140,
-140,
-140,
-140,
-140,
-140,
-140,
-140,
-140,
-140,
-140,
-140,
-140,
-140,
-140,
-140,
-140,
-140,
-140,
-140,
-140,
-140,
-140,
-140,
-140,
-140,
-140,
-140,
-140,
-140,
-140,
-140,
-140,
-140,
-140,
-140,
-140,
-140,
-140,
-140,
-140,
-140,
-140,
-140,
-140,
-140,
-140,
-140,
-140,
-140,
-140,
-140,
-140,
-140,
-140,
-140,
-140,
-140,
-140,
-140,
-140,
-140,
-140,
-140,
-140,
-140,
-140,
-140,
-140,
-140,
-140,
-140,
-140,
-140,
-140,
-140,
-140,
-140,
-140,
-140,
-140,
-140,
-140,
-140,
-140,
-140,
-140,
-140,
-140,
-140,
-140,
-140,
-140,
-140,
-140,
-140,
-140,
