A246/TeX/figs/measurements/ALL0009/A0009CH1.CSV

Memory Length,25000,
Trigger Level,-1.320E+00,
Source,CH1,
Vertical Units,V,
Vertical Scale,2.000E-02,
Vertical Position,1.440E-02,
Horizontal Units,s,
Horizontal Scale,1.000E-03,
Horizontal Position,-1.480E-03,
Horizontal Mode,Main,
Sampling Period,8.000E-07,
Firmware,V1.09,
Time,06-May-21 16:18,
Waveform Data,
-32,
-31,
-32,
-32,
-30,
-31,
-31,
-31,
-32,
-32,
-32,
-32,
-34,
-33,
-32,
-34,
-32,
-33,
-32,
-34,
-34,
-35,
-34,
-34,
-36,
-34,
-35,
-36,
-35,
-35,
-36,
-34,
-36,
-35,
-36,
-35,
-35,
-35,
-36,
-36,
-37,
-37,
-38,
-37,
-38,
-39,
-37,
-38,
-38,
-38,
-39,
-38,
-40,
-39,
-39,
-42,
-39,
-39,
-40,
-39,
-40,
-40,
-43,
-42,
-42,
-41,
-40,
-41,
-40,
-42,
-42,
-42,
-42,
-42,
-42,
-42,
-43,
-45,
-43,
-45,
-42,
-44,
-44,
-44,
-45,
-44,
-46,
-45,
-46,
-46,
-46,
-44,
-47,
-44,
-47,
-45,
-46,
-48,
-46,
-49,
-48,
-50,
-48,
-46,
-46,
-46,
-48,
-49,
-48,
-49,
-50,
-51,
-50,
-51,
-50,
-50,
-49,
-51,
-48,
-50,
-51,
-50,
-52,
-51,
-52,
-52,
-50,
-51,
-51,
-52,
-50,
-50,
-52,
-51,
-52,
-53,
-52,
-54,
-50,
-54,
-54,
-55,
-54,
-52,
-56,
-56,
-55,
-56,
-54,
-56,
-54,
-56,
-56,
-56,
-55,
-56,
-56,
-57,
-58,
-58,
-57,
-58,
-58,
-58,
-58,
-58,
-56,
-58,
-58,
-60,
-59,
-60,
-59,
-59,
-58,
-62,
-59,
-61,
-60,
-61,
-61,
-62,
-63,
-62,
-62,
-62,
-61,
-64,
-60,
-63,
-62,
-62,
-63,
-64,
-66,
-63,
-65,
-65,
-65,
-64,
-65,
-64,
-64,
-63,
-66,
-64,
-66,
-67,
-64,
-67,
-65,
-65,
-66,
-68,
-66,
-66,
-67,
-68,
-67,
-69,
-67,
-70,
-67,
-68,
-68,
-70,
-68,
-68,
-68,
-72,
-70,
-72,
-69,
-70,
-70,
-71,
-70,
-72,
-68,
-72,
-72,
-74,
-73,
-72,
-73,
-71,
-72,
-73,
-70,
-72,
-72,
-72,
-72,
-71,
-73,
-72,
-73,
-76,
-72,
-75,
-72,
-73,
-73,
-74,
-74,
-74,
-72,
-74,
-72,
-75,
-74,
-77,
-74,
-75,
-74,
-74,
-75,
-76,
-76,
-77,
-75,
-78,
-76,
-76,
-77,
-78,
-75,
-78,
-75,
-78,
-76,
-80,
-78,
-78,
-78,
-78,
-75,
-78,
-77,
-79,
-80,
-80,
-81,
-80,
-80,
-79,
-79,
-80,
-78,
-81,
-79,
-80,
-81,
-80,
-82,
-82,
-80,
-81,
-80,
-82,
-81,
-83,
-80,
-81,
-81,
-82,
-82,
-82,
-82,
-84,
-82,
-86,
-82,
-84,
-82,
-82,
-83,
-83,
-84,
-86,
-82,
-86,
-83,
-84,
-84,
-86,
-83,
-83,
-84,
-84,
-86,
-86,
-84,
-86,
-84,
-87,
-87,
-86,
-86,
-86,
-84,
-88,
-86,
-89,
-85,
-88,
-86,
-87,
-87,
-87,
-86,
-88,
-87,
-89,
-86,
-87,
-88,
-90,
-89,
-90,
-87,
-89,
-86,
-89,
-86,
-87,
-87,
-88,
-89,
-88,
-88,
-88,
-88,
-90,
-87,
-88,
-88,
-87,
-88,
-88,
-88,
-89,
-86,
-87,
-88,
-90,
-85,
-86,
-87,
-84,
-87,
-87,
-86,
-87,
-87,
-90,
-88,
-87,
-86,
-87,
-86,
-84,
-86,
-87,
-84,
-85,
-84,
-86,
-85,
-86,
-84,
-85,
-84,
-86,
-83,
-86,
-83,
-84,
-86,
-84,
-84,
-84,
-83,
-84,
-82,
-86,
-83,
-85,
-82,
-83,
-84,
-84,
-84,
-85,
-84,
-83,
-82,
-87,
-81,
-84,
-83,
-85,
-83,
-83,
-81,
-83,
-82,
-86,
-83,
-86,
-82,
-86,
-83,
-82,
-82,
-82,
-82,
-86,
-82,
-86,
-82,
-84,
-82,
-85,
-82,
-83,
-80,
-83,
-80,
-83,
-80,
-82,
-83,
-83,
-82,
-82,
-81,
-82,
-79,
-81,
-77,
-82,
-80,
-80,
-81,
-81,
-80,
-82,
-80,
-80,
-79,
-80,
-79,
-78,
-79,
-79,
-79,
-79,
-78,
-78,
-77,
-80,
-76,
-79,
-78,
-75,
-77,
-76,
-76,
-77,
-78,
-77,
-76,
-78,
-76,
-75,
-74,
-74,
-75,
-75,
-73,
-75,
-72,
-74,
-73,
-74,
-72,
-73,
-72,
-72,
-72,
-72,
-70,
-73,
-70,
-72,
-70,
-72,
-70,
-71,
-68,
-71,
-66,
-72,
-66,
-69,
-68,
-69,
-70,
-70,
-68,
-69,
-68,
-69,
-65,
-68,
-66,
-67,
-66,
-66,
-66,
-67,
-65,
-66,
-64,
-64,
-64,
-66,
-62,
-63,
-64,
-64,
-64,
-62,
-62,
-64,
-62,
-64,
-62,
-62,
-60,
-60,
-62,
-62,
-59,
-58,
-59,
-58,
-60,
-60,
-58,
-57,
-58,
-58,
-58,
-58,
-56,
-57,
-55,
-57,
-56,
-54,
-56,
-56,
-55,
-54,
-54,
-54,
-51,
-54,
-53,
-53,
-54,
-51,
-52,
-52,
-52,
-52,
-52,
-53,
-51,
-52,
-50,
-48,
-49,
-47,
-49,
-47,
-48,
-48,
-48,
-50,
-48,
-48,
-46,
-46,
-46,
-45,
-44,
-46,
-44,
-46,
-44,
-46,
-44,
-44,
-42,
-44,
-42,
-44,
-41,
-42,
-40,
-44,
-42,
-43,
-42,
-41,
-40,
-42,
-39,
-39,
-38,
-39,
-38,
-39,
-38,
-38,
-38,
-37,
-38,
-40,
-36,
-38,
-36,
-38,
-35,
-38,
-35,
-36,
-36,
-36,
-35,
-35,
-34,
-36,
-34,
-36,
-35,
-35,
-32,
-33,
-33,
-32,
-32,
-32,
-30,
-32,
-32,
-33,
-32,
-32,
-31,
-31,
-31,
-31,
-30,
-32,
-28,
-30,
-30,
-30,
-30,
-30,
-28,
-30,
-31,
-30,
-28,
-28,
-25,
-27,
-27,
-26,
-26,
-26,
-26,
-27,
-28,
-27,
-26,
-27,
-24,
-26,
-24,
-25,
-26,
-23,
-26,
-23,
-26,
-23,
-22,
-26,
-24,
-22,
-23,
-22,
-24,
-22,
-23,
-23,
-23,
-22,
-22,
-22,
-20,
-18,
-20,
-20,
-20,
-20,
-20,
-20,
-19,
-20,
-19,
-19,
-18,
-19,
-17,
-18,
-19,
-18,
-19,
-16,
-18,
-19,
-17,
-19,
-18,
-17,
-18,
-17,
-16,
-16,
-17,
-15,
-16,
-18,
-17,
-18,
-16,
-14,
-17,
-16,
-17,
-16,
-14,
-16,
-14,
-16,
-14,
-16,
-16,
-15,
-15,
-14,
-14,
-15,
-14,
-16,
-13,
-15,
-14,
-14,
-14,
-13,
-15,
-14,
-14,
-14,
-14,
-15,
-13,
-13,
-12,
-12,
-14,
-12,
-14,
-14,
-12,
-12,
-12,
-14,
-14,
-14,
-12,
-12,
-11,
-10,
-12,
-10,
-10,
-10,
-12,
-12,
-12,
-11,
-12,
-10,
-10,
-9,
-11,
-11,
-8,
-10,
-9,
-8,
-11,
-10,
-12,
-9,
-10,
-9,
-11,
-8,
-8,
-9,
-10,
-12,
-10,
-10,
-11,
-8,
-11,
-10,
-10,
-11,
-8,
-10,
-9,
-8,
-9,
-9,
-8,
-7,
-9,
-8,
-10,
-10,
-9,
-10,
-10,
-8,
-9,
-8,
-10,
-6,
-9,
-8,
-9,
-8,
-7,
-6,
-8,
-8,
-8,
-8,
-7,
-7,
-8,
-6,
-9,
-7,
-8,
-7,
-6,
-7,
-8,
-8,
-8,
-7,
-8,
-6,
-7,
-8,
-6,
-7,
-6,
-8,
-10,
-9,
-8,
-7,
-8,
-8,
-8,
-8,
-7,
-8,
-6,
-5,
-7,
-3,
-6,
-5,
-8,
-5,
-8,
-8,
-7,
-8,
-6,
-6,
-8,
-8,
-6,
-4,
-4,
-6,
-6,
-7,
-6,
-8,
-8,
-7,
-8,
-8,
-6,
-5,
-6,
-7,
-5,
-7,
-5,
-6,
-8,
-8,
-8,
-6,
-6,
-5,
-8,
-6,
-6,
-7,
-6,
-7,
-7,
-6,
-7,
-8,
-9,
-6,
-8,
-5,
-6,
-4,
-7,
-6,
-6,
-3,
-6,
-4,
-6,
-6,
-6,
-6,
-3,
-6,
-5,
-7,
-4,
-6,
-3,
-5,
-7,
-6,
-6,
-7,
-8,
-7,
-7,
-6,
-8,
-7,
-6,
-7,
-4,
-5,
-6,
-8,
-6,
-5,
-6,
-6,
-8,
-6,
-6,
-6,
-5,
-4,
-6,
-7,
-7,
-5,
-7,
-5,
-9,
-6,
-7,
-6,
-6,
-4,
-6,
-6,
-7,
-5,
-6,
-4,
-7,
-6,
-6,
-4,
-6,
-6,
-6,
-6,
-7,
-4,
-8,
-4,
-6,
-6,
-5,
-7,
-4,
-7,
-6,
-6,
-6,
-4,
-7,
-7,
-6,
-6,
-6,
-8,
-6,
-6,
-6,
-6,
-4,
-4,
-6,
-6,
-6,
-6,
-5,
-7,
-6,
-6,
-5,
-5,
-4,
-5,
-5,
-5,
-4,
-7,
-3,
-6,
-8,
-7,
-8,
-6,
-4,
-4,
-5,
-6,
-6,
-8,
-5,
-7,
-6,
-8,
-6,
-6,
-5,
-5,
-5,
-6,
-4,
-5,
-7,
-6,
-7,
-6,
-6,
-6,
-4,
-7,
-5,
-8,
-6,
-6,
-7,
-4,
-5,
-6,
-5,
-6,
-5,
-9,
-6,
-7,
-5,
-7,
-7,
-7,
-5,
-4,
-7,
-6,
-6,
-8,
-6,
-6,
-8,
-6,
-6,
-5,
-6,
-6,
-4,
-6,
-7,
-8,
-7,
-6,
-6,
-6,
-7,
-6,
-6,
-6,
-5,
-6,
-5,
-6,
-6,
-7,
-8,
-8,
-6,
-6,
-3,
-6,
-6,
-6,
-8,
-5,
-6,
-5,
-8,
-7,
-6,
-6,
-6,
-6,
-6,
-6,
-6,
-5,
-7,
-5,
-6,
-6,
-7,
-5,
-6,
-8,
-6,
-6,
-6,
-4,
-8,
-6,
-8,
-6,
-7,
-6,
-6,
-7,
-5,
-7,
-6,
-5,
-6,
-6,
-6,
-6,
-6,
-8,
-7,
-6,
-6,
-5,
-7,
-3,
-7,
-4,
-6,
-6,
-5,
-6,
-7,
-6,
-7,
-4,
-6,
-4,
-7,
-6,
-4,
-5,
-6,
-7,
-6,
-5,
-6,
-6,
-5,
-5,
-6,
-8,
-5,
-5,
-6,
-6,
-4,
-6,
-6,
-3,
-5,
-6,
-6,
-6,
-6,
-7,
-8,
-7,
-5,
-7,
-4,
-4,
-6,
-6,
-5,
-4,
-6,
-5,
-7,
-7,
-6,
-6,
-4,
-6,
-6,
-5,
-4,
-6,
-8,
-8,
-6,
-6,
-6,
-6,
-5,
-5,
-3,
-6,
-6,
-6,
-6,
-7,
-8,
-7,
-6,
-6,
-6,
-6,
-5,
-7,
-7,
-7,
-7,
-6,
-7,
-5,
-9,
-6,
-7,
-6,
-5,
-6,
-6,
-6,
-6,
-6,
-7,
-5,
-5,
-3,
-7,
-6,
-6,
-6,
-4,
-6,
-7,
-8,
-8,
-6,
-7,
-4,
-7,
-6,
-6,
-5,
-4,
-4,
-5,
-5,
-8,
-5,
-6,
-4,
-7,
-5,
-7,
-5,
-4,
-7,
-3,
-7,
-8,
-5,
-6,
-4,
-7,
-5,
-7,
-7,
-4,
-8,
-4,
-9,
-6,
-6,
-6,
-5,
-7,
-5,
-6,
-6,
-7,
-6,
-6,
-8,
-8,
-7,
-7,
-4,
-6,
-5,
-6,
-5,
-5,
-6,
-8,
-8,
-7,
-6,
-3,
-4,
-6,
-5,
-8,
-6,
-7,
-6,
-6,
-8,
-4,
-8,
-6,
-4,
-5,
-4,
-7,
-5,
-7,
-4,
-5,
-8,
-5,
-6,
-3,
-5,
-6,
-4,
-4,
-5,
-6,
-5,
-6,
-6,
-6,
-6,
-6,
-6,
-4,
-6,
-6,
-7,
-8,
-4,
-7,
-7,
-7,
-6,
-4,
-7,
-5,
-7,
-6,
-6,
-8,
-6,
-6,
-6,
-8,
-7,
-6,
-6,
-4,
-7,
-7,
-5,
-6,
-6,
-7,
-4,
-7,
-7,
-6,
-6,
-6,
-6,
-6,
-7,
-4,
-6,
-8,
-6,
-7,
-5,
-6,
-6,
-5,
-4,
-6,
-5,
-6,
-6,
-4,
-7,
-6,
-6,
-7,
-5,
-5,
-5,
-6,
-5,
-4,
-6,
-5,
-5,
-7,
-6,
-6,
-6,
-8,
-6,
-6,
-7,
-6,
-6,
-5,
-5,
-7,
-7,
-6,
-7,
-8,
-8,
-7,
-6,
-6,
-5,
-6,
-3,
-6,
-6,
-8,
-5,
-6,
-7,
-7,
-7,
-7,
-7,
-6,
-6,
-6,
-4,
-8,
-7,
-6,
-8,
-8,
-6,
-7,
-8,
-7,
-4,
-6,
-4,
-8,
-6,
-6,
-6,
-7,
-7,
-5,
-8,
-6,
-5,
-7,
-5,
-8,
-4,
-7,
-5,
-6,
-6,
-6,
-8,
-7,
-8,
-5,
-5,
-8,
-6,
-8,
-7,
-8,
-8,
-8,
-8,
-6,
-8,
-8,
-8,
-7,
-6,
-8,
-6,
-9,
-7,
-8,
-7,
-7,
-6,
-8,
-8,
-6,
-6,
-6,
-6,
-8,
-7,
-9,
-7,
-7,
-7,
-8,
-8,
-8,
-6,
-7,
-7,
-10,
-9,
-8,
-7,
-7,
-7,
-8,
-8,
-7,
-9,
-8,
-8,
-10,
-8,
-9,
-7,
-10,
-9,
-10,
-9,
-7,
-9,
-8,
-10,
-7,
-7,
-10,
-9,
-11,
-10,
-11,
-8,
-8,
-7,
-8,
-7,
-8,
-8,
-9,
-8,
-9,
-10,
-7,
-8,
-8,
-8,
-7,
-10,
-7,
-9,
-9,
-10,
-10,
-10,
-8,
-10,
-10,
-10,
-10,
-8,
-8,
-10,
-10,
-11,
-10,
-10,
-11,
-9,
-12,
-10,
-10,
-9,
-10,
-7,
-11,
-9,
-9,
-10,
-9,
-10,
-10,
-11,
-10,
-10,
-9,
-8,
-10,
-10,
-10,
-10,
-10,
-12,
-11,
-11,
-11,
-11,
-11,
-10,
-11,
-10,
-11,
-11,
-11,
-11,
-10,
-11,
-11,
-9,
-12,
-11,
-10,
-11,
-10,
-13,
-12,
-14,
-11,
-12,
-11,
-11,
-11,
-11,
-12,
-11,
-13,
-12,
-14,
-12,
-11,
-13,
-13,
-12,
-12,
-13,
-14,
-10,
-14,
-14,
-13,
-12,
-12,
-14,
-11,
-12,
-13,
-12,
-12,
-14,
-12,
-14,
-12,
-14,
-14,
-13,
-12,
-14,
-14,
-15,
-15,
-13,
-15,
-13,
-14,
-13,
-13,
-15,
-14,
-14,
-16,
-15,
-14,
-15,
-14,
-14,
-15,
-12,
-15,
-13,
-14,
-15,
-14,
-15,
-15,
-15,
-15,
-16,
-16,
-14,
-16,
-14,
-16,
-15,
-16,
-17,
-16,
-16,
-18,
-18,
-15,
-15,
-15,
-16,
-16,
-15,
-14,
-17,
-16,
-18,
-16,
-16,
-17,
-14,
-16,
-16,
-15,
-17,
-14,
-15,
-17,
-17,
-17,
-16,
-17,
-18,
-18,
-16,
-18,
-15,
-19,
-16,
-18,
-17,
-19,
-16,
-18,
-16,
-16,
-18,
-16,
-18,
-16,
-18,
-16,
-16,
-18,
-18,
-19,
-18,
-19,
-17,
-19,
-18,
-17,
-18,
-16,
-19,
-16,
-18,
-20,
-18,
-19,
-17,
-19,
-18,
-18,
-18,
-19,
-18,
-18,
-19,
-19,
-18,
-19,
-18,
-18,
-18,
-20,
-19,
-16,
-18,
-18,
-18,
-18,
-18,
-18,
-18,
-20,
-20,
-18,
-21,
-18,
-19,
-17,
-20,
-20,
-18,
-20,
-17,
-20,
-19,
-19,
-21,
-19,
-19,
-18,
-20,
-17,
-17,
-20,
-18,
-19,
-18,
-19,
-19,
-20,
-21,
-17,
-20,
-18,
-19,
-18,
-17,
-19,
-17,
-20,
-20,
-18,
-22,
-16,
-21,
-19,
-17,
-20,
-18,
-19,
-18,
-20,
-20,
-20,
-20,
-20,
-19,
-19,
-18,
-21,
-19,
-19,
-17,
-18,
-17,
-19,
-18,
-18,
-18,
-22,
-19,
-18,
-18,
-18,
-19,
-18,
-20,
-19,
-21,
-19,
-21,
-19,
-20,
-18,
-18,
-19,
-19,
-19,
-21,
-19,
-20,
-18,
-20,
-19,
-21,
-19,
-20,
-19,
-18,
-20,
-18,
-18,
-18,
-19,
-19,
-20,
-19,
-19,
-18,
-19,
-16,
-20,
-18,
-18,
-19,
-19,
-20,
-17,
-20,
-17,
-18,
-20,
-17,
-19,
-18,
-18,
-21,
-18,
-18,
-18,
-20,
-18,
-20,
-18,
-18,
-19,
-18,
-19,
-18,
-19,
-18,
-19,
-18,
-19,
-17,
-18,
-16,
-18,
-18,
-19,
-20,
-18,
-18,
-17,
-18,
-18,
-16,
-16,
-17,
-18,
-17,
-16,
-18,
-16,
-18,
-17,
-18,
-19,
-17,
-18,
-16,
-17,
-14,
-18,
-19,
-19,
-18,
-18,
-18,
-18,
-18,
-18,
-16,
-17,
-14,
-17,
-17,
-16,
-18,
-18,
-16,
-18,
-16,
-18,
-16,
-15,
-16,
-16,
-18,
-14,
-16,
-17,
-16,
-17,
-18,
-16,
-17,
-17,
-18,
-17,
-16,
-15,
-16,
-18,
-16,
-16,
-17,
-16,
-15,
-16,
-15,
-14,
-16,
-15,
-16,
-16,
-16,
-16,
-14,
-17,
-15,
-17,
-18,
-14,
-16,
-14,
-16,
-16,
-15,
-14,
-14,
-15,
-14,
-16,
-15,
-16,
-14,
-16,
-15,
-14,
-15,
-16,
-13,
-16,
-14,
-15,
-14,
-14,
-14,
-14,
-15,
-14,
-14,
-16,
-14,
-14,
-14,
-14,
-15,
-14,
-15,
-15,
-16,
-14,
-15,
-16,
-15,
-14,
-11,
-15,
-12,
-15,
-14,
-14,
-15,
-14,
-14,
-16,
-14,
-13,
-14,
-12,
-14,
-14,
-15,
-13,
-14,
-14,
-14,
-14,
-14,
-13,
-14,
-12,
-13,
-14,
-14,
-14,
-14,
-16,
-15,
-16,
-14,
-15,
-14,
-14,
-14,
-12,
-14,
-14,
-16,
-16,
-14,
-15,
-12,
-16,
-14,
-14,
-15,
-11,
-16,
-14,
-15,
-15,
-12,
-16,
-13,
-13,
-14,
-15,
-16,
-14,
-15,
-14,
-15,
-14,
-14,
-15,
-13,
-16,
-14,
-16,
-15,
-16,
-16,
-15,
-15,
-16,
-14,
-14,
-14,
-14,
-13,
-14,
-15,
-14,
-15,
-14,
-15,
-12,
-13,
-16,
-14,
-18,
-15,
-14,
-15,
-16,
-16,
-14,
-17,
-16,
-15,
-16,
-15,
-16,
-15,
-15,
-17,
-18,
-18,
-16,
-16,
-17,
-14,
-17,
-15,
-17,
-15,
-18,
-15,
-16,
-18,
-18,
-17,
-18,
-18,
-18,
-17,
-18,
-18,
-16,
-18,
-16,
-17,
-19,
-17,
-19,
-18,
-19,
-20,
-18,
-19,
-17,
-20,
-18,
-19,
-19,
-19,
-20,
-19,
-21,
-18,
-18,
-19,
-19,
-20,
-19,
-20,
-20,
-19,
-19,
-18,
-22,
-22,
-20,
-21,
-20,
-21,
-19,
-21,
-20,
-19,
-20,
-20,
-20,
-20,
-21,
-23,
-22,
-23,
-21,
-23,
-21,
-22,
-23,
-24,
-24,
-25,
-24,
-26,
-24,
-24,
-22,
-24,
-26,
-22,
-24,
-23,
-22,
-23,
-24,
-26,
-24,
-24,
-25,
-24,
-26,
-23,
-26,
-24,
-25,
-24,
-26,
-28,
-24,
-26,
-24,
-24,
-26,
-26,
-25,
-27,
-27,
-28,
-27,
-29,
-27,
-27,
-28,
-28,
-28,
-27,
-27,
-28,
-28,
-30,
-30,
-30,
-28,
-29,
-30,
-28,
-30,
-28,
-29,
-29,
-29,
-30,
-31,
-30,
-31,
-30,
-30,
-30,
-28,
-32,
-29,
-33,
-31,
-31,
-33,
-32,
-31,
-34,
-32,
-32,
-33,
-34,
-30,
-32,
-33,
-33,
-34,
-34,
-33,
-34,
-32,
-33,
-32,
-35,
-34,
-33,
-35,
-35,
-35,
-34,
-35,
-34,
-34,
-36,
-32,
-36,
-34,
-33,
-36,
-36,
-36,
-34,
-37,
-36,
-35,
-35,
-32,
-36,
-36,
-37,
-36,
-37,
-36,
-36,
-36,
-38,
-38,
-38,
-38,
-37,
-38,
-39,
-36,
-40,
-38,
-40,
-39,
-38,
-40,
-40,
-39,
-38,
-39,
-38,
-38,
-39,
-39,
-40,
-38,
-39,
-41,
-40,
-40,
-41,
-37,
-40,
-39,
-39,
-38,
-40,
-40,
-39,
-41,
-41,
-40,
-41,
-38,
-41,
-40,
-43,
-40,
-42,
-43,
-40,
-42,
-42,
-39,
-40,
-40,
-42,
-40,
-39,
-41,
-38,
-40,
-42,
-40,
-42,
-40,
-42,
-42,
-42,
-40,
-41,
-39,
-41,
-40,
-41,
-40,
-41,
-42,
-41,
-43,
-41,
-40,
-42,
-39,
-40,
-39,
-40,
-40,
-40,
-40,
-38,
-42,
-40,
-40,
-41,
-40,
-43,
-41,
-42,
-40,
-41,
-43,
-42,
-42,
-42,
-40,
-42,
-41,
-42,
-42,
-41,
-42,
-40,
-40,
-42,
-40,
-43,
-40,
-42,
-43,
-42,
-42,
-40,
-40,
-40,
-40,
-42,
-42,
-40,
-43,
-40,
-42,
-43,
-40,
-41,
-41,
-43,
-40,
-40,
-40,
-40,
-42,
-42,
-40,
-42,
-42,
-43,
-40,
-42,
-40,
-38,
-40,
-40,
-40,
-40,
-41,
-41,
-43,
-39,
-40,
-42,
-39,
-41,
-38,
-40,
-38,
-41,
-38,
-42,
-39,
-39,
-39,
-42,
-40,
-40,
-39,
-40,
-39,
-40,
-40,
-39,
-40,
-39,
-39,
-41,
-38,
-39,
-38,
-37,
-38,
-38,
-38,
-38,
-38,
-38,
-40,
-38,
-38,
-38,
-36,
-36,
-36,
-37,
-35,
-38,
-36,
-36,
-37,
-38,
-38,
-37,
-35,
-37,
-36,
-36,
-35,
-37,
-36,
-35,
-37,
-37,
-35,
-38,
-34,
-36,
-35,
-34,
-35,
-34,
-34,
-34,
-35,
-34,
-34,
-35,
-34,
-34,
-35,
-33,
-32,
-34,
-32,
-32,
-34,
-32,
-32,
-34,
-32,
-32,
-31,
-32,
-30,
-32,
-29,
-32,
-32,
-32,
-32,
-30,
-30,
-31,
-30,
-31,
-30,
-32,
-30,
-30,
-32,
-30,
-30,
-31,
-30,
-30,
-28,
-29,
-29,
-28,
-27,
-27,
-27,
-28,
-28,
-29,
-30,
-26,
-28,
-29,
-28,
-27,
-27,
-27,
-26,
-28,
-27,
-26,
-27,
-27,
-28,
-26,
-23,
-24,
-25,
-24,
-25,
-24,
-26,
-25,
-25,
-24,
-22,
-24,
-23,
-23,
-24,
-25,
-23,
-23,
-22,
-23,
-22,
-24,
-23,
-23,
-22,
-21,
-22,
-22,
-21,
-23,
-20,
-22,
-23,
-22,
-22,
-21,
-22,
-22,
-21,
-22,
-19,
-21,
-20,
-21,
-22,
-20,
-20,
-20,
-18,
-20,
-19,
-22,
-20,
-20,
-21,
-19,
-19,
-18,
-19,
-20,
-20,
-19,
-18,
-19,
-16,
-15,
-18,
-16,
-16,
-18,
-17,
-18,
-19,
-18,
-18,
-16,
-16,
-14,
-16,
-17,
-16,
-16,
-16,
-14,
-16,
-14,
-14,
-15,
-16,
-14,
-16,
-16,
-16,
-14,
-16,
-14,
-14,
-14,
-13,
-14,
-15,
-15,
-12,
-11,
-14,
-11,
-14,
-13,
-14,
-15,
-13,
-13,
-13,
-12,
-12,
-12,
-11,
-11,
-11,
-14,
-12,
-13,
-12,
-11,
-11,
-13,
-10,
-10,
-10,
-10,
-12,
-11,
-11,
-11,
-12,
-10,
-10,
-11,
-10,
-10,
-11,
-10,
-12,
-10,
-11,
-10,
-11,
-10,
-9,
-11,
-10,
-12,
-9,
-9,
-11,
-10,
-10,
-9,
-10,
-11,
-10,
-10,
-10,
-10,
-9,
-10,
-8,
-9,
-8,
-10,
-10,
-10,
-10,
-9,
-7,
-9,
-8,
-8,
-7,
-9,
-8,
-8,
-10,
-9,
-9,
-6,
-8,
-9,
-8,
-9,
-7,
-7,
-6,
-6,
-8,
-6,
-8,
-7,
-7,
-7,
-8,
-6,
-8,
-6,
-8,
-6,
-6,
-6,
-8,
-6,
-7,
-8,
-7,
-6,
-6,
-5,
-3,
-4,
-4,
-7,
-4,
-6,
-6,
-7,
-7,
-5,
-6,
-6,
-4,
-4,
-6,
-7,
-5,
-6,
-4,
-4,
-7,
-6,
-6,
-8,
-6,
-7,
-5,
-6,
-3,
-4,
-6,
-6,
-5,
-6,
-5,
-5,
-6,
-4,
-7,
-6,
-4,
-4,
-5,
-4,
-6,
-6,
-7,
-4,
-7,
-4,
-6,
-5,
-4,
-4,
-3,
-6,
-6,
-3,
-6,
-4,
-4,
-4,
-6,
-4,
-5,
-4,
-5,
-3,
-4,
-2,
-5,
-2,
-4,
-7,
-4,
-4,
-4,
-6,
-3,
-2,
-6,
-3,
-3,
-6,
-4,
-5,
-6,
-7,
-6,
-6,
-2,
-4,
-3,
-5,
-4,
-5,
-4,
-3,
-7,
-3,
-3,
-4,
-6,
-2,
-3,
-4,
-6,
-3,
-5,
-2,
-7,
-6,
-6,
-5,
-4,
-2,
-4,
-2,
-5,
-2,
-4,
-4,
-6,
-3,
-4,
-5,
-4,
-3,
-4,
-2,
-4,
-4,
-4,
-2,
-4,
-4,
-4,
-3,
-4,
-4,
-4,
-4,
-2,
-5,
-3,
-4,
-5,
-4,
-6,
-3,
-5,
-3,
-3,
-6,
-3,
-3,
-5,
-5,
-3,
-5,
-4,
-4,
-4,
-6,
-3,
-4,
-3,
-3,
-6,
-4,
-5,
-3,
-4,
-6,
-4,
-5,
-4,
-4,
-4,
-3,
-5,
-4,
-4,
-4,
-4,
-5,
-6,
-5,
-4,
-2,
-4,
-3,
-4,
-4,
-3,
-3,
-6,
-4,
-6,
-6,
-4,
-6,
-2,
-5,
-4,
-4,
-5,
-3,
-6,
-4,
-4,
-6,
-6,
-4,
-4,
-4,
-4,
-3,
-4,
-4,
-5,
-7,
-5,
-6,
-6,
-4,
-4,
-4,
-3,
-3,
-5,
-4,
-5,
-7,
-7,
-4,
-4,
-4,
-6,
-4,
-3,
-5,
-4,
-4,
-4,
-3,
-6,
-6,
-4,
-6,
-3,
-5,
-7,
-6,
-6,
-6,
-6,
-6,
-4,
-7,
-4,
-6,
-6,
-6,
-7,
-6,
-7,
-6,
-5,
-5,
-6,
-6,
-5,
-4,
-6,
-6,
-4,
-7,
-4,
-6,
-6,
-6,
-5,
-3,
-5,
-4,
-4,
-5,
-7,
-5,
-7,
-4,
-6,
-4,
-5,
-6,
-4,
-5,
-3,
-5,
-4,
-4,
-6,
-5,
-6,
-6,
-3,
-3,
-4,
-4,
-6,
-6,
-6,
-4,
-5,
-6,
-4,
-4,
-5,
-6,
-5,
-6,
-7,
-4,
-7,
-8,
-6,
-7,
-6,
-6,
-6,
-6,
-5,
-6,
-8,
-6,
-8,
-6,
-8,
-5,
-7,
-7,
-6,
-7,
-6,
-4,
-6,
-4,
-8,
-6,
-7,
-5,
-6,
-6,
-8,
-5,
-6,
-5,
-6,
-6,
-6,
-8,
-6,
-7,
-8,
-6,
-5,
-6,
-8,
-7,
-6,
-7,
-6,
-7,
-7,
-7,
-6,
-6,
-4,
-7,
-5,
-7,
-8,
-8,
-10,
-6,
-7,
-7,
-8,
-8,
-6,
-6,
-8,
-6,
-8,
-6,
-7,
-8,
-6,
-7,
-6,
-6,
-6,
-6,
-7,
-4,
-6,
-8,
-8,
-7,
-8,
-8,
-7,
-8,
-6,
-8,
-7,
-10,
-8,
-6,
-11,
-6,
-8,
-8,
-8,
-6,
-9,
-9,
-9,
-6,
-8,
-6,
-8,
-6,
-7,
-9,
-5,
-8,
-6,
-6,
-8,
-7,
-9,
-8,
-8,
-9,
-8,
-9,
-6,
-9,
-9,
-8,
-10,
-10,
-8,
-9,
-10,
-7,
-10,
-7,
-8,
-8,
-9,
-9,
-9,
-8,
-10,
-6,
-8,
-8,
-8,
-11,
-8,
-8,
-8,
-8,
-8,
-9,
-7,
-8,
-9,
-10,
-8,
-10,
-10,
-8,
-9,
-8,
-6,
-8,
-9,
-9,
-11,
-8,
-10,
-10,
-8,
-9,
-7,
-10,
-9,
-8,
-11,
-7,
-10,
-9,
-10,
-9,
-8,
-10,
-8,
-9,
-10,
-7,
-8,
-9,
-9,
-11,
-8,
-8,
-11,
-10,
-10,
-9,
-7,
-9,
-10,
-8,
-9,
-10,
-11,
-10,
-11,
-11,
-7,
-11,
-9,
-10,
-10,
-10,
-10,
-8,
-11,
-10,
-9,
-12,
-10,
-9,
-10,
-8,
-10,
-9,
-10,
-10,
-12,
-10,
-11,
-10,
-10,
-9,
-11,
-8,
-10,
-9,
-11,
-10,
-11,
-10,
-12,
-8,
-8,
-10,
-10,
-11,
-11,
-9,
-11,
-10,
-12,
-10,
-9,
-10,
-10,
-11,
-10,
-10,
-12,
-8,
-11,
-9,
-11,
-12,
-9,
-12,
-12,
-10,
-10,
-11,
-11,
-10,
-10,
-12,
-10,
-10,
-11,
-13,
-12,
-10,
-12,
-11,
-11,
-11,
-11,
-10,
-12,
-11,
-12,
-12,
-11,
-13,
-11,
-11,
-13,
-11,
-14,
-11,
-13,
-11,
-12,
-13,
-10,
-12,
-11,
-10,
-11,
-11,
-12,
-12,
-12,
-12,
-11,
-12,
-13,
-11,
-12,
-10,
-12,
-12,
-12,
-12,
-13,
-11,
-12,
-12,
-14,
-10,
-12,
-12,
-12,
-12,
-12,
-10,
-14,
-12,
-12,
-13,
-10,
-14,
-12,
-12,
-13,
-12,
-11,
-8,
-12,
-12,
-11,
-14,
-13,
-11,
-13,
-12,
-11,
-11,
-12,
-12,
-12,
-12,
-12,
-10,
-13,
-12,
-14,
-14,
-12,
-12,
-11,
-12,
-13,
-12,
-12,
-12,
-11,
-12,
-12,
-14,
-12,
-13,
-12,
-13,
-14,
-13,
-12,
-11,
-14,
-14,
-12,
-13,
-11,
-13,
-14,
-14,
-12,
-12,
-14,
-13,
-12,
-12,
-14,
-13,
-12,
-14,
-11,
-12,
-12,
-12,
-14,
-12,
-13,
-11,
-14,
-14,
-13,
-14,
-13,
-14,
-12,
-14,
-12,
-13,
-14,
-13,
-14,
-15,
-14,
-13,
-15,
-14,
-15,
-15,
-11,
-15,
-14,
-13,
-15,
-14,
-14,
-13,
-13,
-14,
-14,
-15,
-11,
-14,
-14,
-12,
-14,
-13,
-13,
-14,
-13,
-16,
-14,
-15,
-12,
-14,
-13,
-12,
-15,
-16,
-13,
-14,
-14,
-14,
-15,
-15,
-12,
-13,
-14,
-14,
-17,
-14,
-18,
-12,
-15,
-15,
-14,
-16,
-14,
-13,
-14,
-14,
-15,
-14,
-14,
-13,
-16,
-14,
-16,
-15,
-16,
-12,
-13,
-14,
-14,
-13,
-14,
-14,
-16,
-16,
-16,
-14,
-15,
-14,
-14,
-14,
-14,
-14,
-15,
-14,
-16,
-14,
-15,
-14,
-15,
-16,
-14,
-14,
-13,
-14,
-15,
-14,
-15,
-14,
-15,
-15,
-16,
-15,
-17,
-14,
-16,
-15,
-15,
-14,
-12,
-14,
-14,
-15,
-16,
-14,
-14,
-14,
-16,
-16,
-13,
-16,
-14,
-14,
-14,
-15,
-16,
-15,
-14,
-17,
-14,
-16,
-16,
-14,
-16,
-14,
-15,
-14,
-18,
-16,
-16,
-15,
-18,
-16,
-16,
-16,
-16,
-18,
-16,
-16,
-16,
-15,
-17,
-15,
-18,
-15,
-15,
-16,
-16,
-15,
-16,
-14,
-16,
-14,
-16,
-18,
-16,
-18,
-16,
-16,
-15,
-14,
-16,
-15,
-16,
-14,
-16,
-16,
-18,
-15,
-18,
-17,
-14,
-15,
-16,
-15,
-16,
-14,
-16,
-14,
-16,
-14,
-15,
-17,
-16,
-15,
-15,
-15,
-15,
-14,
-16,
-17,
-14,
-18,
-18,
-18,
-15,
-14,
-15,
-15,
-16,
-17,
-15,
-17,
-16,
-16,
-16,
-16,
-15,
-18,
-16,
-17,
-15,
-15,
-17,
-16,
-16,
-17,
-17,
-17,
-17,
-19,
-16,
-18,
-16,
-15,
-16,
-18,
-16,
-17,
-17,
-16,
-19,
-17,
-18,
-16,
-18,
-19,
-18,
-16,
-18,
-17,
-17,
-15,
-16,
-16,
-16,
-16,
-19,
-14,
-18,
-16,
-17,
-18,
-15,
-16,
-18,
-17,
-17,
-15,
-17,
-16,
-16,
-17,
-16,
-18,
-19,
-18,
-19,
-17,
-16,
-16,
-15,
-17,
-19,
-18,
-17,
-16,
-18,
-16,
-18,
-18,
-15,
-18,
-19,
-16,
-15,
-17,
-17,
-17,
-16,
-17,
-17,
-17,
-16,
-16,
-18,
-18,
-17,
-18,
-16,
-18,
-17,
-18,
-17,
-17,
-16,
-16,
-18,
-19,
-18,
-17,
-20,
-18,
-18,
-18,
-18,
-20,
-16,
-17,
-18,
-16,
-19,
-15,
-19,
-18,
-19,
-17,
-18,
-18,
-19,
-18,
-17,
-18,
-16,
-18,
-19,
-18,
-18,
-16,
-18,
-16,
-19,
-17,
-16,
-19,
-17,
-18,
-18,
-19,
-18,
-16,
-18,
-17,
-19,
-19,
-18,
-16,
-19,
-16,
-18,
-19,
-17,
-18,
-19,
-18,
-19,
-17,
-18,
-18,
-18,
-19,
-19,
-20,
-20,
-18,
-19,
-20,
-18,
-20,
-17,
-17,
-18,
-17,
-19,
-18,
-17,
-18,
-19,
-20,
-18,
-18,
-21,
-17,
-16,
