A246/data/osci_data/ALL0002/A0002CH2.CSV

Memory Length,500,
Trigger Level,-4.000E-02,
Source,CH2,
Vertical Units,V,
Vertical Scale,5.000E-02,
Vertical Position,-1.580E-01,
Horizontal Units,s,
Horizontal Scale,1.000E-04,
Horizontal Position,-1.000E-03,
Horizontal Mode,Main,
Sampling Period,4.000E-06,
Firmware,V1.09,
Time,06-May-21 13:26,
Waveform Data,
32,
39,
52,
64,
79,
94,
107,
109,
106,
96,
87,
79,
71,
66,
59,
52,
51,
45,
41,
36,
37,
32,
30,
30,
30,
30,
32,
37,
47,
60,
77,
90,
102,
108,
103,
97,
88,
80,
74,
67,
61,
55,
47,
45,
41,
38,
35,
31,
30,
30,
29,
29,
32,
36,
44,
59,
73,
90,
101,
111,
107,
99,
90,
81,
74,
69,
62,
57,
51,
47,
42,
39,
36,
34,
31,
28,
30,
33,
31,
38,
45,
58,
76,
90,
103,
106,
103,
97,
91,
83,
74,
66,
63,
56,
51,
47,
42,
38,
35,
31,
32,
28,
30,
28,
31,
36,
46,
59,
74,
91,
101,
108,
103,
96,
90,
80,
74,
67,
60,
55,
46,
44,
42,
36,
36,
31,
30,
31,
29,
31,
33,
38,
47,
61,
75,
93,
102,
107,
101,
97,
87,
81,
74,
66,
58,
54,
47,
45,
41,
36,
35,
31,
31,
31,
30,
30,
31,
41,
52,
63,
82,
92,
107,
106,
101,
94,
83,
79,
70,
62,
59,
51,
48,
44,
39,
35,
34,
31,
30,
31,
31,
32,
33,
43,
55,
71,
84,
101,
107,
104,
99,
89,
82,
76,
67,
61,
56,
51,
45,
41,
37,
34,
34,
31,
29,
30,
29,
31,
38,
46,
63,
78,
92,
103,
108,
102,
95,
87,
79,
73,
65,
59,
54,
47,
45,
41,
38,
35,
30,
30,
29,
29,
31,
33,
40,
52,
66,
84,
99,
106,
106,
98,
92,
81,
73,
68,
63,
55,
48,
47,
43,
39,
36,
32,
30,
31,
31,
30,
31,
37,
50,
59,
77,
88,
103,
109,
103,
98,
86,
79,
72,
64,
58,
53,
47,
45,
42,
35,
33,
34,
31,
29,
28,
31,
34,
43,
54,
69,
85,
98,
107,
103,
99,
91,
82,
74,
69,
61,
55,
51,
47,
43,
39,
36,
33,
30,
31,
28,
30,
35,
39,
50,
61,
78,
92,
103,
107,
99,
93,
84,
77,
70,
66,
61,
52,
46,
41,
39,
36,
33,
32,
29,
31,
29,
32,
36,
46,
60,
77,
92,
102,
106,
103,
94,
90,
79,
69,
67,
59,
53,
47,
44,
39,
38,
35,
30,
31,
31,
29,
32,
35,
43,
55,
70,
86,
98,
107,
103,
96,
87,
79,
73,
66,
59,
54,
48,
43,
39,
38,
34,
33,
31,
30,
31,
32,
32,
43,
52,
69,
83,
97,
105,
104,
99,
89,
83,
74,
67,
61,
55,
50,
46,
43,
38,
34,
31,
31,
31,
31,
31,
34,
42,
55,
72,
85,
99,
104,
105,
96,
87,
79,
73,
67,
59,
54,
48,
45,
39,
38,
35,
33,
31,
30,
30,
31,
34,
40,
54,
69,
83,
97,
106,
102,
94,
87,
80,
71,
67,
60,
54,
47,
45,
41,
37,
34,
33,
32,
30,
30,
31,
35,
43,
55,
71,
86,
99,
105,
104,
95,
88,
79,
71,
64,
59,
54,
47,
44,
40,
37,
34,
33,
30,
28,
29,
34,
36,
44,
56,
74,
87,
100,
103,
99,
94,
87,
77,
70,
63,
59,
52,
