A246/TeX/figs/measurements/ALL0004/A0004CH2.CSV

Memory Length,500,
Trigger Level,-4.000E-02,
Source,CH2,
Vertical Units,V,
Vertical Scale,5.000E-02,
Vertical Position,-1.580E-01,
Horizontal Units,s,
Horizontal Scale,1.000E-04,
Horizontal Position,-1.000E-03,
Horizontal Mode,Main,
Sampling Period,4.000E-06,
Firmware,V1.09,
Time,06-May-21 13:44,
Waveform Data,
39,
46,
60,
68,
75,
79,
77,
72,
67,
61,
55,
50,
44,
43,
38,
34,
32,
28,
27,
28,
28,
23,
23,
23,
26,
27,
36,
45,
58,
67,
76,
79,
77,
73,
67,
60,
54,
51,
50,
39,
37,
37,
34,
30,
31,
26,
25,
21,
23,
24,
25,
31,
34,
45,
56,
68,
75,
79,
78,
71,
65,
60,
56,
51,
44,
41,
38,
35,
34,
29,
30,
28,
23,
24,
25,
26,
25,
28,
35,
46,
56,
64,
75,
78,
78,
73,
66,
60,
53,
48,
45,
42,
39,
36,
32,
31,
29,
26,
23,
25,
22,
24,
26,
30,
33,
44,
55,
65,
76,
78,
76,
73,
64,
62,
55,
48,
47,
42,
39,
35,
32,
30,
28,
26,
26,
23,
23,
23,
27,
29,
37,
46,
59,
68,
75,
78,
76,
70,
64,
60,
54,
51,
44,
40,
37,
36,
32,
27,
27,
26,
26,
25,
24,
23,
24,
30,
37,
46,
59,
68,
75,
78,
77,
71,
64,
59,
55,
47,
44,
42,
39,
35,
31,
30,
27,
24,
24,
25,
28,
27,
27,
33,
42,
52,
65,
68,
78,
78,
73,
69,
61,
57,
52,
47,
42,
38,
37,
32,
31,
29,
26,
26,
26,
24,
24,
25,
27,
33,
43,
55,
67,
72,
78,
75,
71,
66,
59,
51,
51,
46,
42,
38,
35,
34,
29,
27,
26,
26,
24,
24,
23,
26,
30,
38,
48,
58,
70,
75,
78,
74,
67,
62,
57,
51,
47,
45,
39,
35,
34,
31,
30,
27,
27,
25,
23,
23,
26,
28,
35,
43,
55,
63,
74,
76,
76,
69,
64,
61,
56,
50,
45,
42,
39,
36,
31,
27,
30,
28,
25,
22,
22,
26,
27,
31,
42,
51,
63,
70,
76,
76,
70,
67,
62,
56,
50,
45,
39,
39,
37,
33,
29,
28,
28,
25,
24,
26,
24,
26,
29,
37,
47,
58,
70,
76,
76,
74,
66,
62,
58,
55,
49,
43,
39,
35,
34,
30,
29,
27,
23,
26,
23,
21,
24,
27,
33,
43,
57,
66,
72,
77,
74,
67,
65,
57,
53,
48,
43,
41,
38,
33,
31,
29,
27,
26,
24,
25,
23,
23,
27,
33,
44,
55,
64,
71,
75,
75,
70,
66,
59,
55,
49,
44,
41,
35,
35,
33,
29,
29,
26,
25,
23,
25,
25,
27,
33,
38,
52,
61,
72,
75,
74,
71,
65,
58,
56,
52,
46,
42,
37,
33,
33,
29,
28,
27,
24,
25,
22,
25,
28,
30,
39,
51,
63,
72,
75,
77,
70,
64,
59,
54,
52,
45,
42,
37,
32,
32,
31,
30,
25,
26,
23,
25,
23,
27,
32,
39,
50,
61,
70,
75,
76,
74,
66,
61,
56,
50,
45,
42,
38,
35,
31,
28,
28,
26,
22,
27,
24,
27,
28,
30,
38,
52,
63,
71,
75,
74,
71,
65,
60,
55,
49,
46,
44,
38,
35,
33,
30,
30,
26,
26,
24,
23,
25,
27,
31,
39,
51,
63,
69,
75,
71,
67,
66,
59,
52,
47,
44,
40,
37,
35,
