A246/data/osci_data/ALL0007/A0007CH2.CSV

Memory Length,25000,
Trigger Level,-4.000E-02,
Source,CH2,
Vertical Units,V,
Vertical Scale,5.000E-02,
Vertical Position,-8.800E-02,
Horizontal Units,s,
Horizontal Scale,1.000E-04,
Horizontal Position,1.024E-02,
Horizontal Mode,Main,
Sampling Period,8.000E-08,
Firmware,V1.09,
Time,06-May-21 15:14,
Waveform Data,
-25,
-26,
-26,
-27,
-26,
-27,
-28,
-28,
-26,
-26,
-24,
-27,
-27,
-26,
-25,
-24,
-26,
-25,
-27,
-26,
-28,
-27,
-24,
-26,
-26,
-27,
-25,
-26,
-26,
-25,
-28,
-26,
-26,
-27,
-24,
-25,
-24,
-25,
-27,
-27,
-27,
-26,
-24,
-27,
-26,
-28,
-28,
-27,
-27,
-27,
-28,
-28,
-28,
-25,
-26,
-28,
-28,
-28,
-28,
-28,
-28,
-28,
-26,
-27,
-27,
-27,
-28,
-29,
-24,
-28,
-25,
-27,
-25,
-28,
-29,
-28,
-28,
-29,
-25,
-29,
-27,
-28,
-28,
-28,
-27,
-29,
-27,
-30,
-28,
-28,
-27,
-29,
-28,
-26,
-27,
-25,
-29,
-28,
-29,
-27,
-28,
-28,
-26,
-27,
-28,
-28,
-28,
-27,
-28,
-27,
-28,
-28,
-28,
-28,
-26,
-29,
-28,
-31,
-28,
-29,
-30,
-29,
-28,
-28,
-25,
-27,
-29,
-29,
-28,
-28,
-30,
-27,
-29,
-28,
-30,
-28,
-29,
-28,
-30,
-28,
-30,
-29,
-28,
-30,
-27,
-28,
-29,
-26,
-28,
-30,
-28,
-28,
-28,
-28,
-28,
-30,
-28,
-28,
-28,
-31,
-28,
-29,
-29,
-27,
-26,
-29,
-29,
-28,
-28,
-26,
-29,
-27,
-28,
-26,
-27,
-28,
-28,
-28,
-30,
-30,
-29,
-26,
-30,
-28,
-29,
-28,
-25,
-31,
-27,
-28,
-29,
-29,
-29,
-28,
-28,
-28,
-26,
-30,
-29,
-28,
-28,
-26,
-26,
-26,
-28,
-27,
-26,
-28,
-28,
-24,
-26,
-28,
-28,
-28,
-27,
-29,
-25,
-27,
-25,
-26,
-27,
-27,
-28,
-26,
-25,
-28,
-25,
-27,
-24,
-26,
-27,
-25,
-26,
-25,
-28,
-26,
-26,
-27,
-27,
-26,
-26,
-27,
-24,
-26,
-24,
-24,
-26,
-26,
-25,
-24,
-24,
-24,
-28,
-23,
-26,
-24,
-25,
-23,
-24,
-24,
-25,
-23,
-24,
-24,
-24,
-25,
-23,
-24,
-23,
-22,
-22,
-22,
-22,
-24,
-22,
-23,
-22,
-21,
-20,
-21,
-20,
-22,
-23,
-21,
-21,
-20,
-20,
-20,
-22,
-18,
-20,
-20,
-19,
-20,
-18,
-21,
-17,
-18,
-17,
-20,
-18,
-17,
-17,
-16,
-17,
-17,
-16,
-16,
-18,
-14,
-16,
-13,
-15,
-15,
-15,
-15,
-13,
-15,
-12,
-14,
-11,
-11,
-13,
-14,
-11,
-13,
-8,
-12,
-9,
-11,
-11,
-9,
-7,
-8,
-8,
-9,
-7,
-6,
-4,
-5,
-4,
-6,
-3,
-5,
-3,
-5,
-2,
-6,
-3,
-4,
-1,
0,
-1,
0,
0,
1,
2,
2,
3,
2,
4,
2,
4,
1,
4,
5,
4,
3,
6,
4,
7,
7,
8,
7,
11,
8,
10,
11,
13,
11,
9,
9,
10,
13,
12,
13,
12,
12,
16,
14,
14,
13,
17,
17,
18,
17,
17,
16,
20,
16,
20,
20,
20,
22,
21,
20,
20,
19,
22,
22,
24,
23,
25,
24,
26,
24,
25,
24,
28,
26,
29,
24,
27,
25,
26,
27,
28,
28,
28,
26,
30,
27,
29,
29,
28,
31,
30,
30,
31,
31,
30,
29,
32,
29,
31,
31,
34,
33,
32,
31,
34,
32,
34,
35,
37,
36,
36,
35,
34,
36,
36,
36,
37,
37,
36,
39,
40,
37,
39,
36,
39,
37,
40,
37,
40,
36,
39,
39,
41,
37,
37,
39,
40,
40,
38,
39,
39,
39,
41,
38,
40,
40,
40,
39,
41,
39,
40,
40,
42,
40,
41,
41,
42,
40,
42,
40,
41,
39,
41,
41,
40,
40,
41,
40,
43,
40,
41,
40,
40,
41,
43,
40,
42,
38,
42,
43,
44,
43,
43,
42,
44,
40,
41,
40,
43,
43,
42,
40,
43,
42,
40,
40,
41,
41,
43,
42,
40,
41,
42,
40,
42,
41,
41,
39,
41,
40,
42,
39,
41,
42,
41,
39,
40,
39,
42,
39,
41,
38,
40,
38,
43,
40,
40,
37,
41,
37,
40,
39,
40,
38,
39,
39,
39,
39,
38,
39,
39,
36,
38,
38,
39,
38,
37,
38,
37,
40,
37,
37,
36,
36,
38,
36,
36,
35,
37,
34,
36,
33,
36,
35,
36,
36,
36,
35,
36,
35,
35,
35,
36,
33,
35,
35,
35,
33,
35,
32,
36,
33,
36,
34,
34,
33,
35,
33,
32,
31,
32,
32,
33,
34,
32,
30,
33,
31,
34,
31,
32,
30,
30,
29,
34,
28,
32,
29,
32,
31,
32,
28,
31,
30,
29,
28,
28,
30,
29,
28,
32,
28,
28,
28,
30,
27,
29,
27,
28,
26,
30,
26,
30,
25,
27,
27,
25,
26,
28,
28,
25,
25,
27,
24,
24,
25,
27,
23,
26,
24,
24,
24,
28,
24,
24,
22,
24,
20,
24,
24,
24,
23,
24,
23,
24,
22,
23,
21,
23,
22,
22,
20,
24,
21,
23,
24,
22,
20,
21,
22,
24,
22,
24,
19,
20,
19,
20,
19,
19,
18,
20,
20,
20,
20,
20,
17,
18,
19,
17,
19,
16,
18,
20,
18,
18,
16,
17,
15,
17,
16,
16,
14,
16,
16,
17,
15,
17,
16,
16,
16,
15,
15,
16,
15,
16,
13,
14,
13,
14,
12,
13,
12,
16,
12,
14,
12,
12,
15,
11,
14,
14,
11,
12,
12,
11,
10,
12,
12,
10,
12,
11,
11,
11,
8,
11,
11,
12,
9,
9,
9,
9,
7,
12,
8,
12,
10,
8,
8,
9,
8,
9,
7,
8,
7,
9,
7,
7,
8,
8,
7,
9,
5,
8,
7,
6,
6,
7,
5,
7,
7,
8,
3,
4,
7,
4,
6,
6,
3,
6,
4,
7,
6,
4,
7,
5,
4,
4,
4,
4,
4,
4,
4,
7,
3,
5,
2,
3,
4,
3,
3,
3,
4,
4,
3,
0,
1,
2,
2,
3,
0,
2,
0,
1,
2,
1,
-1,
2,
0,
2,
2,
1,
-1,
0,
0,
1,
-1,
0,
0,
0,
-2,
0,
-1,
1,
-1,
-3,
-2,
0,
-2,
-2,
-1,
-1,
-1,
0,
-2,
-1,
-3,
-3,
-4,
-4,
-2,
-3,
-1,
-1,
-4,
-4,
-2,
-3,
-3,
-2,
-4,
-4,
-4,
-3,
-5,
-4,
-4,
-4,
-5,
-3,
-4,
-3,
-5,
-4,
-5,
-6,
-4,
-5,
-4,
-7,
-7,
-4,
-5,
-6,
-4,
-6,
-6,
-6,
-5,
-6,
-4,
-6,
-8,
-7,
-5,
-4,
-7,
-8,
-8,
-4,
-9,
-6,
-4,
-7,
-8,
-6,
-9,
-9,
-8,
-6,
-7,
-8,
-9,
-9,
-9,
-8,
-9,
-9,
-9,
-9,
-9,
-8,
-10,
-11,
-11,
-8,
-11,
-8,
-8,
-10,
-10,
-10,
-9,
-10,
-12,
-11,
-9,
-8,
-13,
-10,
-10,
-9,
-12,
-9,
-12,
-9,
-13,
-10,
-13,
-12,
-12,
-10,
-10,
-11,
-12,
-13,
-9,
-12,
-14,
-12,
-12,
-14,
-11,
-13,
-12,
-13,
-12,
-12,
-13,
-12,
-14,
-12,
-13,
-11,
-13,
-13,
-16,
-13,
-15,
-14,
-13,
-14,
-16,
-14,
-12,
-15,
-13,
-15,
-16,
-15,
-16,
-18,
-14,
-13,
-15,
-16,
-15,
-15,
-15,
-13,
-16,
-13,
-16,
-17,
-16,
-15,
-15,
-16,
-16,
-16,
-16,
-15,
-17,
-16,
-16,
-17,
-17,
-15,
-16,
-16,
-19,
-16,
-19,
-16,
-17,
-16,
-17,
-15,
-16,
-18,
-14,
-18,
-17,
-16,
-16,
-19,
-16,
-17,
-20,
-18,
-16,
-18,
-20,
-17,
-19,
-20,
-17,
-19,
-20,
-16,
-17,
-16,
-20,
-17,
-17,
-18,
-17,
-20,
-20,
-18,
-20,
-17,
-17,
-19,
-19,
-19,
-19,
-18,
-20,
-20,
-22,
-19,
-20,
-18,
-21,
-19,
-21,
-18,
-20,
-21,
-20,
-20,
-20,
-20,
-22,
-22,
-20,
-21,
-21,
-22,
-21,
-20,
-20,
-21,
-20,
-20,
-21,
-20,
-22,
-20,
-21,
-22,
-21,
-20,
-22,
-21,
-21,
-20,
-24,
-23,
-22,
-22,
-24,
-22,
-20,
-21,
-24,
-22,
-22,
-20,
-23,
-20,
-22,
-22,
-23,
-21,
-24,
-23,
-24,
-23,
-24,
-21,
-24,
-22,
-20,
-22,
-23,
-22,
-21,
-24,
-24,
-23,
-24,
-23,
-23,
-24,
-24,
-24,
-25,
-25,
-25,
-23,
-23,
-22,
-23,
-23,
-23,
-23,
-24,
-24,
-22,
-23,
-24,
-27,
-25,
-25,
-23,
-24,
-24,
-23,
-23,
-24,
-24,
-25,
-25,
-24,
-26,
-23,
-24,
-23,
-25,
-23,
-24,
-23,
-25,
-24,
-24,
-24,
-25,
-24,
-23,
-26,
-25,
-26,
-24,
-25,
-25,
-22,
-25,
-24,
-27,
-25,
-25,
-26,
-27,
-25,
-25,
-25,
-24,
-26,
-24,
-25,
-24,
-26,
-24,
-27,
-25,
-26,
-25,
-26,
-26,
-25,
-24,
-27,
-27,
-24,
-26,
-25,
-27,
-28,
-28,
-25,
-24,
-27,
-28,
-28,
-28,
-28,
-25,
-28,
-25,
-25,
-27,
-27,
-27,
-28,
-26,
-28,
-27,
-28,
-26,
-26,
-26,
-25,
-26,
-28,
-28,
-26,
-28,
-27,
-28,
-28,
-25,
-28,
-27,
-28,
-27,
-27,
-27,
-25,
-26,
-26,
-28,
-29,
-29,
-27,
-29,
-25,
-25,
-26,
-28,
-27,
-28,
-27,
-28,
-28,
-27,
-28,
-27,
-29,
-28,
-30,
-29,
-29,
-29,
-28,
-28,
-28,
-29,
-26,
-27,
-25,
-25,
-29,
-28,
-27,
-26,
-26,
-29,
-28,
-29,
-28,
-27,
-26,
-27,
-30,
-28,
-31,
-28,
-26,
-27,
-26,
-28,
-28,
-29,
-28,
-27,
-28,
-28,
-27,
-28,
-28,
-31,
-27,
-29,
-28,
-28,
-29,
-27,
-29,
-27,
-28,
-28,
-28,
-30,
-29,
-29,
-28,
-30,
-29,
-30,
-28,
-29,
-28,
-30,
-27,
-27,
-29,
-31,
-32,
-29,
-29,
-28,
-28,
-29,
-28,
-27,
-28,
-29,
-28,
-30,
-27,
-32,
-27,
-29,
-25,
-28,
-28,
-27,
-28,
-28,
-25,
-29,
-29,
-28,
-28,
-28,
-29,
-28,
-29,
-30,
-30,
-28,
-28,
-26,
-27,
-28,
-27,
-28,
-26,
-28,
-30,
-30,
-27,
-30,
-25,
-30,
-28,
-25,
-27,
-26,
-27,
-27,
-29,
-28,
-25,
-28,
-28,
-27,
-28,
-28,
-27,
-29,
-27,
-28,
-27,
-29,
-24,
-26,
-27,
-30,
-25,
-29,
-28,
-26,
-27,
-25,
-25,
-27,
-28,
-27,
-27,
-27,
-28,
-27,
-25,
-29,
-27,
-26,
-27,
-26,
-24,
-27,
-25,
-26,
-25,
-25,
-23,
-25,
-24,
-25,
-24,
-26,
-25,
-24,
-25,
-23,
-24,
-25,
-23,
-24,
-23,
-22,
-22,
-25,
-24,
-23,
-22,
-24,
-22,
-22,
-21,
-24,
-23,
-23,
-21,
-21,
-23,
-22,
-20,
-22,
-20,
-21,
-20,
-19,
-22,
-20,
-21,
-18,
-19,
-20,
-19,
-21,
-20,
-20,
-20,
-20,
-19,
-19,
-18,
-19,
-17,
-18,
-16,
-17,
-17,
-16,
-16,
-17,
-18,
-18,
-16,
-13,
-15,
-16,
-13,
-15,
-13,
-13,
-11,
-12,
-12,
-12,
-12,
-11,
-10,
-12,
-9,
-11,
-10,
-9,
-8,
-8,
-7,
-6,
-6,
-8,
-7,
-5,
-5,
-6,
-5,
-5,
-4,
-4,
-5,
-3,
-2,
-2,
-4,
-4,
-2,
-1,
1,
-1,
0,
-1,
2,
2,
2,
1,
2,
3,
4,
5,
6,
3,
4,
4,
5,
6,
6,
7,
9,
10,
8,
10,
10,
8,
12,
10,
12,
12,
12,
11,
12,
13,
16,
12,
16,
16,
15,
16,
15,
15,
16,
14,
20,
17,
20,
17,
23,
19,
23,
20,
23,
20,
23,
20,
23,
22,
24,
24,
25,
24,
25,
24,
24,
25,
26,
25,
25,
25,
28,
27,
29,
27,
28,
28,
27,
27,
30,
30,
28,
30,
28,
29,
32,
30,
32,
31,
32,
30,
33,
32,
32,
34,
33,
34,
35,
34,
35,
35,
36,
34,
36,
36,
36,
34,
36,
37,
37,
37,
37,
35,
36,
37,
36,
39,
40,
38,
38,
39,
39,
37,
40,
37,
40,
37,
36,
37,
40,
39,
40,
39,
40,
38,
41,
39,
39,
41,
40,
39,
41,
40,
42,
39,
40,
42,
42,
40,
43,
41,
40,
41,
43,
41,
41,
39,
43,
40,
43,
42,
42,
39,
43,
42,
41,
43,
42,
43,
43,
42,
42,
40,
40,
41,
43,
40,
44,
42,
44,
40,
44,
40,
44,
41,
42,
42,
41,
42,
42,
41,
42,
43,
43,
40,
41,
42,
42,
41,
42,
40,
42,
40,
43,
41,
43,
42,
42,
41,
41,
42,
42,
39,
41,
43,
41,
42,
41,
42,
40,
39,
44,
39,
40,
38,
41,
41,
42,
38,
40,
37,
41,
39,
41,
38,
39,
40,
39,
41,
40,
39,
40,
39,
39,
39,
40,
35,
38,
37,
40,
38,
38,
36,
39,
36,
39,
36,
39,
37,
39,
36,
36,
39,
38,
36,
36,
35,
36,
35,
36,
36,
36,
36,
36,
34,
35,
32,
36,
31,
36,
34,
35,
32,
33,
34,
33,
33,
32,
33,
34,
32,
33,
31,
32,
30,
32,
32,
34,
32,
33,
32,
32,
31,
32,
30,
31,
29,
34,
30,
31,
30,
32,
30,
31,
31,
29,
28,
30,
32,
32,
28,
29,
28,
30,
27,
29,
28,
28,
26,
28,
27,
28,
28,
29,
28,
31,
26,
28,
26,
27,
26,
27,
25,
24,
25,
24,
26,
25,
23,
24,
24,
25,
25,
27,
26,
26,
24,
26,
23,
25,
23,
24,
23,
24,
23,
23,
23,
24,
24,
24,
23,
21,
20,
20,
20,
23,
22,
23,
21,
20,
21,
23,
20,
20,
20,
19,
19,
21,
20,
19,
19,
20,
18,
20,
17,
20,
19,
20,
19,
20,
19,
17,
17,
20,
16,
18,
15,
16,
16,
17,
15,
18,
16,
17,
15,
15,
15,
16,
15,
16,
16,
16,
15,
13,
15,
16,
14,
15,
14,
15,
12,
15,
12,
14,
12,
12,
12,
13,
12,
15,
14,
12,
11,
14,
12,
11,
13,
10,
11,
11,
12,
11,
11,
10,
8,
10,
11,
10,
8,
10,
8,
12,
8,
9,
9,
8,
8,
9,
8,
8,
8,
10,
6,
8,
8,
8,
7,
8,
10,
8,
7,
8,
6,
8,
6,
8,
6,
8,
3,
8,
6,
8,
3,
7,
6,
6,
6,
6,
5,
7,
6,
3,
4,
6,
5,
4,
3,
5,
4,
4,
3,
3,
1,
4,
5,
6,
2,
2,
1,
3,
2,
4,
2,
0,
-1,
3,
0,
1,
1,
1,
3,
2,
0,
4,
0,
0,
0,
1,
-2,
0,
0,
1,
0,
1,
-1,
2,
1,
1,
0,
0,
2,
-1,
0,
0,
-1,
0,
-1,
-3,
-3,
0,
-3,
-3,
-1,
-2,
-3,
-2,
-3,
-2,
0,
-3,
-2,
-3,
-6,
-1,
-3,
-1,
-4,
-2,
-6,
-3,
-4,
-4,
-6,
-1,
-4,
-4,
-5,
-3,
-5,
-4,
-4,
-5,
-4,
-4,
-6,
-5,
-4,
-6,
-8,
-6,
-5,
-7,
-6,
-4,
-8,
-6,
-4,
-4,
-6,
-8,
-8,
-7,
-6,
-7,
-6,
-6,
-8,
-8,
-8,
-7,
-8,
-8,
-9,
-5,
-8,
-8,
-10,
-9,
-10,
-7,
-9,
-10,
-8,
-10,
-8,
-9,
-8,
-10,
-9,
-7,
-8,
-8,
-9,
-7,
-11,
-9,
-8,
-9,
-10,
-8,
-9,
-12,
-8,
-11,
-12,
-12,
-11,
-9,
-11,
-9,
-13,
-12,
-11,
-12,
-11,
-10,
-13,
-9,
-13,
-11,
-10,
-12,
-14,
-9,
-12,
-13,
-12,
-12,
-15,
-13,
-11,
-12,
-12,
-13,
-13,
-12,
-11,
-13,
-12,
-14,
-13,
-14,
-16,
-14,
-15,
-13,
-14,
-12,
-13,
-13,
-14,
-14,
-16,
-13,
-12,
-14,
-14,
-14,
-13,
-14,
-15,
-14,
-16,
-14,
-16,
-16,
-13,
-14,
-15,
-14,
-16,
-13,
-16,
-15,
-14,
-13,
-13,
-16,
-16,
-16,
-16,
-13,
-16,
-16,
-16,
-16,
-17,
-17,
-17,
-16,
-17,
-17,
-17,
-18,
-17,
-16,
-19,
-16,
-19,
-15,
-19,
-18,
-20,
-16,
-20,
-16,
-17,
-16,
-20,
-15,
-18,
-18,
-18,
-19,
-19,
-17,
-18,
-18,
-19,
-20,
-18,
-17,
-19,
-20,
-20,
-16,
-21,
-17,
-20,
-20,
-20,
-17,
-18,
-19,
-16,
-18,
-19,
-19,
-20,
-19,
-21,
-19,
-19,
-20,
-20,
-17,
-19,
-20,
-22,
-19,
-22,
-19,
-21,
-20,
-21,
-21,
-21,
-18,
-18,
-22,
-21,
-19,
-21,
-22,
-19,
-22,
-20,
-20,
-20,
-22,
-21,
-21,
-21,
-21,
-22,
-20,
-20,
-19,
-23,
-20,
-22,
-23,
-24,
-22,
-22,
-20,
-24,
-22,
-21,
-22,
-23,
-23,
-21,
-20,
-22,
-23,
-23,
-22,
-23,
-20,
-24,
-20,
-25,
-20,
-24,
-24,
-22,
-22,
-21,
-22,
-24,
-23,
-24,
-24,
-22,
-23,
-21,
-24,
-24,
-25,
-25,
-23,
-24,
-23,
-23,
-23,
-24,
-22,
-23,
-24,
-24,
-23,
-23,
-23,
-23,
-22,
-24,
-24,
-24,
-24,
-24,
-24,
-24,
-22,
-24,
-23,
-24,
-22,
-24,
-23,
-25,
-24,
-25,
-23,
-24,
-24,
-26,
-25,
-24,
-23,
-28,
-24,
-25,
-24,
-25,
-25,
-25,
-23,
-24,
-26,
-24,
-24,
-26,
-24,
-26,
-26,
-26,
-23,
-27,
-25,
-27,
-25,
-25,
-26,
-25,
-24,
-25,
-25,
-25,
-25,
-27,
-28,
-26,
-25,
-27,
-25,
-25,
-28,
-28,
-27,
-28,
-24,
-25,
-25,
-27,
-27,
-29,
-26,
-26,
-25,
-27,
-28,
-28,
-26,
-25,
-27,
-28,
-26,
-28,
-28,
-27,
-28,
-28,
-28,
-29,
-27,
-28,
-28,
-27,
-28,
-29,
-25,
-27,
-27,
-28,
-28,
-28,
-27,
-28,
-29,
-25,
-24,
-29,
-28,
-25,
-26,
-28,
-25,
-28,
-28,
-27,
-27,
-28,
-26,
-27,
-28,
-28,
-27,
-28,
-28,
-29,
-29,
-29,
-28,
-29,
-28,
-28,
-26,
-26,
-28,
-28,
-28,
-28,
-29,
-28,
-28,
-27,
-28,
-30,
-27,
-29,
-28,
-30,
-30,
-26,
-28,
-28,
-28,
-28,
-27,
-28,
-29,
-29,
-28,
-28,
-27,
-28,
-25,
-28,
-29,
-30,
-26,
-29,
-28,
-29,
-27,
-28,
-27,
-28,
-29,
-28,
-29,
-28,
-29,
-29,
-26,
-28,
-28,
-26,
-30,
-29,
-28,
-28,
-30,
-28,
-29,
-29,
-29,
-26,
-24,
-29,
-27,
-28,
-27,
-27,
-26,
-28,
-27,
-28,
-26,
-28,
-28,
-28,
-28,
-28,
-29,
-27,
-28,
-28,
-29,
-27,
-26,
-27,
-24,
-29,
-26,
-29,
-26,
-29,
-27,
-28,
-29,
-28,
-28,
-27,
-28,
-29,
-27,
-29,
-28,
-29,
-28,
-28,
-26,
-25,
-30,
-27,
-26,
-27,
-28,
-27,
-26,
-28,
-28,
-26,
-26,
-27,
-26,
-29,
-25,
-26,
-27,
-27,
-25,
-26,
-26,
-25,
-25,
-27,
-28,
-25,
-26,
-26,
-28,
-25,
-27,
-24,
-24,
-25,
-24,
-27,
-23,
-28,
-24,
-24,
-25,
-25,
-23,
-26,
-24,
-24,
-26,
-22,
-24,
-24,
-24,
-24,
-25,
-24,
-24,
-24,
-26,
-25,
-23,
-24,
-23,
-24,
-20,
-23,
-22,
-23,
-21,
-22,
-22,
-23,
-22,
-23,
-22,
-23,
-22,
-20,
-23,
-20,
-20,
-20,
-20,
-20,
-20,
-21,
-19,
-20,
-17,
-21,
-20,
-17,
-17,
-20,
-16,
-16,
-19,
-17,
-15,
-17,
-17,
-16,
-16,
-16,
-16,
-17,
-15,
-13,
-16,
-14,
-13,
-13,
-15,
-12,
-15,
-14,
-14,
-12,
-12,
-12,
-8,
-9,
-11,
-11,
-9,
-9,
-9,
-8,
-8,
-6,
-9,
-8,
-7,
-5,
-6,
-4,
-3,
-6,
-3,
-3,
-3,
-3,
-3,
-2,
0,
-2,
-3,
-1,
0,
1,
0,
0,
3,
1,
2,
1,
4,
4,
4,
5,
6,
4,
7,
6,
7,
6,
8,
8,
10,
8,
11,
8,
12,
11,
12,
11,
12,
11,
16,
15,
13,
14,
14,
13,
16,
13,
18,
15,
15,
16,
19,
16,
18,
18,
20,
19,
22,
19,
20,
20,
24,
21,
21,
22,
23,
23,
24,
24,
25,
25,
26,
24,
27,
25,
27,
23,
26,
25,
27,
27,
29,
28,
30,
27,
29,
28,
30,
31,
28,
30,
30,
30,
30,
31,
33,
31,
33,
32,
32,
29,
34,
31,
35,
31,
36,
34,
33,
32,
37,
34,
37,
34,
36,
34,
35,
36,
36,
34,
38,
34,
39,
37,
36,
35,
37,
36,
37,
38,
40,
36,
40,
37,
37,
38,
39,
36,
39,
40,
40,
38,
40,
41,
41,
37,
42,
38,
41,
38,
40,
40,
41,
38,
40,
39,
42,
39,
41,
39,
43,
39,
41,
42,
40,
40,
40,
41,
43,
40,
42,
42,
42,
42,
42,
40,
41,
40,
41,
41,
44,
41,
43,
41,
42,
40,
43,
40,
44,
39,
44,
41,
44,
42,
44,
40,
41,
42,
41,
44,
41,
40,
43,
43,
42,
41,
42,
40,
43,
42,
43,
42,
43,
40,
43,
41,
41,
41,
44,
42,
42,
40,
40,
40,
40,
40,
40,
39,
40,
39,
40,
39,
40,
39,
40,
38,
40,
40,
40,
39,
40,
39,
39,
38,
40,
39,
40,
38,
37,
39,
39,
37,
40,
36,
38,
36,
40,
37,
39,
37,
40,
34,
39,
35,
37,
36,
38,
37,
34,
37,
39,
36,
36,
36,
38,
36,
36,
34,
35,
33,
37,
34,
36,
32,
36,
34,
37,
36,
35,
34,
34,
32,
34,
32,
33,
31,
35,
33,
32,
32,
32,
31,
33,
32,
32,
33,
32,
30,
31,
32,
33,
31,
32,
31,
31,
29,
32,
29,
30,
27,
29,
28,
28,
28,
31,
31,
29,
28,
29,
27,
32,
28,
27,
27,
29,
28,
29,
27,
27,
26,
29,
24,
25,
26,
26,
27,
28,
26,
26,
26,
25,
27,
25,
26,
27,
23,
24,
23,
26,
24,
27,
24,
24,
21,
26,
21,
26,
24,
23,
20,
23,
22,
24,
20,
23,
21,
24,
20,
23,
21,
22,
22,
19,
20,
23,
20,
20,
19,
21,
19,
20,
18,
20,
20,
20,
19,
20,
17,
22,
19,
20,
22,
20,
18,
18,
16,
18,
19,
18,
16,
19,
16,
17,
15,
19,
15,
19,
15,
17,
14,
16,
15,
15,
15,
16,
16,
15,
16,
15,
13,
16,
14,
15,
15,
16,
12,
15,
13,
15,
11,
14,
11,
12,
12,
14,
11,
12,
12,
12,
12,
12,
12,
12,
11,
12,
10,
12,
8,
11,
10,
10,
7,
8,
9,
9,
10,
12,
9,
11,
8,
11,
8,
10,
9,
8,
8,
8,
9,
7,
8,
7,
8,
7,
8,
8,
8,
7,
5,
8,
4,
7,
7,
8,
4,
9,
4,
7,
4,
8,
4,
8,
3,
8,
5,
7,
4,
4,
6,
4,
4,
5,
3,
5,
3,
4,
2,
4,
2,
5,
3,
2,
2,
4,
0,
3,
2,
4,
1,
3,
-1,
2,
1,
1,
2,
3,
0,
2,
0,
2,
0,
1,
0,
2,
0,
0,
-1,
1,
0,
1,
-1,
2,
0,
-2,
0,
-1,
2,
-1,
-1,
0,
-1,
-2,
-1,
-2,
-2,
0,
-2,
-3,
-1,
-2,
-4,
-2,
-2,
-1,
-3,
-3,
-3,
-2,
-5,
-3,
-3,
-4,
-3,
-3,
-5,
-3,
-3,
-4,
-4,
-3,
-3,
-4,
-4,
-5,
-4,
-5,
-4,
-2,
-8,
-5,
-6,
-5,
-5,
-3,
-6,
-4,
-4,
-5,
-7,
-5,
-5,
-6,
-6,
-4,
-4,
-7,
-5,
-5,
-8,
-7,
-6,
-7,
-9,
-6,
-9,
-6,
-8,
-6,
-8,
-5,
-9,
-7,
-8,
-8,
-6,
-8,
-9,
-9,
-7,
-8,
-9,
-9,
-10,
-9,
-8,
-9,
-9,
-10,
-8,
-8,
-9,
-11,
-12,
-10,
-12,
-8,
-11,
-8,
-11,
-12,
-12,
-10,
-10,
-9,
-8,
-10,
-10,
-11,
-12,
-12,
-11,
-12,
-9,
-9,
-12,
-10,
-12,
-11,
-13,
-11,
-12,
-12,
-12,
-12,
-12,
-14,
-13,
-9,
-12,
-12,
-13,
-12,
-13,
-10,
-13,
-12,
-12,
-16,
-13,
-12,
-15,
-14,
-14,
-12,
-13,
-12,
-15,
-13,
-13,
-13,
-17,
-12,
-14,
-14,
-13,
-16,
-13,
-17,
-15,
-16,
-14,
-16,
-16,
-16,
-16,
-16,
-17,
-15,
-16,
-16,
-16,
-14,
-16,
-16,
-16,
-17,
-17,
-15,
-17,
-17,
-14,
-15,
-16,
-15,
-17,
-16,
-17,
-17,
-16,
-16,
-17,
-16,
-19,
-16,
-16,
-16,
-19,
-15,
-19,
-17,
-17,
-16,
-18,
-17,
-17,
-16,
-19,
-17,
-18,
-16,
-17,
-17,
-17,
-18,
-19,
-16,
-20,
-19,
-19,
-20,
-19,
-18,
-18,
-19,
-22,
-17,
-17,
-18,
-17,
-20,
-20,
-17,
-18,
-20,
-21,
-20,
-20,
-19,
-20,
-20,
-21,
-20,
-20,
-20,
-19,
-20,
-20,
-21,
-20,
-20,
-23,
-21,
-20,
-21,
-21,
-22,
-21,
-21,
-21,
-21,
-21,
-21,
-22,
-20,
-21,
-22,
-20,
-21,
-21,
-21,
-23,
-21,
-21,
-20,
-21,
-20,
-21,
-21,
-20,
-21,
-23,
-20,
-23,
-22,
-24,
-21,
-22,
-22,
-20,
-22,
-24,
-22,
-22,
-22,
-24,
-22,
-24,
-24,
-22,
-21,
-24,
-22,
-25,
-22,
-23,
-23,
-23,
-20,
-24,
-23,
-23,
-21,
-23,
-23,
-22,
-24,
-22,
-22,
-25,
-24,
-24,
-24,
-22,
-23,
-24,
-24,
-24,
-23,
-24,
-21,
-24,
-24,
-26,
-22,
-25,
-25,
-25,
-22,
-24,
-24,
-25,
-25,
-24,
-24,
-22,
-25,
-23,
-26,
-24,
-26,
-23,
-24,
-24,
-26,
-27,
-24,
-26,
-27,
-25,
-24,
-25,
-24,
-25,
-26,
-28,
-24,
-25,
-25,
-28,
-25,
-26,
-26,
-25,
-24,
-25,
-26,
-26,
-24,
-26,
-27,
-28,
-24,
-24,
-26,
-25,
-25,
-25,
-27,
-24,
-27,
-25,
-27,
-26,
-26,
-29,
-26,
-25,
-25,
-26,
-27,
-27,
-28,
-27,
-25,
-27,
-24,
-27,
-26,
-28,
-25,
-26,
-25,
-28,
-27,
-27,
-28,
-27,
-28,
-25,
-27,
-27,
-28,
-26,
-28,
-27,
-25,
-28,
-27,
-29,
-28,
-28,
-26,
-28,
-28,
-26,
-26,
-25,
-27,
-28,
-28,
-26,
-26,
-29,
-25,
-26,
-28,
-28,
-27,
-28,
-28,
-28,
-26,
-27,
-27,
-27,
-27,
-27,
-25,
-28,
-25,
-28,
-25,
-27,
-29,
-28,
-29,
-28,
-26,
-28,
-28,
-28,
-28,
-28,
-28,
-29,
-27,
-29,
-27,
-26,
-27,
-28,
-27,
-28,
-25,
-28,
-28,
-28,
-28,
-31,
-26,
-29,
-28,
-28,
-28,
-27,
-28,
-29,
-27,
-28,
-29,
-28,
-26,
-27,
-29,
-29,
-28,
-28,
-28,
-28,
-28,
-30,
-27,
-30,
-26,
-28,
-25,
-29,
-28,
-27,
-28,
-27,
-31,
-31,
-28,
-29,
-26,
-31,
-31,
-29,
-28,
-29,
-28,
-28,
-28,
-27,
-29,
-30,
-29,
-28,
-25,
-28,
-26,
-29,
-28,
-27,
-28,
-30,
-28,
-28,
-27,
-27,
-28,
-28,
-27,
-28,
-27,
-28,
-27,
-28,
-28,
-27,
-30,
-29,
-28,
-30,
-28,
-29,
-27,
-27,
-29,
-28,
-28,
-29,
-28,
-29,
-27,
-26,
-28,
-28,
-28,
-27,
-25,
-29,
-27,
-28,
-27,
-27,
-25,
-28,
-25,
-28,
-26,
-25,
-27,
-28,
-26,
-27,
-28,
-28,
-28,
-27,
-26,
-25,
-24,
-26,
-28,
-25,
-25,
-26,
-26,
-25,
-27,
-27,
-25,
-25,
-25,
-28,
-25,
-25,
-26,
-26,
-25,
-24,
-25,
-26,
-27,
-24,
-24,
-24,
-24,
-25,
-24,
-22,
-23,
-25,
-24,
-24,
-21,
-25,
-22,
-25,
-21,
-24,
-21,
-23,
-22,
-21,
-22,
-21,
-20,
-22,
-20,
-22,
-22,
-19,
-22,
-20,
-19,
-21,
-20,
-21,
-19,
-21,
-19,
-20,
-20,
-20,
-19,
-19,
-17,
-20,
-17,
-18,
-17,
-17,
-20,
-16,
-17,
-16,
-19,
-17,
-17,
-18,
-14,
-14,
-17,
-13,
-15,
-14,
-12,
-13,
-12,
-15,
-11,
-12,
-11,
-11,
-9,
-12,
-12,
-12,
-9,
-10,
-8,
-8,
-8,
-9,
-6,
-5,
-8,
-5,
-8,
-5,
-5,
-6,
-6,
-5,
-4,
-5,
-5,
-3,
-1,
-1,
-1,
0,
-1,
-1,
0,
0,
1,
3,
2,
0,
4,
2,
4,
3,
4,
6,
6,
6,
7,
5,
5,
6,
7,
9,
10,
10,
9,
10,
9,
12,
12,
13,
11,
12,
14,
11,
13,
14,
16,
14,
16,
15,
15,
16,
17,
16,
18,
16,
20,
17,
19,
18,
20,
19,
22,
19,
20,
22,
20,
20,
24,
21,
24,
24,
27,
25,
24,
24,
25,
26,
27,
27,
28,
25,
28,
27,
29,
28,
28,
27,
31,
29,
29,
26,
30,
30,
28,
29,
32,
28,
30,
30,
35,
30,
34,
30,
35,
31,
36,
31,
36,
33,
35,
32,
35,
35,
36,
32,
36,
35,
33,
36,
35,
38,
35,
35,
37,
36,
39,
37,
37,
36,
38,
36,
39,
39,
40,
38,
39,
35,
39,
36,
40,
40,
41,
40,
40,
39,
41,
40,
40,
39,
40,
41,
42,
39,
41,
37,
42,
39,
42,
39,
42,
41,
44,
39,
40,
42,
41,
40,
42,
39,
43,
42,
40,
41,
40,
41,
42,
40,
40,
42,
44,
41,
44,
41,
44,
40,
42,
41,
41,
39,
41,
40,
41,
40,
43,
40,
42,
42,
40,
41,
43,
41,
42,
41,
43,
40,
43,
41,
43,
39,
43,
40,
41,
40,
42,
41,
40,
41,
39,
40,
40,
40,
40,
41,
40,
40,
40,
40,
40,
39,
39,
40,
41,
37,
42,
38,
40,
37,
40,
39,
41,
40,
41,
38,
37,
38,
38,
38,
39,
37,
36,
36,
38,
35,
36,
37,
39,
37,
37,
35,
38,
36,
39,
36,
36,
37,
38,
36,
37,
36,
36,
36,
38,
35,
34,
34,
34,
38,
34,
36,
34,
36,
36,
33,
34,
34,
36,
32,
36,
32,
33,
30,
32,
32,
32,
32,
35,
32,
30,
32,
32,
32,
32,
32,
32,
30,
30,
31,
32,
30,
31,
30,
32,
29,
32,
30,
