A246/data/osci_data/ALL0003/A0003CH2.CSV

Memory Length,500,
Trigger Level,-4.000E-02,
Source,CH2,
Vertical Units,V,
Vertical Scale,5.000E-02,
Vertical Position,-1.580E-01,
Horizontal Units,s,
Horizontal Scale,1.000E-04,
Horizontal Position,-1.000E-03,
Horizontal Mode,Main,
Sampling Period,4.000E-06,
Firmware,V1.09,
Time,06-May-21 13:27,
Waveform Data,
43,
55,
70,
85,
100,
104,
103,
97,
92,
82,
75,
67,
63,
56,
51,
44,
42,
35,
31,
31,
31,
29,
26,
28,
32,
33,
39,
50,
63,
80,
96,
106,
106,
99,
93,
86,
76,
68,
61,
56,
52,
47,
42,
38,
35,
32,
30,
29,
28,
27,
31,
32,
37,
51,
63,
83,
95,
106,
108,
103,
95,
87,
79,
71,
63,
56,
52,
47,
43,
38,
35,
34,
31,
29,
29,
27,
30,
34,
40,
48,
65,
81,
95,
103,
106,
100,
94,
83,
78,
71,
64,
58,
54,
47,
44,
39,
35,
33,
31,
31,
28,
28,
28,
31,
35,
50,
63,
79,
94,
102,
106,
102,
92,
84,
77,
69,
63,
56,
52,
45,
43,
37,
35,
33,
30,
28,
29,
27,
30,
34,
39,
53,
66,
83,
98,
104,
103,
100,
92,
83,
77,
68,
62,
55,
52,
46,
42,
38,
32,
32,
30,
30,
28,
27,
31,
33,
41,
54,
69,
83,
99,
106,
105,
98,
89,
80,
75,
67,
59,
54,
51,
44,
39,
35,
36,
32,
29,
29,
28,
28,
32,
37,
45,
61,
75,
91,
103,
107,
102,
95,
87,
79,
71,
63,
58,
51,
46,
43,
41,
34,
33,
31,
31,
29,
27,
28,
34,
39,
51,
67,
82,
95,
106,
106,
98,
92,
81,
77,
70,
60,
55,
51,
46,
41,
39,
35,
33,
31,
27,
29,
31,
30,
35,
43,
58,
74,
87,
100,
106,
101,
93,
87,
79,
72,
65,
58,
53,
47,
45,
40,
35,
32,
30,
29,
31,
28,
29,
33,
39,
49,
63,
79,
93,
104,
106,
101,
91,
83,
75,
68,
63,
55,
51,
46,
41,
38,
36,
33,
30,
30,
29,
27,
31,
36,
45,
59,
74,
87,
100,
105,
100,
92,
86,
78,
70,
66,
58,
53,
49,
43,
40,
34,
35,
30,
30,
30,
29,
30,
33,
41,
51,
66,
80,
96,
104,
103,
96,
88,
81,
75,
66,
59,
55,
47,
43,
42,
37,
35,
33,
30,
28,
28,
29,
32,
39,
49,
61,
80,
95,
104,
105,
100,
91,
83,
76,
68,
62,
55,
52,
46,
40,
38,
35,
32,
31,
27,
30,
29,
31,
37,
47,
59,
74,
92,
100,
105,
100,
92,
83,
74,
72,
62,
55,
50,
45,
42,
39,
38,
34,
33,
27,
29,
29,
32,
36,
46,
54,
74,
89,
100,
105,
100,
92,
86,
77,
71,
63,
55,
51,
47,
43,
37,
38,
35,
31,
31,
28,
30,
31,
37,
47,
60,
74,
91,
100,
104,
100,
95,
83,
77,
69,
64,
58,
52,
47,
41,
41,
36,
34,
31,
31,
31,
29,
31,
35,
44,
58,
73,
87,
100,
106,
100,
91,
85,
77,
70,
62,
57,
50,
47,
43,
38,
35,
34,
30,
30,
29,
31,
31,
37,
47,
61,
76,
91,
100,
105,
98,
92,
83,
75,
66,
61,
59,
51,
45,
43,
38,
35,
32,
29,
32,
30,
30,
31,
36,
52,
64,
78,
92,
103,
103,
97,
91,
82,
75,
66,
62,
55,
51,
44,
