A246/TeX/figs/measurements/ALL0008/A0008CH1.CSV

Memory Length,25000,
Trigger Level,-1.320E+00,
Source,CH1,
Vertical Units,V,
Vertical Scale,2.000E-02,
Vertical Position,-1.680E-02,
Horizontal Units,s,
Horizontal Scale,1.000E-03,
Horizontal Position,-1.480E-03,
Horizontal Mode,Main,
Sampling Period,8.000E-07,
Firmware,V1.09,
Time,06-May-21 16:15,
Waveform Data,
-25,
-24,
-23,
-26,
-24,
-26,
-24,
-25,
-24,
-25,
-25,
-25,
-25,
-24,
-25,
-27,
-24,
-27,
-26,
-28,
-25,
-27,
-26,
-27,
-25,
-27,
-24,
-27,
-27,
-26,
-27,
-27,
-27,
-29,
-28,
-31,
-28,
-29,
-28,
-28,
-27,
-27,
-26,
-28,
-29,
-29,
-27,
-29,
-29,
-29,
-31,
-29,
-28,
-31,
-29,
-32,
-29,
-31,
-29,
-28,
-31,
-30,
-29,
-30,
-31,
-31,
-28,
-32,
-29,
-31,
-29,
-33,
-29,
-32,
-29,
-33,
-31,
-35,
-31,
-32,
-32,
-32,
-33,
-33,
-31,
-34,
-33,
-33,
-33,
-33,
-34,
-35,
-33,
-35,
-33,
-35,
-36,
-35,
-34,
-32,
-34,
-34,
-35,
-34,
-32,
-34,
-35,
-35,
-35,
-36,
-35,
-37,
-35,
-39,
-35,
-36,
-36,
-35,
-35,
-35,
-34,
-37,
-35,
-38,
-37,
-40,
-39,
-39,
-36,
-40,
-36,
-39,
-36,
-38,
-37,
-41,
-39,
-39,
-39,
-39,
-38,
-41,
-37,
-42,
-40,
-41,
-39,
-40,
-41,
-40,
-41,
-39,
-39,
-40,
-42,
-41,
-44,
-42,
-41,
-40,
-39,
-41,
-37,
-40,
-41,
-41,
-41,
-40,
-43,
-43,
-43,
-44,
-41,
-43,
-41,
-43,
-41,
-44,
-41,
-42,
-41,
-45,
-42,
-43,
-42,
-42,
-44,
-43,
-43,
-44,
-41,
-45,
-43,
-44,
-44,
-43,
-43,
-43,
-45,
-46,
-43,
-45,
-43,
-46,
-44,
-43,
-42,
-43,
-44,
-43,
-43,
-43,
-45,
-43,
-44,
-44,
-42,
-43,
-41,
-43,
-41,
-43,
-42,
-42,
-41,
-41,
-41,
-42,
-41,
-41,
-40,
-43,
-41,
-42,
-41,
-42,
-39,
-41,
-37,
-41,
-41,
-43,
-41,
-41,
-42,
-41,
-40,
-43,
-39,
-42,
-41,
-41,
-41,
-39,
-41,
-43,
-40,
-43,
-41,
-42,
-43,
-43,
-42,
-42,
-44,
-43,
-44,
-44,
-43,
-43,
-43,
-43,
-45,
-44,
-43,
-45,
-44,
-47,
-44,
-45,
-44,
-47,
-45,
-46,
-44,
-46,
-46,
-48,
-48,
-50,
-47,
-49,
-48,
-51,
-47,
-51,
-49,
-50,
-49,
-51,
-49,
-50,
-51,
-51,
-50,
-51,
-51,
-52,
-53,
-51,
-51,
-52,
-50,
-51,
-51,
-52,
-51,
-51,
-53,
-52,
-53,
-54,
-53,
-53,
-51,
-55,
-53,
-53,
-51,
-51,
-53,
-54,
-52,
-54,
-53,
-54,
-54,
-55,
-52,
-53,
-52,
-54,
-51,
-53,
-50,
-53,
-53,
-55,
-53,
-55,
-51,
-55,
-51,
-54,
-52,
-53,
-52,
-52,
-49,
-51,
-48,
-51,
-52,
-51,
-51,
-51,
-50,
-49,
-47,
-47,
-45,
-47,
-46,
-47,
-47,
-44,
-43,
-44,
-43,
-45,
-44,
-45,
-43,
-43,
-42,
-43,
-39,
-43,
-37,
-43,
-39,
-42,
-39,
-41,
-40,
-42,
-39,
-40,
-39,
-43,
-40,
-41,
-40,
-39,
-42,
-43,
-41,
-44,
-44,
-44,
-43,
-44,
-45,
-44,
-43,
-45,
-43,
-45,
-45,
-46,
-47,
-45,
-46,
-47,
-47,
-48,
-47,
-49,
-48,
-49,
-46,
-46,
-49,
-48,
-48,
-50,
-50,
-51,
-51,
-53,
-51,
-51,
-51,
-54,
-51,
-54,
-52,
-53,
-53,
-55,
-55,
-55,
-53,
-57,
-55,
-57,
-55,
-55,
-55,
-57,
-56,
-58,
-55,
-58,
-60,
-58,
-57,
-58,
-59,
-60,
-57,
-59,
-55,
-58,
-57,
-59,
-57,
-57,
-59,
-59,
-59,
-61,
-57,
-57,
-58,
-58,
-58,
-57,
-55,
-57,
-56,
-58,
-56,
-58,
-58,
-57,
-57,
-59,
-55,
-59,
-54,
-56,
-54,
-55,
-53,
-54,
-53,
-55,
-52,
-57,
-52,
-55,
-53,
-53,
-51,
-51,
-48,
-51,
-49,
-51,
-50,
-49,
-47,
-49,
-46,
-49,
-45,
-47,
-43,
-45,
-44,
-43,
-43,
-43,
-42,
-43,
-41,
-45,
-42,
-41,
-41,
-42,
-39,
-40,
-39,
-39,
-38,
-39,
-40,
-39,
-41,
-43,
-40,
-43,
-39,
-41,
-39,
-43,
-39,
-40,
-40,
-41,
-41,
-43,
-42,
-41,
-43,
-44,
-43,
-44,
-42,
-43,
-42,
-45,
-44,
-43,
-45,
-43,
-45,
-46,
-43,
-45,
-45,
-47,
-47,
-48,
-46,
-47,
-45,
-47,
-47,
-48,
-46,
-47,
-49,
-47,
-49,
-49,
-47,
-48,
-48,
-49,
-48,
-49,
-48,
-48,
-49,
-52,
-50,
-52,
-49,
-50,
-49,
-50,
-51,
-51,
-50,
-51,
-49,
-54,
-50,
-52,
-52,
-52,
-52,
-54,
-50,
-53,
-52,
-53,
-52,
-52,
-52,
-53,
-52,
-56,
-53,
-55,
-52,
-55,
-52,
-51,
-52,
-52,
-52,
-53,
-54,
-55,
-53,
-53,
-55,
-56,
-51,
-55,
-52,
-54,
-52,
-53,
-53,
-52,
-54,
-55,
-52,
-55,
-53,
-55,
-51,
-55,
-52,
-54,
-51,
-53,
-52,
-53,
-53,
-53,
-54,
-54,
-53,
-56,
-52,
-55,
-51,
-53,
-51,
-52,
-51,
-52,
-51,
-53,
-52,
-53,
-49,
-51,
-52,
-51,
-49,
-52,
-49,
-52,
-51,
-51,
-51,
-48,
-49,
-51,
-51,
-52,
-47,
-51,
-50,
-51,
-49,
-49,
-48,
-50,
-46,
-49,
-47,
-50,
-47,
-49,
-49,
-49,
-45,
-49,
-45,
-48,
-47,
-48,
-49,
-47,
-47,
-48,
-45,
-49,
-44,
-47,
-44,
-45,
-45,
-46,
-45,
-47,
-43,
-47,
-45,
-45,
-43,
-44,
-41,
-44,
-40,
-43,
-43,
-44,
-44,
-43,
-44,
-42,
-41,
-44,
-41,
-44,
-39,
-41,
-40,
-40,
-39,
-43,
-37,
-41,
-41,
-40,
-39,
-41,
-39,
-40,
-39,
-43,
-36,
-41,
-37,
-38,
-37,
-38,
-38,
-39,
-37,
-40,
-36,
-40,
-37,
-38,
-37,
-37,
-36,
-38,
-35,
-38,
-35,
-35,
-36,
-36,
-34,
-35,
-35,
-36,
-32,
-35,
-32,
-32,
-33,
-34,
-33,
-34,
-33,
-34,
-33,
-34,
-31,
-33,
-31,
-32,
-31,
-34,
-31,
-32,
-31,
-33,
-31,
-31,
-29,
-32,
-31,
-33,
-30,
-33,
-29,
-31,
-29,
-30,
-29,
-31,
-29,
-31,
-30,
-30,
-31,
-30,
-27,
-28,
-27,
-29,
-27,
-27,
-29,
-27,
-29,
-28,
-25,
-26,
-25,
-27,
-27,
-26,
-26,
-25,
-26,
-25,
-25,
-28,
-25,
-27,
-25,
-24,
-24,
-24,
-22,
-25,
-25,
-26,
-24,
-27,
-25,
-24,
-24,
-25,
-22,
-25,
-22,
-23,
-24,
-24,
-24,
-24,
-24,
-23,
-24,
-25,
-23,
-23,
-24,
-21,
-22,
-24,
-21,
-23,
-21,
-23,
-22,
-21,
-21,
-21,
-21,
-23,
-21,
-23,
-23,
-22,
-21,
-20,
-19,
-20,
-19,
-19,
-20,
-22,
-21,
-21,
-20,
-20,
-20,
-21,
-18,
-20,
-17,
-19,
-19,
-21,
-20,
-19,
-19,
-21,
-19,
-20,
-20,
-19,
-18,
-18,
-19,
-20,
-17,
-19,
-19,
-19,
-20,
-19,
-20,
-19,
-17,
-20,
-17,
-17,
-18,
-16,
-17,
-17,
-17,
-16,
-18,
-18,
-19,
-18,
-16,
-17,
-15,
-17,
-17,
-17,
-14,
-17,
-18,
-17,
-17,
-15,
-15,
-17,
-13,
-17,
-15,
-18,
-15,
-15,
-17,
-15,
-16,
-18,
-16,
-18,
-14,
-16,
-13,
-17,
-15,
-15,
-15,
-15,
-15,
-18,
-17,
-16,
-16,
-17,
-16,
-17,
-13,
-16,
-15,
-15,
-13,
-14,
-17,
-15,
-16,
-17,
-13,
-17,
-13,
-14,
-14,
-13,
-13,
-13,
-13,
-14,
-14,
-15,
-14,
-14,
-15,
-15,
-13,
-15,
-11,
-15,
-13,
-15,
-15,
-15,
-15,
-16,
-14,
-17,
-13,
-17,
-12,
-14,
-15,
-14,
-14,
-15,
-15,
-15,
-14,
-16,
-14,
-15,
-15,
-12,
-14,
-13,
-12,
-14,
-14,
-15,
-16,
-15,
-17,
-13,
-13,
-13,
-13,
-15,
-13,
-13,
-14,
-15,
-12,
-15,
-12,
-14,
-14,
-15,
-14,
-12,
-13,
-12,
-13,
-14,
-13,
-15,
-13,
-16,
-14,
-14,
-15,
-15,
-10,
-15,
-12,
-14,
-13,
-12,
-12,
-13,
-13,
-14,
-13,
-16,
-14,
-14,
-13,
-13,
-15,
-13,
-15,
-13,
-14,
-15,
-13,
-13,
-12,
-12,
-12,
-13,
-13,
-11,
-13,
-12,
-13,
-12,
-12,
-13,
-12,
-13,
-11,
-13,
-11,
-13,
-13,
-13,
-15,
-12,
-12,
-14,
-13,
-15,
-12,
-14,
-13,
-13,
-12,
-13,
-12,
-12,
-13,
-15,
-13,
-13,
-14,
-15,
-12,
-13,
-12,
-13,
-12,
-12,
-15,
-11,
-15,
-13,
-13,
-13,
-12,
-14,
-12,
-13,
-11,
-12,
-15,
-13,
-15,
-14,
-13,
-13,
-11,
-14,
-13,
-13,
-13,
-12,
-12,
-15,
-13,
-15,
-13,
-13,
-13,
-12,
-12,
-13,
-11,
-13,
-11,
-14,
-13,
-13,
-13,
-15,
-13,
-15,
-11,
-15,
-11,
-13,
-14,
-13,
-12,
-13,
-12,
-15,
-13,
-14,
-13,
-13,
-13,
-12,
-13,
-13,
-12,
-12,
-12,
-13,
-14,
-13,
-13,
-13,
-13,
-11,
-13,
-15,
-12,
-12,
-12,
-12,
-15,
-12,
-11,
-15,
-12,
-15,
-12,
-14,
-11,
-13,
-12,
-12,
-11,
-13,
-11,
-15,
-12,
-14,
-13,
-13,
-13,
-14,
-12,
-14,
-12,
-13,
-13,
-12,
-15,
-15,
-15,
-13,
-13,
-13,
-15,
-15,
-12,
-12,
-12,
-11,
-13,
-13,
-11,
-13,
-13,
-13,
-13,
-14,
-12,
-11,
-11,
-13,
-11,
-14,
-11,
-11,
-11,
-12,
-15,
-13,
-13,
-14,
-10,
-14,
-11,
-13,
-11,
-12,
-12,
-12,
-12,
-14,
-10,
-15,
-12,
-13,
-10,
-12,
-11,
-12,
-11,
-13,
-13,
-14,
-13,
-13,
-14,
-15,
-11,
-13,
-12,
-15,
-12,
-12,
-12,
-10,
-12,
-11,
-12,
-14,
-10,
-14,
-11,
-13,
-13,
-11,
-12,
-11,
-11,
-14,
-11,
-14,
-13,
-13,
-13,
-13,
-10,
-12,
-8,
-12,
-10,
-12,
-13,
-12,
-13,
-12,
-12,
-13,
-11,
-14,
-11,
-12,
-12,
-15,
-11,
-12,
-12,
-13,
-12,
-15,
-12,
-12,
-12,
-12,
-12,
-9,
-12,
-11,
-12,
-13,
-12,
-13,
-13,
-11,
-12,
-11,
-11,
-12,
-9,
-11,
-12,
-12,
-12,
-11,
-13,
-13,
-11,
-13,
-10,
-13,
-10,
-12,
-11,
-11,
-11,
-12,
-10,
-13,
-12,
-13,
-12,
-11,
-11,
-11,
-11,
-13,
-11,
-11,
-13,
-13,
-14,
-11,
-12,
-12,
-11,
-13,
-10,
-11,
-12,
-11,
-14,
-11,
-11,
-12,
-12,
-11,
-12,
-12,
-11,
-12,
-11,
-11,
-11,
-12,
-11,
-11,
-11,
-13,
-11,
-11,
-10,
-10,
-10,
-11,
-10,
-12,
-10,
-11,
-11,
-11,
-11,
-14,
-12,
-13,
-11,
-13,
-9,
-12,
-11,
-11,
-13,
-11,
-12,
-11,
-11,
-12,
-11,
-11,
-11,
-12,
-9,
-8,
-11,
-11,
-11,
-11,
-12,
-9,
-11,
-11,
-10,
-11,
-9,
-11,
-10,
-11,
-10,
-12,
-12,
-10,
-11,
-11,
-9,
-11,
-8,
-11,
-9,
-11,
-10,
-10,
-10,
-11,
-9,
-13,
-10,
-13,
-12,
-11,
-11,
-9,
-10,
-11,
-10,
-12,
-9,
-11,
-10,
-10,
-12,
-11,
-9,
-11,
-11,
-12,
-10,
-11,
-9,
-9,
-9,
-10,
-11,
-11,
-9,
-12,
-10,
-11,
-12,
-10,
-10,
-10,
-10,
-12,
-10,
-11,
-9,
-9,
-10,
-11,
-9,
-9,
-8,
-11,
-7,
-11,
-10,
-11,
-11,
-11,
-11,
-12,
-9,
-13,
-7,
-9,
-9,
-10,
-11,
-10,
-9,
-12,
-10,
-12,
-10,
-13,
-11,
-10,
-11,
-11,
-9,
-10,
-9,
-9,
-13,
-10,
-11,
-10,
-9,
-11,
-8,
-9,
-9,
-9,
-10,
-9,
-9,
-8,
-9,
-10,
-10,
-11,
-9,
-11,
-11,
-10,
-9,
-9,
-8,
-7,
-9,
-11,
-9,
-10,
-10,
-11,
-9,
-11,
-8,
-12,
-8,
-9,
-10,
-10,
-9,
-9,
-10,
-12,
-10,
-12,
-9,
-9,
-9,
-8,
-11,
-9,
-7,
-9,
-11,
-9,
-11,
-10,
-11,
-8,
-10,
-10,
-8,
-11,
-7,
-8,
-10,
-9,
-8,
-8,
-9,
-11,
-9,
-12,
-9,
-10,
-8,
-10,
-9,
-10,
-9,
-8,
-8,
-9,
-9,
-11,
-9,
-10,
-9,
-11,
-9,
-11,
-8,
-9,
-11,
-9,
-11,
-8,
-10,
-8,
-10,
-11,
-10,
-11,
-10,
-9,
-9,
-10,
-9,
-10,
-9,
-9,
-11,
-8,
-11,
-9,
-9,
-9,
-9,
-9,
-8,
-9,
-9,
-7,
-10,
-8,
-8,
-9,
-8,
-12,
-8,
-11,
-8,
-9,
-8,
-9,
-8,
-11,
-8,
-9,
-11,
-11,
-10,
-11,
-9,
-11,
-9,
-12,
-8,
-9,
-10,
-9,
-10,
-9,
-11,
-11,
-12,
-11,
-9,
-11,
-10,
-10,
-12,
-9,
-9,
-10,
-11,
-9,
-11,
-11,
-11,
-9,
-10,
-10,
-7,
-9,
-7,
-9,
-11,
-11,
-12,
-11,
-9,
-11,
-10,
-11,
-8,
-9,
-9,
-7,
-11,
-11,
-9,
-9,
-9,
-11,
-11,
-11,
-9,
-12,
-11,
-11,
-9,
-11,
-10,
-10,
-11,
-9,
-13,
-11,
-12,
-11,
-11,
-12,
-11,
-12,
-11,
-10,
-12,
-8,
-12,
-11,
-10,
-11,
-11,
-13,
-11,
-10,
-10,
-8,
-10,
-11,
-9,
-11,
-12,
-13,
-12,
-9,
-11,
-10,
-10,
-12,
-9,
-11,
-9,
-11,
-12,
-11,
-11,
-13,
-11,
-14,
-9,
-13,
-11,
-12,
-11,
-12,
-12,
-13,
-11,
-13,
-13,
-14,
-13,
-11,
-13,
-12,
-11,
-13,
-11,
-12,
-12,
-12,
-12,
-11,
-12,
-13,
-12,
-13,
-11,
-13,
-12,
-11,
-11,
-13,
-12,
-12,
-12,
-13,
-13,
-14,
-13,
-13,
-12,
-12,
-13,
-13,
-11,
-11,
-13,
-14,
-15,
-14,
-12,
-14,
-13,
-14,
-13,
-13,
-12,
-13,
-14,
-14,
-13,
-12,
-12,
-15,
-15,
-16,
-15,
-14,
-15,
-13,
-13,
-13,
-12,
-13,
-15,
-15,
-15,
-14,
-15,
-14,
-15,
-15,
-13,
-14,
-12,
-14,
-14,
-15,
-12,
-13,
-12,
-17,
-12,
-15,
-13,
-13,
-16,
-16,
-13,
-16,
-12,
-15,
-13,
-16,
-13,
-14,
-15,
-15,
-15,
-16,
-14,
-16,
-15,
-15,
-14,
-14,
-13,
-14,
-16,
-18,
-15,
-17,
-15,
-17,
-17,
-16,
-15,
-16,
-15,
-16,
-17,
-14,
-17,
-14,
-16,
-16,
-15,
-16,
-15,
-18,
-15,
-15,
-16,
-15,
-15,
-13,
-15,
-16,
-14,
-15,
-15,
-17,
-15,
-18,
-13,
-17,
-13,
-18,
-16,
-17,
-15,
-13,
-16,
-17,
-14,
-17,
-15,
-17,
-15,
-19,
-15,
-15,
-15,
-16,
-15,
-15,
-16,
-16,
-16,
-16,
-17,
-15,
-13,
-15,
-13,
-14,
-13,
-14,
-13,
-14,
-16,
-13,
-15,
-14,
-13,
-16,
-13,
-12,
-13,
-13,
-11,
-12,
-11,
-12,
-11,
-15,
-12,
-13,
-11,
-13,
-11,
-13,
-10,
-12,
-11,
-12,
-12,
-12,
-12,
-13,
-11,
-13,
-12,
-13,
-11,
-11,
-11,
-12,
-12,
-10,
-11,
-11,
-11,
-15,
-12,
-12,
-11,
-11,
-11,
-11,
-12,
-12,
-11,
-9,
-11,
-14,
-12,
-12,
-12,
-12,
-11,
-13,
-9,
-12,
-11,
-12,
-13,
-12,
-12,
-13,
-12,
-15,
-11,
-15,
-12,
-12,
-12,
-13,
-11,
-13,
-12,
-15,
-14,
-15,
-12,
-13,
-13,
-16,
-13,
-15,
-14,
-14,
-13,
-15,
-13,
-14,
-13,
-13,
-13,
-15,
-14,
-14,
-14,
-13,
-13,
-13,
-14,
-12,
-14,
-15,
-13,
-15,
-14,
-15,
-15,
-15,
-12,
-13,
-13,
-14,
-14,
-15,
-15,
-14,
-16,
-13,
-14,
-16,
-12,
-17,
-12,
-17,
-15,
-13,
-14,
-15,
-13,
-16,
-14,
-18,
-16,
-16,
-14,
-13,
-13,
-14,
-14,
-16,
-15,
-13,
-15,
-13,
-17,
-14,
-14,
-15,
-13,
-14,
-12,
-13,
-14,
-13,
-15,
-13,
-13,
-14,
-13,
-15,
-13,
-16,
-11,
-13,
-13,
-13,
-13,
-13,
-12,
-15,
-12,
-15,
-15,
-15,
-13,
-13,
-13,
-13,
-12,
-15,
-12,
-13,
-13,
-16,
-13,
-15,
-11,
-14,
-13,
-15,
-13,
-13,
-15,
-13,
-13,
-13,
-12,
-16,
-13,
-16,
-12,
-12,
-13,
-13,
-14,
-12,
-12,
-13,
-13,
-14,
-14,
-13,
-12,
-14,
-11,
-14,
-11,
-13,
-11,
-14,
-12,
-12,
-13,
-12,
-13,
-13,
-11,
-13,
-12,
-12,
-13,
-12,
-10,
-15,
-12,
-13,
-13,
-15,
-12,
-14,
-14,
-14,
-12,
-12,
-11,
-13,
-13,
-13,
-15,
-14,
-13,
-14,
-12,
-13,
-12,
-12,
-11,
-12,
-13,
-11,
-13,
-11,
-14,
-13,
-11,
-12,
-10,
-12,
-11,
-11,
-10,
-11,
-11,
-11,
-11,
-13,
-12,
-13,
-13,
-12,
-12,
-12,
-8,
-12,
-10,
-13,
-11,
-13,
-12,
-12,
-12,
-14,
-12,
-13,
-11,
-11,
-11,
-9,
-11,
-10,
-11,
-12,
-11,
-12,
-11,
-13,
-12,
-11,
-11,
-11,
-9,
-10,
-11,
-13,
-12,
-11,
-11,
-11,
-11,
-8,
-8,
-10,
-9,
-10,
-9,
-10,
-11,
-9,
-10,
-11,
-9,
-12,
-9,
-11,
-10,
-11,
-9,
-9,
-9,
-12,
-9,
-13,
-9,
-11,
-11,
-12,
-12,
-9,
-10,
-11,
-9,
-9,
-9,
-8,
-12,
-12,
-12,
-13,
-11,
-12,
-10,
-13,
-9,
-11,
-12,
-11,
-11,
-9,
-12,
-13,
-12,
-13,
-11,
-12,
-11,
-12,
-12,
-12,
-10,
-12,
-11,
-12,
-13,
-13,
-12,
-12,
-12,
-13,
-11,
-14,
-11,
-12,
-12,
-14,
-13,
-13,
-14,
-15,
-13,
-16,
-13,
-14,
-15,
-15,
-13,
-15,
-12,
-15,
-15,
-18,
-16,
-16,
-16,
-16,
-15,
-16,
-13,
-15,
-15,
-14,
-16,
-15,
-16,
-15,
-17,
-17,
-17,
-18,
-15,
-19,
-16,
-16,
-17,
-16,
-15,
-15,
-17,
-18,
-17,
-19,
-17,
-16,
-17,
-17,
-17,
-18,
-17,
-19,
-19,
-21,
-19,
-19,
-19,
-20,
-17,
-21,
-19,
-22,
-19,
-21,
-21,
-21,
-21,
-19,
-20,
-22,
-20,
-21,
-22,
-19,
-20,
-20,
-21,
-21,
-19,
-22,
-21,
-23,
-21,
-21,
-22,
-23,
-19,
-22,
-19,
-22,
-22,
-21,
-21,
-22,
-22,
-23,
-23,
-24,
-21,
-23,
-21,
-24,
-24,
-24,
-23,
-23,
-21,
-25,
-25,
-27,
-25,
-25,
-23,
-25,
-24,
-25,
-23,
-25,
-24,
-27,
-25,
-27,
-25,
-27,
-26,
-25,
-27,
-27,
-25,
-26,
-26,
-26,
-25,
-26,
-26,
-25,
-25,
-27,
-27,
-28,
-28,
-26,
-27,
-27,
-24,
-26,
-26,
-26,
-28,
-28,
-25,
-27,
-28,
-29,
-26,
-29,
-25,
-28,
-28,
-28,
-27,
-28,
-27,
-28,
-29,
-31,
-28,
-32,
-27,
-31,
-28,
-28,
-28,
-31,
-28,
-30,
-28,
-30,
-29,
-29,
-30,
-31,
-28,
-29,
-27,
-28,
-28,
-31,
-29,
-29,
-28,
-29,
-28,
-29,
-27,
-28,
-28,
-29,
-27,
-27,
-27,
-26,
-28,
-30,
-28,
-29,
-28,
-29,
-29,
-30,
-27,
-30,
-27,
-29,
-27,
-28,
-27,
-29,
-27,
-27,
-27,
-30,
-27,
-29,
-28,
-27,
-27,
-28,
-25,
-27,
-25,
-26,
-26,
-27,
-25,
-24,
-28,
-25,
-26,
-25,
-23,
-25,
-23,
-25,
-23,
-22,
-23,
-21,
-23,
-22,
-21,
-23,
-20,
-23,
-21,
-22,
-19,
-18,
-19,
-19,
-19,
-21,
-17,
-18,
-19,
-19,
-19,
-20,
-17,
-19,
-16,
-20,
-17,
-16,
-18,
-18,
-17,
-18,
-17,
-19,
-18,
-19,
-17,
-19,
-19,
-19,
-17,
-20,
-17,
-19,
-18,
-18,
-19,
-16,
-19,
-17,
-20,
-19,
-19,
-19,
-21,
-20,
-19,
-18,
-17,
-19,
-19,
-20,
-20,
-18,
-19,
-19,
-20,
-19,
-19,
-21,
-19,
-20,
-19,
-21,
-20,
-20,
-20,
-22,
-20,
-23,
-22,
-24,
-21,
-21,
-21,
-21,
-21,
-23,
-20,
-22,
-21,
-22,
-25,
-24,
-23,
-23,
-23,
-25,
-23,
-24,
-23,
-22,
-25,
-24,
-24,
-25,
-25,
-25,
-24,
-25,
-23,
-25,
-24,
-25,
-23,
-27,
-23,
-25,
-25,
-25,
-24,
-24,
-25,
-26,
-23,
-27,
-23,
-26,
-24,
-26,
-24,
-25,
-25,
-26,
-26,
-27,
-25,
-27,
-27,
-26,
-25,
-26,
-23,
-26,
-25,
-27,
-24,
-25,
-27,
-24,
-28,
-27,
-24,
-24,
-25,
-26,
-25,
-26,
-25,
-23,
-24,
-28,
-26,
-24,
-25,
-25,
-27,
-25,
-24,
-24,
-23,
-25,
-25,
-24,
-23,
-24,
-25,
-25,
-23,
-27,
-23,
-26,
-24,
-25,
-21,
-23,
-24,
-26,
-23,
-25,
-23,
-27,
-25,
-25,
-23,
-24,
-24,
-25,
-21,
-25,
-23,
-24,
-25,
-24,
-23,
-24,
-20,
-26,
-24,
-24,
-23,
-22,
-23,
-21,
-21,
-23,
-21,
-22,
-20,
-22,
-21,
-23,
-20,
-24,
-21,
-23,
-20,
-24,
-20,
-21,
-21,
-23,
-19,
-21,
-20,
-24,
-20,
-21,
-23,
-21,
-19,
-22,
-18,
-19,
-19,
-23,
-20,
-19,
-20,
-20,
-20,
-23,
-18,
-21,
-19,
-21,
-19,
-19,
-19,
-19,
-19,
-22,
-19,
-20,
-20,
-19,
-17,
-17,
-17,
-18,
-17,
-18,
-17,
-19,
-20,
-18,
-18,
-19,
-16,
-18,
-15,
-18,
-17,
-18,
-15,
-16,
-15,
-18,
-15,
-18,
-17,
-17,
-17,
-17,
-15,
-17,
-15,
-15,
-17,
-16,
-15,
-16,
-15,
-16,
-15,
-18,
-16,
-17,
-16,
-16,
-15,
-14,
-15,
-15,
-13,
-17,
-15,
-13,
-16,
-11,
-16,
-15,
-15,
-15,
-13,
-15,
-13,
-13,
-12,
-11,
-12,
-13,
-12,
-14,
-13,
-14,
-14,
-13,
-11,
-13,
-11,
-14,
-10,
-13,
-12,
-12,
-13,
-13,
-11,
-13,
-14,
-14,
-12,
-14,
-11,
-12,
-11,
-9,
-11,
-12,
-12,
-11,
-15,
-11,
-12,
-11,
-11,
-12,
-11,
-11,
-10,
-9,
-11,
-10,
-11,
-11,
-9,
-12,
-10,
-12,
-8,
-9,
-9,
-7,
-8,
-9,
-8,
-9,
-11,
-11,
-12,
-11,
-8,
-10,
-7,
-11,
-9,
-11,
-9,
-8,
-9,
-12,
-9,
-11,
-7,
-11,
-7,
-10,
-9,
-7,
-9,
-11,
-9,
-8,
-10,
-9,
-10,
-10,
-9,
-9,
-6,
-10,
-9,
-9,
-8,
-5,
-10,
-8,
-9,
-11,
-9,
-9,
-8,
-8,
-8,
-6,
-6,
-7,
-7,
-8,
-6,
-7,
-7,
-8,
-7,
-7,
-5,
-7,
-6,
-7,
-6,
-9,
-7,
-5,
-6,
-8,
-6,
-10,
-5,
-8,
-7,
-8,
-8,
-6,
-5,
-7,
-6,
-11,
-6,
-10,
-7,
-8,
-7,
-7,
-5,
-7,
-8,
-6,
-7,
-7,
-9,
-6,
-7,
-9,
-5,
-9,
-7,
-5,
-7,
-7,
-6,
-7,
-5,
-7,
-8,
-7,
-6,
-7,
-4,
-7,
-4,
-7,
-2,
-5,
-4,
-6,
-6,
-6,
-4,
-6,
-7,
-8,
-6,
-8,
-5,
-6,
-5,
-7,
-5,
-6,
-7,
-5,
-9,
-7,
-6,
-5,
-5,
-7,
-7,
-9,
-4,
-6,
-8,
-7,
-7,
-7,
-7,
-8,
-6,
-5,
-4,
-4,
-5,
-5,
-5,
-6,
-5,
-7,
-8,
-5,
-7,
-5,
-5,
-6,
-4,
-7,
-3,
-4,
-5,
-5,
-5,
-7,
-7,
-8,
-7,
-7,
-6,
-6,
-5,
-6,
-4,
-8,
-4,
-5,
-7,
-6,
-8,
-6,
-7,
-6,
-7,
-7,
-5,
-5,
-5,
-4,
-7,
-6,
-4,
-10,
-5,
-6,
-7,
-5,
-5,
-4,
-6,
-4,
-5,
-6,
-5,
-6,
-7,
-3,
-4,
-6,
-5,
-5,
-7,
-5,
-6,
-4,
-4,
-6,
-7,
-9,
-5,
-9,
-7,
-5,
-5,
-6,
-3,
-5,
-5,
-6,
-7,
-7,
-7,
-5,
-9,
-6,
-4,
-7,
-4,
-5,
-5,
-4,
-5,
-5,
-7,
-6,
-7,
-7,
-7,
-7,
-5,
-5,
-4,
-7,
-4,
-5,
-6,
-5,
-6,
-4,
-9,
-6,
-7,
-5,
-5,
-6,
-4,
-6,
-5,
-3,
-5,
-7,
-4,
-8,
-5,
-7,
-7,
-7,
-4,
-4,
-5,
-6,
-4,
-7,
-5,
-5,
-5,
-5,
-5,
-9,
-5,
-5,
-7,
-5,
-7,
-5,
-5,
-5,
-5,
-7,
-7,
-7,
-7,
-5,
-7,
-5,
-4,
-7,
-4,
-5,
-5,
-5,
-5,
-6,
-7,
-7,
-7,
-7,
-5,
-4,
-6,
-5,
-5,
-5,
-5,
-6,
-7,
-9,
-7,
-6,
-5,
-6,
-5,
-7,
-4,
-6,
-6,
-7,
-6,
-7,
-7,
-7,
-6,
-8,
-5,
-7,
-7,
-7,
-6,
-6,
-6,
-6,
-6,
-5,
-7,
-5,
-9,
-6,
-7,
-7,
-5,
-5,
-5,
-7,
-5,
-4,
-6,
-5,
-6,
-5,
-5,
-7,
-7,
-7,
-7,
-5,
-4,
-6,
-5,
-5,
-5,
-7,
-6,
-5,
-7,
-8,
-5,
-8,
-5,
-7,
-7,
-7,
-7,
-7,
-7,
-7,
-5,
-9,
-5,
-7,
-9,
-7,
-5,
-7,
-5,
-6,
-7,
-9,
-7,
-4,
-9,
-7,
-9,
-7,
-5,
-7,
-6,
-6,
-7,
-5,
-6,
-5,
-7,
-6,
-6,
-7,
-8,
-7,
-7,
-7,
-4,
-8,
-5,
-8,
-5,
-5,
-6,
-6,
-7,
-9,
-7,
-8,
-7,
-9,
-7,
-8,
-5,
-8,
-7,
-9,
-7,
-9,
-7,
-7,
-8,
-6,
-7,
-9,
-9,
-9,
-7,
-8,
-7,
-6,
-9,
-6,
-9,
-8,
-7,
-8,
-9,
-7,
-6,
-5,
-5,
-5,
-7,
-9,
-8,
-5,
-7,
-7,
-8,
-6,
-8,
-9,
-7,
-9,
-6,
-7,
-5,
-7,
-7,
-10,
-9,
-8,
-9,
-7,
-8,
-8,
-8,
-8,
-5,
-8,
-10,
-10,
-8,
-7,
-9,
-11,
-8,
-10,
-7,
-10,
-9,
-8,
-9,
-7,
-7,
-7,
-9,
-10,
-9,
-9,
-9,
-7,
-8,
-7,
-7,
-8,
-9,
-7,
-9,
-7,
-8,
-7,
-8,
-11,
-7,
-8,
-7,
-9,
-8,
-5,
-7,
-9,
-7,
-10,
-8,
-10,
-10,
-11,
-7,
-10,
-7,
-11,
-7,
-11,
-9,
-8,
-11,
-8,
-10,
-12,
-9,
-9,
-10,
-10,
-11,
-9,
-9,
-9,
-9,
-8,
-9,
-8,
-10,
-8,
-11,
-9,
-8,
-9,
-9,
-10,
-9,
-8,
-7,
-7,
-9,
-9,
-8,
-9,
-9,
-11,
-9,
-11,
-9,
-9,
-8,
-9,
-9,
-9,
-9,
-8,
-11,
-9,
-8,
-10,
-9,
-11,
-9,
-11,
-9,
-7,
-10,
-9,
-10,
-11,
-9,
-10,
-11,
-11,
-11,
-9,
-9,
-9,
-7,
-9,
-10,
-9,
-11,
-9,
-11,
-10,
-10,
-12,
-11,
-11,
-9,
-9,
-9,
-9,
-9,
-11,
-9,
-11,
-9,
-11,
-11,
-12,
-8,
-10,
-9,
-11,
-9,
-9,
-10,
-8,
-12,
-11,
-9,
-11,
-9,
-12,
-9,
-13,
-11,
-11,
-10,
-12,
-9,
-12,
-11,
-11,
-13,
-12,
-11,
-11,
-10,
-13,
-11,
-12,
-11,
-9,
-11,
-11,
-11,
-12,
-10,
-11,
-12,
-12,
-12,
-11,
-11,
-11,
-9,
-10,
-10,
-10,
-12,
-9,
-11,
-10,
-11,
-11,
-9,
-13,
-10,
-13,
-11,
-11,
-11,
-13,
-9,
-11,
-10,
-13,
-11,
-11,
-12,
-13,
-11,
-13,
-11,
-13,
-12,
-10,
-12,
-11,
-14,
-12,
-12,
-14,
-12,
-12,
-12,
-12,
-11,
-12,
-11,
-13,
-10,
-11,
-10,
-11,
-12,
-10,
-10,
-11,
-11,
-13,
-11,
-13,
-11,
-11,
-12,
-12,
-11,
-13,
-9,
-12,
-12,
-12,
-11,
-13,
-12,
-13,
-11,
-13,
-11,
-13,
-11,
-12,
-13,
-13,
-11,
-13,
-11,
-15,
-11,
-14,
-12,
-12,
-11,
-10,
-12,
-14,
-12,
-13,
-14,
-13,
-13,
-12,
-11,
-12,
-11,
-13,
-12,
-11,
-12,
-11,
-15,
-13,
-12,
-15,
-11,
-15,
-12,
-13,
-12,
-12,
-12,
-14,
-11,
-15,
-12,
-13,
-13,
-15,
-13,
-16,
-12,
-16,
-12,
-13,
-13,
-12,
-11,
-10,
-13,
-15,
-12,
-16,
-15,
-15,
-15,
-15,
-13,
-15,
-13,
-15,
-12,
-11,
-13,
-12,
-15,
-14,
-16,
-13,
-13,
-15,
-14,
-15,
-12,
-14,
-13,
-14,
-12,
-12,
-13,
-15,
-15,
-14,
-13,
-13,
-13,
-15,
-13,
-14,
-12,
-13,
-15,
-13,
-13,
-13,
-13,
-15,
-13,
-17,
-16,
-15,
-13,
-15,
-12,
-15,
-13,
-15,
-15,
-13,
-17,
-15,
-16,
-15,
-13,
-13,
-15,
-15,
-15,
-14,
-13,
-12,
-15,
-15,
-15,
-15,
-15,
-15,
-17,
-15,
-13,
-14,
-13,
-15,
-14,
-15,
-15,
-14,
-16,
-14,
-16,
-16,
-13,
-15,
-11,
-16,
-13,
-16,
-14,
-13,
-12,
-17,
-14,
-15,
-15,
-16,
-16,
-15,
-14,
-15,
-13,
-15,
-15,
-17,
-16,
-15,
-18,
-15,
-15,
-16,
-16,
-17,
-13,
-14,
-15,
-15,
-17,
-16,
-14,
-18,
-14,
-16,
-17,
-14,
-15,
-15,
-12,
-14,
-15,
-16,
-15,
-15,
-17,
-16,
-15,
-16,
-13,
-18,
-15,
-16,
-15,
-15,
-17,
-15,
-15,
