A246/TeX/figs/measurements/ALL0010/A0010CH1.CSV

Memory Length,25000,
Trigger Level,-1.320E+00,
Source,CH1,
Vertical Units,V,
Vertical Scale,1.000E-02,
Vertical Position,5.200E-03,
Horizontal Units,s,
Horizontal Scale,1.000E-04,
Horizontal Position,9.480E-04,
Horizontal Mode,Main,
Sampling Period,8.000E-08,
Firmware,V1.09,
Time,06-May-21 16:32,
Waveform Data,
-93,
-94,
-93,
-95,
-95,
-93,
-90,
-91,
-93,
-92,
-94,
-87,
-95,
-91,
-96,
-89,
-93,
-90,
-92,
-94,
-94,
-93,
-90,
-91,
-93,
-93,
-90,
-92,
-92,
-93,
-94,
-91,
-93,
-90,
-96,
-93,
-95,
-91,
-90,
-90,
-96,
-89,
-90,
-87,
-91,
-91,
-90,
-87,
-89,
-89,
-91,
-89,
-90,
-91,
-90,
-89,
-92,
-89,
-91,
-87,
-90,
-89,
-92,
-86,
-89,
-89,
-95,
-87,
-91,
-87,
-89,
-89,
-89,
-88,
-89,
-91,
-89,
-91,
-88,
-85,
-87,
-89,
-89,
-83,
-86,
-85,
-87,
-86,
-88,
-85,
-89,
-85,
-90,
-87,
-85,
-89,
-86,
-89,
-87,
-87,
-81,
-87,
-86,
-88,
-87,
-81,
-85,
-86,
-89,
-82,
-85,
-83,
-89,
-84,
-89,
-81,
-81,
-85,
-85,
-85,
-82,
-81,
-82,
-85,
-83,
-81,
-83,
-84,
-85,
-83,
-86,
-81,
-82,
-86,
-88,
-83,
-82,
-81,
-85,
-84,
-83,
-79,
-81,
-82,
-82,
-79,
-78,
-80,
-79,
-81,
-83,
-78,
-78,
-81,
-82,
-81,
-79,
-77,
-79,
-79,
-84,
-78,
-81,
-75,
-79,
-81,
-82,
-75,
-77,
-81,
-81,
-81,
-77,
-77,
-77,
-80,
-78,
-76,
-75,
-74,
-78,
-75,
-75,
-71,
-77,
-75,
-77,
-71,
-74,
-71,
-77,
-76,
-77,
-75,
-73,
-75,
-77,
-77,
-73,
-75,
-76,
-75,
-75,
-72,
-74,
-72,
-76,
-71,
-75,
-70,
-73,
-71,
-73,
-71,
-70,
-70,
-72,
-71,
-69,
-67,
-69,
-71,
-71,
-69,
-70,
-70,
-72,
-71,
-73,
-70,
-69,
-70,
-73,
-70,
-69,
-65,
-70,
-70,
-73,
-67,
-67,
-68,
-69,
-67,
-68,
-66,
-67,
-68,
-67,
-67,
-65,
-65,
-65,
-68,
-66,
-64,
-66,
-65,
-66,
-64,
-66,
-63,
-69,
-63,
-69,
-66,
-67,
-65,
-67,
-66,
-67,
-65,
-62,
-65,
-65,
-65,
-61,
-61,
-62,
-64,
-61,
-58,
-62,
-61,
-62,
-61,
-65,
-59,
-62,
-61,
-67,
-61,
-59,
-61,
-62,
-65,
-61,
-60,
-58,
-63,
-62,
-61,
-62,
-61,
-60,
-62,
-65,
-59,
-59,
-61,
-61,
-61,
-61,
-55,
-58,
-60,
-61,
-55,
-57,
-57,
-59,
-59,
-61,
-59,
-57,
-59,
-61,
-61,
-58,
-60,
-60,
-60,
-61,
-59,
-58,
-57,
-61,
-55,
-59,
-56,
-57,
-58,
-63,
-57,
-57,
-59,
-58,
-59,
-57,
-58,
-53,
-57,
-57,
-58,
-55,
-55,
-57,
-57,
-59,
-55,
-59,
-57,
-60,
-57,
-61,
-57,
-57,
-59,
-61,
-57,
-54,
-57,
-55,
-59,
-56,
-54,
-54,
-57,
-58,
-55,
-57,
-54,
-55,
-57,
-59,
-54,
-54,
-54,
-58,
-54,
-57,
-53,
-54,
-54,
-57,
-57,
-58,
-53,
-55,
-60,
-58,
-57,
-55,
-58,
-58,
-58,
-59,
-53,
-55,
-57,
-57,
-53,
-55,
-53,
-57,
-52,
-59,
-54,
-56,
-57,
-57,
-57,
-55,
-57,
-56,
-58,
-56,
-55,
-55,
-57,
-57,
-57,
-57,
-53,
-57,
-58,
-60,
-54,
-58,
-55,
-59,
-57,
-59,
-56,
-54,
-58,
-56,
-55,
-53,
-55,
-54,
-57,
-55,
-53,
-54,
-56,
-56,
-57,
-57,
-57,
-58,
-57,
-61,
-55,
-57,
-56,
-59,
-58,
-58,
-55,
-57,
-57,
-59,
-56,
-57,
-58,
-57,
-57,
-58,
-57,
-54,
-58,
-58,
-59,
-58,
-53,
-55,
-58,
-61,
-55,
-58,
-55,
-60,
-59,
-60,
-57,
-60,
-60,
-60,
-59,
-60,
-59,
-58,
-61,
-60,
-57,
-55,
-60,
-58,
-58,
-59,
-54,
-60,
-56,
-62,
-55,
-58,
-57,
-59,
-58,
-61,
-59,
-57,
-61,
-61,
-61,
-57,
-57,
-61,
-63,
-61,
-58,
-61,
-61,
-63,
-61,
-64,
-59,
-59,
-62,
-64,
-59,
-58,
-58,
-61,
-61,
-60,
-58,
-61,
-61,
-62,
-59,
-59,
-61,
-63,
-62,
-63,
-61,
-60,
-61,
-62,
-63,
-61,
-60,
-65,
-61,
-67,
-62,
-63,
-59,
-64,
-65,
-65,
-61,
-61,
-66,
-67,
-65,
-61,
-65,
-62,
-64,
-62,
-61,
-61,
-62,
-65,
-61,
-64,
-60,
-66,
-62,
-68,
-65,
-66,
-65,
-66,
-67,
-65,
-63,
-62,
-67,
-66,
-66,
-62,
-62,
-65,
-68,
-66,
-61,
-67,
-65,
-69,
-65,
-66,
-65,
-66,
-66,
-68,
-65,
-65,
-65,
-68,
-68,
-65,
-64,
-65,
-68,
-67,
-69,
-69,
-67,
-68,
-69,
-69,
-67,
-67,
-69,
-70,
-67,
-69,
-64,
-69,
-68,
-71,
-67,
-69,
-68,
-71,
-68,
-69,
-67,
-66,
-69,
-69,
-70,
-68,
-67,
-69,
-71,
-71,
-68,
-68,
-70,
-75,
-69,
-71,
-70,
-75,
-71,
-73,
-70,
-73,
-73,
-72,
-73,
-72,
-70,
-67,
-73,
-71,
-71,
-70,
-69,
-72,
-70,
-73,
-70,
-74,
-71,
-73,
-72,
-74,
-70,
-73,
-74,
-74,
-73,
-70,
-75,
-76,
-75,
-74,
-75,
-74,
-78,
-77,
-71,
-73,
-75,
-77,
-73,
-77,
-72,
-73,
-73,
-77,
-75,
-74,
-71,
-76,
-76,
-75,
-71,
-75,
-75,
-76,
-77,
-76,
-77,
-76,
-78,
-79,
-78,
-77,
-74,
-77,
-79,
-80,
-74,
-78,
-77,
-81,
-75,
-79,
-75,
-79,
-79,
-79,
-77,
-77,
-77,
-78,
-80,
-76,
-76,
-74,
-79,
-81,
-77,
-77,
-77,
-83,
-78,
-81,
-78,
-83,
-79,
-83,
-79,
-83,
-79,
-80,
-85,
-82,
-78,
-77,
-81,
-80,
-81,
-79,
-78,
-81,
-81,
-82,
-79,
-83,
-81,
-83,
-81,
-82,
-80,
-82,
-81,
-83,
-81,
-82,
-80,
-83,
-83,
-85,
-83,
-84,
-83,
-84,
-87,
-86,
-83,
-85,
-85,
-85,
-83,
-82,
-83,
-85,
-84,
-85,
-78,
-85,
-83,
-87,
-81,
-85,
-85,
-86,
-86,
-87,
-85,
-83,
-85,
-85,
-90,
-84,
-85,
-85,
-87,
-88,
-85,
-85,
-85,
-90,
-85,
-91,
-84,
-87,
-87,
-89,
-86,
-87,
-86,
-85,
-89,
-88,
-85,
-83,
-86,
-88,
-90,
-85,
-85,
-87,
-87,
-91,
-86,
-88,
-88,
-91,
-89,
-94,
-87,
-89,
-89,
-92,
-90,
-89,
-87,
-89,
-91,
-91,
-86,
-89,
-90,
-91,
-91,
-91,
-88,
-89,
-91,
-92,
-90,
-89,
-87,
-92,
-89,
-91,
-87,
-92,
-92,
-95,
-91,
-93,
-91,
-93,
-94,
-94,
-93,
-91,
-95,
-93,
-95,
-91,
-88,
-90,
-91,
-94,
-89,
-91,
-90,
-94,
-91,
-94,
-89,
-92,
-93,
-95,
-93,
-93,
-92,
-92,
-95,
-93,
-94,
-92,
-92,
-95,
-95,
-94,
-92,
-96,
-97,
-98,
-91,
-96,
-93,
-97,
-95,
-98,
-91,
-93,
-93,
-95,
-97,
-93,
-92,
-95,
-95,
-95,
-93,
-95,
-95,
-95,
-97,
-97,
-94,
-95,
-95,
-99,
-97,
-96,
-94,
-100,
-99,
-101,
-93,
-97,
-98,
-101,
-97,
-98,
-95,
-95,
-100,
-96,
-98,
-95,
-94,
-97,
-98,
-98,
-94,
-98,
-97,
-99,
-94,
-101,
-95,
-101,
-98,
-104,
-97,
-99,
-99,
-101,
-102,
-99,
-99,
-97,
-101,
-101,
-98,
-95,
-97,
-101,
-100,
-102,
-95,
-101,
-98,
-102,
-97,
-100,
-97,
-101,
-100,
-102,
-98,
-97,
-101,
-102,
-99,
-101,
-98,
-101,
-102,
-103,
-103,
-102,
-102,
-101,
-101,
-105,
-102,
-101,
-99,
-105,
-99,
-99,
-97,
-102,
-99,
-101,
-99,
-100,
-101,
-102,
-102,
-102,
-102,
-101,
-103,
-103,
-104,
-101,
-100,
-103,
-103,
-105,
-99,
-103,
-102,
-107,
-102,
-106,
-101,
-105,
-105,
-107,
-102,
-101,
-104,
-104,
-105,
-104,
-101,
-101,
-103,
-104,
-100,
-102,
-101,
-106,
-102,
-107,
-101,
-106,
-105,
-109,
-106,
-108,
-104,
-104,
-107,
-107,
-105,
-105,
-103,
-105,
-108,
-104,
-102,
-105,
-103,
-106,
-105,
-106,
-103,
-104,
-105,
-109,
-99,
-102,
-101,
-109,
-103,
-105,
-101,
-106,
-107,
-108,
-103,
-105,
-108,
-107,
-108,
-105,
-107,
-105,
-107,
-109,
-107,
-105,
-104,
-107,
-103,
-107,
-103,
-106,
-103,
-109,
-105,
-107,
-103,
-105,
-107,
-107,
-107,
-103,
-108,
-107,
-107,
-106,
-105,
-105,
-106,
-109,
-106,
-109,
-103,
-111,
-110,
-111,
-105,
-106,
-108,
-109,
-107,
-107,
-105,
-104,
-108,
-105,
-106,
-103,
-106,
-109,
-105,
-107,
-105,
-108,
-107,
-111,
-105,
-108,
-108,
-107,
-109,
-110,
-107,
-106,
-109,
-110,
-108,
-107,
-107,
-107,
-110,
-109,
-105,
-105,
-109,
-109,
-107,
-109,
-104,
-108,
-106,
-109,
-105,
-106,
-104,
-107,
-107,
-109,
-104,
-109,
-110,
-111,
-108,
-110,
-107,
-109,
-113,
-109,
-109,
-107,
-107,
-110,
-110,
-109,
-103,
-108,
-107,
-111,
-107,
-109,
-105,
-110,
-110,
-110,
-106,
-107,
-109,
-107,
-110,
-105,
-107,
-106,
-110,
-109,
-105,
-106,
-109,
-113,
-109,
-111,
-105,
-112,
-110,
-112,
-105,
-108,
-109,
-109,
-107,
-108,
-107,
-105,
-107,
-110,
-108,
-106,
-106,
-109,
-107,
-109,
-105,
-110,
-107,
-109,
-107,
-108,
-108,
-107,
-107,
-111,
-106,
-107,
-105,
-109,
-111,
-111,
-106,
-107,
-111,
-110,
-109,
-108,
-109,
-109,
-109,
-111,
-107,
-107,
-105,
-110,
-106,
-108,
-103,
-109,
-105,
-110,
-104,
-109,
-106,
-109,
-111,
-108,
-108,
-107,
-109,
-108,
-109,
-109,
-107,
-106,
-109,
-112,
-103,
-109,
-106,
-113,
-108,
-109,
-106,
-109,
-108,
-110,
-107,
-106,
-107,
-107,
-109,
-106,
-105,
-103,
-109,
-110,
-106,
-106,
-105,
-109,
-107,
-111,
-105,
-107,
-109,
-110,
-107,
-110,
-104,
-107,
-109,
-108,
-108,
-106,
-103,
-107,
-110,
-108,
-105,
-106,
-105,
-109,
-107,
-106,
-105,
-106,
-105,
-110,
-103,
-104,
-104,
-109,
-107,
-106,
-102,
-107,
-108,
-107,
-105,
-105,
-108,
-108,
-108,
-106,
-107,
-106,
-105,
-107,
-107,
-103,
-103,
-107,
-106,
-109,
-100,
-105,
-102,
-109,
-103,
-105,
-104,
-106,
-107,
-106,
-102,
-103,
-103,
-103,
-106,
-105,
-101,
-102,
-103,
-107,
-102,
-106,
-100,
-110,
-107,
-109,
-101,
-106,
-105,
-107,
-104,
-105,
-103,
-102,
-106,
-103,
-101,
-101,
-101,
-102,
-103,
-105,
-99,
-105,
-102,
-106,
-101,
-106,
-101,
-106,
-101,
-103,
-102,
-103,
-101,
-104,
-105,
-103,
-99,
-102,
-106,
-104,
-102,
-103,
-104,
-104,
-101,
-103,
-102,
-102,
-101,
-105,
-99,
-102,
-97,
-103,
-101,
-105,
-95,
-100,
-101,
-103,
-100,
-101,
-100,
-101,
-102,
-102,
-100,
-100,
-101,
-101,
-103,
-103,
-97,
-99,
-98,
-104,
-97,
-101,
-97,
-102,
-100,
-103,
-97,
-98,
-101,
-99,
-101,
-99,
-98,
-96,
-99,
-99,
-97,
-95,
-95,
-100,
-97,
-99,
-95,
-100,
-97,
-101,
-98,
-101,
-96,
-101,
-100,
-100,
-97,
-95,
-99,
-97,
-97,
-98,
-93,
-98,
-97,
-98,
-94,
-96,
-95,
-98,
-95,
-98,
-92,
-94,
-95,
-98,
-93,
-95,
-91,
-95,
-97,
-97,
-91,
-91,
-96,
-97,
-97,
-97,
-94,
-94,
-97,
-95,
-94,
-93,
-93,
-94,
-94,
-95,
-89,
-92,
-90,
-95,
-90,
-91,
-89,
-93,
-93,
-94,
-91,
-91,
-93,
-89,
-92,
-91,
-89,
-89,
-92,
-93,
-90,
-91,
-89,
-94,
-90,
-95,
-87,
-94,
-90,
-93,
-91,
-92,
-89,
-89,
-91,
-92,
-87,
-85,
-87,
-89,
-90,
-85,
-85,
-88,
-89,
-89,
-85,
-88,
-86,
-90,
-86,
-88,
-85,
-86,
-85,
-90,
-88,
-85,
-83,
-86,
-88,
-88,
-85,
-84,
-86,
-87,
-87,
-85,
-85,
-82,
-86,
-87,
-83,
-81,
-82,
-84,
-81,
-85,
-78,
-79,
-80,
-85,
-83,
-82,
-80,
-84,
-84,
-85,
-83,
-81,
-82,
-82,
-84,
-83,
-80,
-80,
-81,
-84,
-78,
-81,
-76,
-80,
-80,
-83,
-76,
-78,
-78,
-79,
-79,
-79,
-77,
-75,
-79,
-78,
-78,
-76,
-76,
-79,
-80,
-78,
-77,
-79,
-76,
-81,
-78,
-81,
-74,
-79,
-78,
-80,
-75,
-75,
-75,
-77,
-77,
-75,
-73,
-75,
-75,
-75,
-73,
-73,
-74,
-73,
-75,
-75,
-71,
-72,
-73,
-77,
-76,
-75,
-71,
-73,
-75,
-77,
-71,
-74,
-73,
-76,
-75,
-72,
-74,
-73,
-75,
-75,
-73,
-72,
-72,
-71,
-72,
-73,
-69,
-70,
-70,
-77,
-69,
-71,
-67,
-73,
-71,
-75,
-69,
-70,
-73,
-73,
-73,
-73,
-71,
-70,
-72,
-75,
-71,
-71,
-70,
-73,
-72,
-75,
-68,
-73,
-71,
-73,
-70,
-74,
-68,
-69,
-72,
-70,
-69,
-68,
-68,
-70,
-71,
-69,
-68,
-69,
-70,
-71,
-72,
-72,
-70,
-75,
-70,
-74,
-71,
-72,
-69,
-71,
-71,
-71,
-67,
-71,
-73,
-71,
-70,
-69,
-70,
-72,
-70,
-70,
-68,
-70,
-71,
-69,
-70,
-70,
-69,
-71,
-70,
-74,
-67,
-70,
-70,
-75,
-71,
-71,
-69,
-72,
-74,
-73,
-71,
-69,
-73,
-72,
-74,
-70,
-70,
-69,
-71,
-73,
-68,
-69,
-67,
-73,
-69,
-73,
-69,
-72,
-71,
-73,
-71,
-73,
-73,
-70,
-73,
-73,
-73,
-69,
-73,
-74,
-73,
-73,
-69,
-72,
-75,
-76,
-68,
-73,
-71,
-75,
-73,
-75,
-69,
-71,
-72,
-73,
-70,
-71,
-71,
-73,
-75,
-74,
-71,
-73,
-76,
-76,
-76,
-75,
-73,
-76,
-76,
-77,
-73,
-75,
-71,
-75,
-75,
-76,
-72,
-75,
-73,
-77,
-74,
-73,
-74,
-75,
-78,
-76,
-73,
-73,
-78,
-77,
-74,
-75,
-73,
-75,
-75,
-79,
-73,
-76,
-75,
-81,
-78,
-77,
-77,
-80,
-81,
-80,
-78,
-76,
-78,
-76,
-79,
-76,
-77,
-77,
-78,
-79,
-75,
-78,
-74,
-79,
-77,
-81,
-75,
-78,
-79,
-81,
-79,
-79,
-80,
-79,
-81,
-80,
-81,
-77,
-80,
-79,
-81,
-82,
-78,
-81,
-81,
-82,
-79,
-81,
-78,
-79,
-81,
-84,
-77,
-78,
-78,
-81,
-81,
-81,
-76,
-78,
-84,
-85,
-80,
-80,
-83,
-83,
-84,
-83,
-80,
-82,
-85,
-85,
-81,
-85,
-82,
-85,
-81,
-86,
-81,
-84,
-81,
-83,
-85,
-82,
-82,
-83,
-85,
-82,
-83,
-83,
-85,
-84,
-83,
-84,
-84,
-83,
-83,
-87,
-85,
-86,
-82,
-87,
-89,
-88,
-85,
-88,
-88,
-89,
-86,
-86,
-88,
-85,
-87,
-89,
-86,
-83,
-85,
-87,
-87,
-89,
-81,
-87,
-87,
-91,
-86,
-87,
-86,
-88,
-90,
-90,
-85,
-89,
-88,
-90,
-90,
-89,
-89,
-91,
-91,
-91,
-87,
-89,
-91,
-93,
-91,
-89,
-89,
-90,
-87,
-90,
-87,
-90,
-85,
-90,
-91,
-93,
-87,
-89,
-91,
-93,
-93,
-92,
-91,
-93,
-95,
-91,
-93,
-91,
-91,
-92,
-95,
-96,
-89,
-92,
-91,
-99,
-92,
-97,
-91,
-98,
-95,
-94,
-91,
-93,
-95,
-93,
-94,
-91,
-91,
-92,
-94,
-94,
-93,
-93,
-92,
-97,
-95,
-98,
-92,
-99,
-97,
-99,
-94,
-99,
-95,
-98,
-95,
-99,
-96,
-95,
-96,
-97,
-97,
-95,
-94,
-94,
-97,
-98,
-95,
-95,
-97,
-97,
-98,
-99,
-96,
-97,
-98,
-101,
-98,
-99,
-97,
-99,
-99,
-101,
-97,
-99,
-99,
-104,
-99,
-99,
-101,
-99,
-102,
-101,
-99,
-98,
-100,
-99,
-99,
-102,
-97,
-98,
-97,
-104,
-99,
-99,
-97,
-103,
-102,
-103,
-97,
-103,
-101,
-103,
-105,
-104,
-99,
-97,
-103,
-105,
-103,
-102,
-99,
-104,
-103,
-107,
-99,
-105,
-102,
-106,
-102,
-106,
-98,
-102,
-105,
-105,
-101,
-101,
-102,
-103,
-105,
-105,
-100,
-103,
-105,
-106,
-105,
-106,
-105,
-109,
-107,
-108,
-104,
-105,
-105,
-109,
-106,
-106,
-100,
-104,
-105,
-109,
-102,
-106,
-103,
-106,
-107,
-104,
-105,
-103,
-109,
-108,
-105,
-106,
-105,
-107,
-107,
-108,
-105,
-106,
-105,
-112,
-109,
-111,
-103,
-110,
-111,
-111,
-107,
-109,
-110,
-108,
-110,
-109,
-107,
-105,
-108,
-110,
-109,
-110,
-103,
-110,
-109,
-113,
-107,
-110,
-107,
-112,
-109,
-111,
-107,
-108,
-109,
-111,
-109,
-109,
-108,
-110,
-114,
-112,
-110,
-111,
-111,
-113,
-111,
-112,
-111,
-114,
-111,
-114,
-107,
-109,
-109,
-113,
-110,
-111,
-106,
-111,
-111,
-113,
-111,
-111,
-111,
-112,
-114,
-113,
-113,
-113,
-115,
-113,
-115,
-114,
-111,
-113,
-113,
-119,
-111,
-114,
-111,
-116,
-111,
-114,
-111,
-113,
-115,
-116,
-115,
-111,
-112,
-112,
-115,
-113,
-111,
-110,
-111,
-117,
-113,
-116,
-110,
-115,
-114,
-119,
-114,
-116,
-113,
-117,
-117,
-117,
-113,
-113,
-117,
-117,
-117,
-113,
-115,
-114,
-116,
-118,
-113,
-116,
-114,
-117,
-116,
-117,
-113,
-116,
-115,
-119,
-113,
-117,
-115,
-118,
-115,
-118,
-115,
-115,
-117,
-119,
-119,
-117,
-118,
-119,
-118,
-119,
-117,
-116,
-117,
-120,
-117,
-117,
-116,
-119,
-114,
-120,
-114,
-117,
-116,
-120,
-117,
-119,
-115,
-119,
-118,
-118,
-120,
-117,
-118,
-116,
-118,
-121,
-116,
-118,
-115,
-123,
-117,
-122,
-117,
-121,
-122,
-124,
-117,
-125,
-116,
-120,
-121,
-120,
-117,
-115,
-119,
-120,
-118,
-117,
-117,
-118,
-119,
-120,
-117,
-121,
-119,
-123,
-118,
-124,
-119,
-123,
-118,
-124,
-122,
-122,
-118,
-121,
-121,
-124,
-118,
-119,
-121,
-121,
-121,
-121,
-120,
-121,
-122,
-122,
-117,
-119,
-119,
-122,
-121,
-125,
-115,
-121,
-120,
-126,
-121,
-121,
-120,
-124,
-125,
-125,
-121,
-121,
-125,
-125,
-124,
-122,
-122,
-121,
-123,
-125,
-119,
-123,
-117,
-126,
-121,
-123,
-117,
-123,
-121,
-124,
-121,
-124,
-121,
-122,
-123,
-122,
-123,
-122,
-122,
-125,
-123,
-126,
-121,
-125,
-124,
-127,
-123,
-124,
-124,
-128,
-123,
-127,
-121,
-123,
-119,
-123,
-123,
-123,
-119,
-121,
-123,
-125,
-120,
-122,
-125,
-125,
-123,
-125,
-121,
-123,
-125,
-125,
-123,
-123,
-121,
-125,
-122,
-127,
-122,
-122,
-125,
-130,
-124,
-125,
-124,
-126,
-127,
-125,
-124,
-125,
-123,
-123,
-123,
-123,
-123,
-124,
-121,
-128,
-122,
-123,
-120,
-127,
-123,
-129,
-121,
-125,
-125,
-128,
-124,
-125,
-125,
-125,
-127,
-126,
-124,
-123,
-125,
-129,
-126,
-129,
-121,
-127,
-125,
-129,
-122,
-126,
-122,
-127,
-126,
-127,
-123,
-122,
-126,
-127,
-124,
-123,
-122,
-125,
-127,
-127,
-124,
-125,
-126,
-129,
-126,
-129,
-124,
-127,
-125,
-129,
-127,
-125,
-125,
-129,
-125,
-127,
-123,
-125,
-125,
-129,
-125,
-125,
-123,
-124,
-127,
-127,
-126,
-124,
-125,
-128,
-123,
-126,
-123,
-126,
-124,
-131,
-121,
-127,
-125,
-130,
-127,
-130,
-125,
-129,
-131,
-129,
-128,
-126,
-125,
-126,
-129,
-127,
-124,
-125,
-124,
-129,
-125,
-127,
-120,
-130,
-126,
-128,
-124,
-128,
-124,
-127,
-125,
-126,
-125,
-123,
-125,
-127,
-127,
-127,
-125,
-129,
-128,
-128,
-125,
-128,
-126,
-130,
-126,
-131,
-125,
-127,
-127,
-130,
-125,
-127,
-123,
-125,
-128,
-127,
-121,
-124,
-129,
-128,
-126,
-125,
-125,
-125,
-127,
-129,
-125,
-126,
-124,
-129,
-126,
-130,
-123,
-127,
-126,
-132,
-125,
-127,
-126,
-130,
-129,
-130,
-125,
-125,
-128,
-125,
-128,
-125,
-124,
-123,
-127,
-130,
-123,
-124,
-123,
-129,
-125,
-128,
-122,
-129,
-125,
-131,
-125,
-128,
-125,
-127,
-129,
-129,
-125,
-123,
-126,
-128,
-129,
-129,
-123,
-127,
-127,
-131,
-124,
-129,
-125,
-129,
-126,
-128,
-123,
-125,
-125,
-129,
-125,
-124,
-123,
-127,
-128,
-127,
-123,
-127,
-126,
-129,
-127,
-129,
-125,
-126,
-127,
-131,
-126,
-126,
-123,
-129,
-127,
-129,
-121,
-125,
-125,
-129,
-123,
-128,
-123,
-126,
-127,
-126,
-126,
-126,
-126,
-127,
-128,
-126,
-123,
-124,
-125,
-129,
-125,
-126,
-123,
-130,
-126,
-130,
-125,
-130,
-126,
-131,
-127,
-129,
-125,
-125,
-129,
-129,
-125,
-124,
-125,
-126,
-124,
-125,
-123,
-126,
-123,
-129,
-123,
-128,
-123,
-128,
-123,
-130,
-125,
-126,
-125,
-129,
-127,
-127,
-123,
-125,
-127,
-128,
-125,
-125,
-126,
-128,
-128,
-129,
-123,
-125,
-126,
-129,
-125,
-126,
-120,
-126,
-124,
-125,
-121,
-124,
-123,
-126,
-125,
-125,
-123,
-125,
-127,
-129,
-126,
-127,
-125,
-126,
-126,
-127,
-121,
-125,
-126,
-131,
-125,
-126,
-121,
-127,
-123,
-128,
-121,
-125,
-122,
-126,
-125,
-127,
-123,
-120,
-126,
-125,
-124,
-122,
-121,
-124,
-126,
-129,
-122,
-126,
-122,
-129,
-124,
-127,
-124,
-125,
-125,
-131,
-124,
-124,
-124,
-127,
-125,
-124,
-123,
-121,
-124,
-125,
-122,
-125,
-121,
-123,
-124,
-125,
-123,
-123,
-124,
-127,
-126,
-125,
-118,
-125,
-124,
-125,
-122,
-125,
-121,
-125,
-126,
-126,
-122,
-124,
-123,
-125,
-123,
-125,
-119,
-121,
-125,
-126,
-121,
-121,
-121,
-125,
-123,
-126,
-116,
-123,
-121,
-125,
-122,
-123,
-120,
-124,
-125,
-124,
-123,
-122,
-124,
-123,
-124,
-124,
-120,
-125,
-123,
-127,
-119,
-125,
-119,
-125,
-121,
-127,
-119,
-120,
-120,
-125,
-122,
-121,
-121,
-118,
-125,
-123,
-119,
-121,
-122,
-122,
-123,
-123,
-121,
-123,
-122,
-125,
-123,
-123,
-121,
-125,
-122,
-125,
-119,
-119,
-120,
-122,
-121,
-124,
-117,
-119,
-122,
-123,
-118,
-119,
-121,
-120,
-122,
-123,
-118,
-119,
-119,
-122,
-121,
-122,
-117,
-122,
-119,
-126,
-117,
-123,
-121,
-125,
-121,
-122,
-121,
-119,
-120,
-122,
-121,
-118,
-117,
-118,
-122,
-119,
-113,
-119,
-117,
-121,
-119,
-122,
-117,
-121,
-121,
-123,
-120,
-120,
-119,
-121,
-123,
-121,
-116,
-121,
-121,
-121,
-117,
-119,
-119,
-122,
-118,
-121,
-118,
-119,
-117,
-120,
-117,
-120,
-113,
-118,
-118,
-119,
-115,
-117,
-117,
-121,
-118,
-119,
-117,
-119,
-119,
-120,
-119,
-121,
-119,
-121,
-121,
-120,
-118,
-118,
-117,
-121,
-116,
-119,
-113,
-120,
-117,
-119,
-115,
-117,
-117,
-118,
-118,
-118,
-119,
-113,
-119,
-119,
-117,
-115,
-115,
-119,
-116,
-121,
-115,
-119,
-116,
-121,
-117,
-121,
-115,
-118,
-118,
-121,
-117,
-112,
-115,
-115,
-117,
-115,
-116,
-113,
-115,
-117,
-115,
-117,
-114,
-117,
-116,
-121,
-111,
-116,
-117,
-121,
-118,
-117,
-113,
-115,
-117,
-118,
-115,
-114,
-115,
-117,
-115,
-117,
-116,
-117,
-115,
-117,
-117,
-117,
-110,
-113,
-114,
-119,
-110,
-113,
-112,
-116,
-113,
-117,
-110,
-115,
-116,
-117,
-115,
-114,
-115,
-117,
-118,
-116,
-114,
-113,
-115,
-116,
-115,
-115,
-112,
-117,
-113,
-116,
-110,
-114,
-111,
-117,
-111,
-116,
-110,
-111,
-113,
-114,
-112,
-111,
-111,
-112,
-115,
-113,
-111,
-113,
-113,
-115,
-113,
-117,
-110,
-116,
-114,
-117,
-113,
-113,
-111,
-117,
-114,
-113,
-108,
-110,
-114,
-111,
-110,
-111,
-109,
-111,
-112,
-114,
-110,
-112,
-110,
-112,
-113,
-115,
-107,
-112,
-113,
-117,
-110,
-112,
-111,
-113,
-111,
-112,
-110,
-112,
-113,
-115,
-111,
-111,
-110,
-108,
-111,
-111,
-107,
-109,
-107,
-113,
-109,
-113,
-103,
-107,
-107,
-115,
-108,
-110,
-107,
-112,
-110,
-113,
-109,
-109,
-111,
-111,
-113,
-110,
-108,
-107,
-111,
-111,
-106,
-109,
-107,
-110,
-107,
-113,
-105,
-109,
-107,
-113,
-108,
-107,
-105,
-107,
-110,
-106,
-107,
-108,
-108,
-108,
-109,
-109,
-105,
-109,
-110,
-110,
-108,
-109,
-105,
-111,
-110,
-111,
-105,
-109,
-107,
-111,
-106,
-107,
-103,
-108,
-109,
-109,
-102,
-103,
-107,
-108,
-107,
-105,
-107,
-107,
-109,
-109,
-106,
-105,
-102,
-108,
-106,
-109,
-103,
-107,
-106,
-110,
-106,
-109,
-107,
-107,
-108,
-110,
-105,
-103,
-107,
-107,
-107,
-102,
-102,
-105,
-103,
-107,
-102,
-106,
-101,
-106,
-103,
-109,
-103,
-103,
-103,
-108,
-106,
-104,
-103,
-105,
-107,
-105,
-103,
-103,
-105,
-105,
-104,
-106,
-102,
-105,
-103,
-108,
-103,
-103,
-101,
-106,
-102,
-104,
-101,
-100,
-105,
-104,
-102,
-101,
-102,
-101,
-103,
-105,
-102,
-102,
-102,
-104,
-106,
-105,
-102,
-103,
-104,
-106,
-102,
-103,
-99,
-105,
-102,
-105,
-102,
-104,
-98,
-102,
-101,
-101,
-99,
-101,
-103,
-105,
-99,
-98,
-101,
-102,
-101,
-101,
-97,
-100,
-100,
-105,
-99,
-102,
-98,
-103,
-99,
-108,
-99,
-102,
-101,
-104,
-103,
-101,
-99,
-99,
-101,
-99,
-99,
-99,
-98,
-98,
-99,
-103,
-94,
-98,
-99,
-105,
-99,
-100,
-97,
-102,
-100,
-102,
-97,
-99,
-99,
-100,
-100,
-101,
-99,
-97,
-99,
-103,
-99,
-98,
-97,
-101,
-99,
-102,
-97,
-97,
-97,
-101,
-97,
-98,
-94,
-97,
-95,
-102,
-93,
-95,
-96,
-98,
-99,
-101,
-95,
-95,
-99,
-99,
-101,
-98,
-97,
-96,
