A246/TeX/figs/measurements/ALL0005/A0005CH2.CSV

Memory Length,500,
Trigger Level,-4.000E-02,
Source,CH2,
Vertical Units,V,
Vertical Scale,5.000E-02,
Vertical Position,-1.380E-01,
Horizontal Units,s,
Horizontal Scale,1.000E-04,
Horizontal Position,-1.000E-03,
Horizontal Mode,Main,
Sampling Period,4.000E-06,
Firmware,V1.09,
Time,06-May-21 14:25,
Waveform Data,
24,
25,
22,
25,
30,
37,
51,
67,
81,
93,
95,
90,
85,
76,
70,
62,
58,
53,
48,
42,
38,
35,
33,
28,
28,
28,
25,
25,
25,
27,
29,
37,
47,
59,
76,
90,
95,
90,
85,
77,
72,
65,
59,
51,
49,
44,
38,
37,
33,
29,
27,
26,
25,
24,
23,
27,
29,
37,
45,
58,
72,
88,
93,
95,
85,
78,
73,
66,
59,
52,
49,
45,
40,
35,
32,
31,
29,
28,
26,
25,
26,
24,
29,
34,
45,
60,
72,
88,
92,
92,
87,
78,
73,
65,
60,
53,
46,
46,
41,
34,
34,
31,
28,
29,
25,
24,
24,
27,
30,
34,
46,
59,
75,
86,
91,
93,
85,
78,
69,
62,
56,
53,
48,
44,
39,
37,
33,
32,
28,
25,
27,
25,
24,
25,
30,
38,
49,
61,
77,
90,
92,
89,
84,
76,
70,
61,
57,
51,
49,
43,
37,
36,
30,
30,
27,
26,
25,
24,
25,
27,
33,
39,
50,
66,
80,
93,
93,
89,
81,
73,
68,
60,
57,
49,
46,
41,
38,
34,
30,
29,
27,
28,
27,
25,
25,
28,
33,
43,
55,
72,
86,
91,
90,
88,
77,
71,
66,
60,
53,
49,
45,
38,
37,
35,
31,
29,
25,
25,
24,
25,
26,
29,
35,
50,
63,
77,
89,
91,
88,
81,
75,
68,
61,
57,
53,
46,
43,
37,
36,
29,
29,
25,
27,
25,
25,
25,
28,
35,
43,
54,
72,
85,
92,
89,
84,
77,
72,
65,
57,
54,
47,
44,
38,
35,
32,
32,
28,
28,
25,
25,
23,
25,
30,
36,
47,
61,
77,
88,
93,
88,
80,
74,
70,
60,
56,
52,
45,
38,
36,
32,
31,
27,
29,
25,
24,
24,
27,
28,
33,
45,
57,
73,
85,
91,
89,
82,
75,
68,
62,
57,
52,
47,
39,
38,
35,
32,
30,
25,
25,
25,
26,
25,
25,
34,
39,
52,
69,
81,
92,
92,
85,
78,
72,
65,
57,
53,
48,
44,
41,
35,
34,
29,
28,
28,
26,
23,
23,
27,
30,
40,
49,
65,
79,
91,
94,
86,
80,
73,
71,
60,
55,
49,
45,
42,
37,
34,
31,
28,
26,
25,
23,
24,
27,
31,
37,
45,
61,
75,
89,
92,
87,
81,
74,
68,
59,
56,
50,
48,
39,
35,
35,
33,
32,
26,
24,
24,
24,
26,
26,
33,
45,
58,
73,
85,
92,
89,
81,
75,
68,
63,
57,
49,
45,
42,
39,
35,
32,
31,
25,
25,
24,
25,
24,
28,
33,
44,
58,
72,
85,
92,
87,
82,
76,
71,
63,
57,
50,
48,
42,
37,
34,
29,
31,
26,
25,
24,
23,
25,
28,
33,
44,
57,
74,
87,
91,
88,
83,
74,
68,
61,
56,
49,
45,
39,
35,
35,
30,
32,
26,
25,
24,
23,
26,
28,
34,
45,
58,
73,
85,
93,
88,
80,
75,
68,
61,
56,
50,
45,
39,
37,
33,
32,
26,
25,
27,
25,
27,
27,
29,
36,
48,
62,
76,
89,
90,
86,
77,
71,
66,
59,
